exercicios/aula_23/exercicio1/simulation/qsim/exercicio1.msim.vcd
$comment
	File created using the following command:
		vcd file exercicio1.msim.vcd -direction
$end
$date
	Fri Nov  8 17:08:42 2019
$end
$version
	ModelSim Version 10.5b
$end
$timescale
	1ps
$end

$scope module exercicio1_vhd_vec_tst $end
$var wire 1 ! clk $end
$var wire 1 " data [15] $end
$var wire 1 # data [14] $end
$var wire 1 $ data [13] $end
$var wire 1 % data [12] $end
$var wire 1 & data [11] $end
$var wire 1 ' data [10] $end
$var wire 1 ( data [9] $end
$var wire 1 ) data [8] $end
$var wire 1 * data [7] $end
$var wire 1 + data [6] $end
$var wire 1 , data [5] $end
$var wire 1 - data [4] $end
$var wire 1 . data [3] $end
$var wire 1 / data [2] $end
$var wire 1 0 data [1] $end
$var wire 1 1 data [0] $end
$var wire 1 2 dmx [2] $end
$var wire 1 3 dmx [1] $end
$var wire 1 4 dmx [0] $end
$var wire 1 5 mux [2] $end
$var wire 1 6 mux [1] $end
$var wire 1 7 mux [0] $end
$var wire 1 8 q [15] $end
$var wire 1 9 q [14] $end
$var wire 1 : q [13] $end
$var wire 1 ; q [12] $end
$var wire 1 < q [11] $end
$var wire 1 = q [10] $end
$var wire 1 > q [9] $end
$var wire 1 ? q [8] $end
$var wire 1 @ q [7] $end
$var wire 1 A q [6] $end
$var wire 1 B q [5] $end
$var wire 1 C q [4] $end
$var wire 1 D q [3] $end
$var wire 1 E q [2] $end
$var wire 1 F q [1] $end
$var wire 1 G q [0] $end

$scope module i1 $end
$var wire 1 H gnd $end
$var wire 1 I vcc $end
$var wire 1 J unknown $end
$var wire 1 K devoe $end
$var wire 1 L devclrn $end
$var wire 1 M devpor $end
$var wire 1 N ww_devoe $end
$var wire 1 O ww_devclrn $end
$var wire 1 P ww_devpor $end
$var wire 1 Q ww_dmx [2] $end
$var wire 1 R ww_dmx [1] $end
$var wire 1 S ww_dmx [0] $end
$var wire 1 T ww_data [15] $end
$var wire 1 U ww_data [14] $end
$var wire 1 V ww_data [13] $end
$var wire 1 W ww_data [12] $end
$var wire 1 X ww_data [11] $end
$var wire 1 Y ww_data [10] $end
$var wire 1 Z ww_data [9] $end
$var wire 1 [ ww_data [8] $end
$var wire 1 \ ww_data [7] $end
$var wire 1 ] ww_data [6] $end
$var wire 1 ^ ww_data [5] $end
$var wire 1 _ ww_data [4] $end
$var wire 1 ` ww_data [3] $end
$var wire 1 a ww_data [2] $end
$var wire 1 b ww_data [1] $end
$var wire 1 c ww_data [0] $end
$var wire 1 d ww_mux [2] $end
$var wire 1 e ww_mux [1] $end
$var wire 1 f ww_mux [0] $end
$var wire 1 g ww_clk $end
$var wire 1 h ww_q [15] $end
$var wire 1 i ww_q [14] $end
$var wire 1 j ww_q [13] $end
$var wire 1 k ww_q [12] $end
$var wire 1 l ww_q [11] $end
$var wire 1 m ww_q [10] $end
$var wire 1 n ww_q [9] $end
$var wire 1 o ww_q [8] $end
$var wire 1 p ww_q [7] $end
$var wire 1 q ww_q [6] $end
$var wire 1 r ww_q [5] $end
$var wire 1 s ww_q [4] $end
$var wire 1 t ww_q [3] $end
$var wire 1 u ww_q [2] $end
$var wire 1 v ww_q [1] $end
$var wire 1 w ww_q [0] $end
$var wire 1 x \~QUARTUS_CREATED_GND~I_combout\ $end
$var wire 1 y \clk~input_o\ $end
$var wire 1 z \clk~inputCLKENA0_outclk\ $end
$var wire 1 { \data[0]~input_o\ $end
$var wire 1 | \r1[0]~feeder_combout\ $end
$var wire 1 } \dmx[0]~input_o\ $end
$var wire 1 ~ \dmx[2]~input_o\ $end
$var wire 1 !! \dmx[1]~input_o\ $end
$var wire 1 "! \Equal0~0_combout\ $end
$var wire 1 #! \q[0]~reg0feeder_combout\ $end
$var wire 1 $! \mux[1]~input_o\ $end
$var wire 1 %! \mux[0]~input_o\ $end
$var wire 1 &! \mux[2]~input_o\ $end
$var wire 1 '! \Equal1~0_combout\ $end
$var wire 1 (! \q[0]~reg0_q\ $end
$var wire 1 )! \data[1]~input_o\ $end
$var wire 1 *! \q[1]~reg0feeder_combout\ $end
$var wire 1 +! \q[1]~reg0_q\ $end
$var wire 1 ,! \data[2]~input_o\ $end
$var wire 1 -! \r1[2]~feeder_combout\ $end
$var wire 1 .! \q[2]~reg0feeder_combout\ $end
$var wire 1 /! \q[2]~reg0_q\ $end
$var wire 1 0! \data[3]~input_o\ $end
$var wire 1 1! \q[3]~reg0feeder_combout\ $end
$var wire 1 2! \q[3]~reg0_q\ $end
$var wire 1 3! \data[4]~input_o\ $end
$var wire 1 4! \r1[4]~feeder_combout\ $end
$var wire 1 5! \q[4]~reg0_q\ $end
$var wire 1 6! \data[5]~input_o\ $end
$var wire 1 7! \q[5]~reg0feeder_combout\ $end
$var wire 1 8! \q[5]~reg0_q\ $end
$var wire 1 9! \data[6]~input_o\ $end
$var wire 1 :! \r1[6]~feeder_combout\ $end
$var wire 1 ;! \q[6]~reg0feeder_combout\ $end
$var wire 1 <! \q[6]~reg0_q\ $end
$var wire 1 =! \data[7]~input_o\ $end
$var wire 1 >! \q[7]~reg0feeder_combout\ $end
$var wire 1 ?! \q[7]~reg0_q\ $end
$var wire 1 @! \data[8]~input_o\ $end
$var wire 1 A! \q[8]~reg0feeder_combout\ $end
$var wire 1 B! \q[8]~reg0_q\ $end
$var wire 1 C! \data[9]~input_o\ $end
$var wire 1 D! \r1[9]~feeder_combout\ $end
$var wire 1 E! \q[9]~reg0feeder_combout\ $end
$var wire 1 F! \q[9]~reg0_q\ $end
$var wire 1 G! \data[10]~input_o\ $end
$var wire 1 H! \r1[10]~feeder_combout\ $end
$var wire 1 I! \q[10]~reg0feeder_combout\ $end
$var wire 1 J! \q[10]~reg0_q\ $end
$var wire 1 K! \data[11]~input_o\ $end
$var wire 1 L! \q[11]~reg0feeder_combout\ $end
$var wire 1 M! \q[11]~reg0_q\ $end
$var wire 1 N! \data[12]~input_o\ $end
$var wire 1 O! \r1[12]~feeder_combout\ $end
$var wire 1 P! \q[12]~reg0feeder_combout\ $end
$var wire 1 Q! \q[12]~reg0_q\ $end
$var wire 1 R! \data[13]~input_o\ $end
$var wire 1 S! \q[13]~reg0feeder_combout\ $end
$var wire 1 T! \q[13]~reg0_q\ $end
$var wire 1 U! \data[14]~input_o\ $end
$var wire 1 V! \r1[14]~feeder_combout\ $end
$var wire 1 W! \q[14]~reg0feeder_combout\ $end
$var wire 1 X! \q[14]~reg0_q\ $end
$var wire 1 Y! \data[15]~input_o\ $end
$var wire 1 Z! \q[15]~reg0feeder_combout\ $end
$var wire 1 [! \q[15]~reg0_q\ $end
$var wire 1 \! r1 [15] $end
$var wire 1 ]! r1 [14] $end
$var wire 1 ^! r1 [13] $end
$var wire 1 _! r1 [12] $end
$var wire 1 `! r1 [11] $end
$var wire 1 a! r1 [10] $end
$var wire 1 b! r1 [9] $end
$var wire 1 c! r1 [8] $end
$var wire 1 d! r1 [7] $end
$var wire 1 e! r1 [6] $end
$var wire 1 f! r1 [5] $end
$var wire 1 g! r1 [4] $end
$var wire 1 h! r1 [3] $end
$var wire 1 i! r1 [2] $end
$var wire 1 j! r1 [1] $end
$var wire 1 k! r1 [0] $end
$var wire 1 l! \ALT_INV_data[14]~input_o\ $end
$var wire 1 m! \ALT_INV_data[12]~input_o\ $end
$var wire 1 n! \ALT_INV_data[10]~input_o\ $end
$var wire 1 o! \ALT_INV_data[9]~input_o\ $end
$var wire 1 p! \ALT_INV_data[6]~input_o\ $end
$var wire 1 q! \ALT_INV_data[4]~input_o\ $end
$var wire 1 r! \ALT_INV_data[2]~input_o\ $end
$var wire 1 s! \ALT_INV_dmx[2]~input_o\ $end
$var wire 1 t! \ALT_INV_dmx[1]~input_o\ $end
$var wire 1 u! \ALT_INV_dmx[0]~input_o\ $end
$var wire 1 v! \ALT_INV_data[0]~input_o\ $end
$var wire 1 w! \ALT_INV_mux[2]~input_o\ $end
$var wire 1 x! \ALT_INV_mux[1]~input_o\ $end
$var wire 1 y! \ALT_INV_mux[0]~input_o\ $end
$var wire 1 z! ALT_INV_r1 [15] $end
$var wire 1 {! ALT_INV_r1 [14] $end
$var wire 1 |! ALT_INV_r1 [13] $end
$var wire 1 }! ALT_INV_r1 [12] $end
$var wire 1 ~! ALT_INV_r1 [11] $end
$var wire 1 !" ALT_INV_r1 [10] $end
$var wire 1 "" ALT_INV_r1 [9] $end
$var wire 1 #" ALT_INV_r1 [8] $end
$var wire 1 $" ALT_INV_r1 [7] $end
$var wire 1 %" ALT_INV_r1 [6] $end
$var wire 1 &" ALT_INV_r1 [5] $end
$var wire 1 '" ALT_INV_r1 [4] $end
$var wire 1 (" ALT_INV_r1 [3] $end
$var wire 1 )" ALT_INV_r1 [2] $end
$var wire 1 *" ALT_INV_r1 [1] $end
$var wire 1 +" ALT_INV_r1 [0] $end
$upscope $end
$upscope $end
$enddefinitions $end
#0
$dumpvars
0!
0H
1I
xJ
1K
1L
1M
1N
1O
1P
0g
xx
0y
0z
0{
0|
0}
0~
0!!
1"!
0#!
0$!
0%!
0&!
1'!
0(!
0)!
0*!
0+!
0,!
0-!
0.!
0/!
00!
01!
02!
03!
04!
05!
06!
07!
08!
09!
0:!
0;!
0<!
0=!
0>!
0?!
0@!
0A!
0B!
0C!
0D!
0E!
0F!
0G!
0H!
0I!
0J!
0K!
0L!
0M!
0N!
0O!
0P!
0Q!
0R!
0S!
0T!
0U!
0V!
0W!
0X!
0Y!
0Z!
0[!
1l!
1m!
1n!
1o!
1p!
1q!
1r!
1s!
1t!
1u!
1v!
1w!
1x!
1y!
0"
0#
0$
0%
0&
0'
0(
0)
0*
0+
0,
0-
0.
0/
00
01
02
03
04
05
06
07
0Q
0R
0S
0T
0U
0V
0W
0X
0Y
0Z
0[
0\
0]
0^
0_
0`
0a
0b
0c
0d
0e
0f
0h
0i
0j
0k
0l
0m
0n
0o
0p
0q
0r
0s
0t
0u
0v
0w
0\!
0]!
0^!
0_!
0`!
0a!
0b!
0c!
0d!
0e!
0f!
0g!
0h!
0i!
0j!
0k!
1z!
1{!
1|!
1}!
1~!
1!"
1""
1#"
1$"
1%"
1&"
x'"
1("
1)"
1*"
1+"
08
09
0:
0;
0<
0=
0>
0?
0@
0A
0B
0C
0D
0E
0F
0G
$end
#37500
1!
1g
1y
1z
#75000
0!
0g
0y
0z
#80000
1.
10
1b
1`
10!
1)!
#112500
1!
1g
1y
1z
1j!
1h!
0("
0*"
1*!
11!
#150000
0!
0g
0y
0z
#180000
0.
00
0b
0`
00!
0)!
#187500
1!
1g
1y
1z
0j!
1+!
0h!
12!
1("
1*"
0*!
01!
1t
1v
1F
1D
#225000
0!
0g
0y
0z
#240000
1-
1_
13!
0q!
14!
#262500
1!
1g
1y
1z
0+!
02!
1g!
0t
0v
0F
0D
#300000
0!
0g
0y
0z
#337500
1!
1g
1y
1z
15!
1s
1C
#340000
0-
0_
03!
1q!
04!
#375000
0!
0g
0y
0z
#412500
1!
1g
1y
1z
0g!
#450000
0!
0g
0y
0z
#487500
1!
1g
1y
1z
05!
0s
0C
#525000
0!
0g
0y
0z
#562500
1!
1g
1y
1z
#600000
0!
0g
0y
0z
#620000
1,
1^
16!
#637500
1!
1g
1y
1z
1f!
0&"
17!
#675000
0!
0g
0y
0z
#712500
1!
1g
1y
1z
18!
1r
1B
#750000
0!
0g
0y
0z
#787500
1!
1g
1y
1z
#800000
0,
0^
06!
#825000
0!
0g
0y
0z
#862500
1!
1g
1y
1z
0f!
1&"
07!
#900000
0!
0g
0y
0z
#937500
1!
1g
1y
1z
08!
0r
0B
#975000
0!
0g
0y
0z
