exercicios/aula_15/julgadores/simulation/qsim/julgadores.msim.vcd
$comment
	File created using the following command:
		vcd file julgadores.msim.vcd -direction
$end
$date
	Sat Sep 14 17:43:06 2019
$end
$version
	ModelSim Version 10.5b
$end
$timescale
	1ps
$end

$scope module julgadores_vhd_vec_tst $end
$var wire 1 ! j0 $end
$var wire 1 " j1 $end
$var wire 1 # j2 $end
$var wire 1 $ j3 $end
$var wire 1 % vd $end
$var wire 1 & vm $end

$scope module i1 $end
$var wire 1 ' gnd $end
$var wire 1 ( vcc $end
$var wire 1 ) unknown $end
$var wire 1 * devoe $end
$var wire 1 + devclrn $end
$var wire 1 , devpor $end
$var wire 1 - ww_devoe $end
$var wire 1 . ww_devclrn $end
$var wire 1 / ww_devpor $end
$var wire 1 0 ww_j0 $end
$var wire 1 1 ww_j1 $end
$var wire 1 2 ww_j2 $end
$var wire 1 3 ww_j3 $end
$var wire 1 4 ww_vd $end
$var wire 1 5 ww_vm $end
$var wire 1 6 \~QUARTUS_CREATED_GND~I_combout\ $end
$var wire 1 7 \j3~input_o\ $end
$var wire 1 8 \j2~input_o\ $end
$var wire 1 9 \j1~input_o\ $end
$var wire 1 : \j0~input_o\ $end
$var wire 1 ; \vd~0_combout\ $end
$var wire 1 < \vm~0_combout\ $end
$var wire 1 = \ALT_INV_j1~input_o\ $end
$var wire 1 > \ALT_INV_j3~input_o\ $end
$var wire 1 ? \ALT_INV_j2~input_o\ $end
$var wire 1 @ \ALT_INV_j0~input_o\ $end
$upscope $end
$upscope $end
$enddefinitions $end
#0
$dumpvars
1!
0"
1#
1$
1%
0&
0'
1(
x)
1*
1+
1,
1-
1.
1/
10
01
12
13
14
05
x6
17
18
09
1:
1;
0<
1=
0>
0?
0@
$end
#5000
1"
11
19
0=
#10000
0"
0#
0$
01
02
03
07
08
09
1=
1?
1>
0;
1<
15
04
1&
0%
#15000
1"
11
19
0=
1;
14
1%
#20000
1#
12
18
0?
0;
0<
05
04
0&
0%
#25000
0#
02
08
1?
1;
1<
15
14
1&
1%
#30000
0!
00
0:
1@
0;
04
0%
#35000
1!
1#
0"
10
12
01
09
18
1:
0@
0?
1=
1;
14
1%
#40000
0!
1$
00
13
17
0:
1@
0>
#45000
1!
10
1:
0@
0<
05
0&
#50000
0$
03
07
1>
1<
15
1&
#55000
1$
0#
13
02
08
17
0>
1?
#60000
0!
00
0:
1@
0;
04
0%
#70000
0$
1"
03
11
19
07
1>
0=
#75000
1$
13
17
0>
1;
14
1%
#80000
0$
0"
03
01
09
07
1>
1=
0;
0<
05
04
0&
0%
#85000
1"
1!
11
10
1:
19
0=
0@
1;
1<
15
14
1&
1%
#90000
1#
12
18
0?
0;
0<
05
04
0&
0%
#95000
0#
0!
1$
02
00
13
17
0:
08
1?
1@
0>
1;
1<
15
14
1&
1%
#100000
1!
0$
10
03
07
1:
0@
1>
#105000
0!
1$
0"
00
13
01
09
17
0:
1@
0>
1=
0;
04
0%
#110000
1!
0$
10
03
07
1:
0@
1>
#115000
1$
1"
1#
13
11
12
18
19
17
0>
0=
0?
1;
0<
05
14
0&
1%
#120000
0$
03
07
1>
0;
04
0%
#125000
1$
0!
13
00
0:
17
0>
1@
1;
14
1%
#130000
0$
03
07
1>
1<
15
1&
#135000
1!
0#
10
02
08
1:
0@
1?
#140000
0!
1#
00
12
18
0:
1@
0?
#145000
0#
1$
0"
02
13
01
09
17
08
1?
0>
1=
0;
04
0%
#150000
1#
0$
1!
12
03
10
1:
07
18
0?
1>
0@
1;
14
1%
#155000
0#
1$
02
13
17
08
1?
0>
#165000
1#
0$
0!
12
03
00
0:
07
18
0?
1>
1@
0;
04
0%
#170000
0#
1$
1"
02
13
11
19
17
08
1?
0>
0=
1;
14
1%
#175000
1#
12
18
0?
0<
05
0&
#180000
0#
0$
02
03
07
08
1?
1>
0;
1<
15
04
1&
0%
#185000
0"
01
09
1=
0<
05
0&
#195000
1"
1!
11
10
1:
19
0=
0@
1;
1<
15
14
1&
1%
#200000
0"
1#
01
12
18
09
1=
0?
#205000
1"
0#
1$
11
02
13
17
08
19
0=
1?
0>
0<
05
0&
#210000
1#
12
18
0?
#215000
0$
03
07
1>
0;
04
0%
#220000
1$
0!
13
00
0:
17
0>
1@
1;
14
1%
#225000
0#
02
08
1?
1<
15
1&
#235000
1!
0"
10
01
09
1:
0@
1=
#240000
0!
0$
00
03
07
0:
1@
1>
0;
0<
05
04
0&
0%
#245000
1"
1#
11
12
18
19
0=
0?
1;
1<
15
14
1&
1%
#250000
0"
1!
1$
01
10
13
17
1:
09
1=
0@
0>
0<
05
0&
#255000
1"
0!
0#
11
00
02
08
0:
19
0=
1@
1?
1<
15
1&
#260000
0"
1#
0$
01
12
03
07
18
09
1=
0?
1>
0;
04
0%
#265000
0#
1$
1!
02
13
10
1:
17
08
1?
0>
0@
1;
14
1%
#270000
1#
1"
12
11
19
18
0?
0=
0<
05
0&
#275000
0#
0"
0$
02
01
03
07
09
08
1?
1=
1>
0;
1<
15
04
1&
0%
#280000
1#
12
18
0?
1;
14
1%
#285000
0#
1$
0!
02
13
00
0:
17
08
1?
0>
1@
0;
04
0%
#290000
1!
1"
10
11
19
1:
0@
0=
1;
0<
05
14
0&
1%
#295000
0!
0"
1#
00
01
12
18
09
0:
1@
1=
0?
1<
15
1&
#300000
1!
0$
10
03
07
1:
0@
1>
#305000
0!
1$
1"
0#
00
13
11
02
08
19
17
0:
1@
0>
0=
1?
#310000
0$
03
07
1>
0;
04
0%
#315000
1$
0"
13
01
09
17
0>
1=
#320000
1!
10
1:
0@
1;
14
1%
#335000
0$
1"
1#
03
11
12
18
19
07
1>
0=
0?
0;
0<
05
04
0&
0%
#340000
1$
0!
13
00
0:
17
0>
1@
1;
14
1%
#345000
0#
02
08
1?
1<
15
1&
#350000
1!
0"
10
01
09
1:
0@
1=
#355000
0!
0$
00
03
07
0:
1@
1>
0;
0<
05
04
0&
0%
#365000
1!
1$
1"
10
13
11
19
17
1:
0@
0>
0=
1;
14
1%
#370000
0!
0"
1#
00
01
12
18
09
0:
1@
1=
0?
1<
15
1&
#375000
1"
11
19
0=
0<
05
0&
#380000
0"
0$
01
03
07
09
1=
1>
0;
1<
15
04
1&
0%
#385000
1!
10
1:
0@
1;
14
1%
#390000
0!
1$
00
13
17
0:
1@
0>
#395000
0$
03
07
1>
0;
04
0%
#400000
1!
1"
0#
10
11
02
08
19
1:
0@
0=
1?
1;
14
1%
#410000
0!
1#
00
12
18
0:
1@
0?
#415000
1!
0#
10
02
08
1:
0@
1?
#425000
0!
0"
00
01
09
0:
1@
1=
0;
0<
05
04
0&
0%
#430000
1$
13
17
0>
1<
15
1&
#435000
1"
11
19
0=
1;
14
1%
#440000
0$
1!
03
10
1:
07
1>
0@
#445000
1$
1#
13
12
18
17
0>
0?
0<
05
0&
#450000
0$
0"
03
01
09
07
1>
1=
1<
15
1&
#455000
1$
13
17
0>
0<
05
0&
#460000
0#
02
08
1?
1<
15
1&
#470000
1#
1"
12
11
19
18
0?
0=
0<
05
0&
#475000
0"
0!
01
00
0:
09
1=
1@
1<
15
1&
#480000
1"
0#
11
02
08
19
0=
1?
#485000
1#
0$
12
03
07
18
0?
1>
#495000
0#
1$
1!
02
13
10
1:
17
08
1?
0>
0@
0<
05
0&
#500000
1#
0"
12
01
09
18
0?
1=
#505000
0$
03
07
1>
1<
15
1&
#510000
1$
0#
1"
13
02
11
19
08
17
0>
1?
0=
0<
05
0&
#515000
0$
0"
0!
03
01
00
0:
09
07
1>
1=
1@
0;
04
0%
#525000
1$
1!
13
10
1:
17
0>
0@
1;
1<
15
14
1&
1%
#530000
0$
0!
03
00
0:
07
1>
1@
0;
0<
05
04
0&
0%
#535000
1#
12
18
0?
1<
15
1&
#540000
0#
1$
1!
1"
02
13
10
11
19
1:
17
08
1?
0>
0@
0=
1;
0<
05
14
0&
1%
#545000
1#
0$
0!
0"
12
03
00
01
09
0:
07
18
0?
1>
1@
1=
0;
1<
15
04
1&
0%
#550000
0#
1!
02
10
1:
08
1?
0@
#555000
1#
0!
1$
1"
12
00
13
11
19
17
0:
18
0?
1@
0>
0=
1;
0<
05
14
0&
1%
#560000
0"
01
09
1=
1<
15
1&
#565000
1"
0#
0$
11
02
03
07
08
19
0=
1?
1>
0;
04
0%
#570000
0"
1#
1$
1!
01
12
13
10
1:
17
18
09
1=
0?
0>
0@
1;
0<
05
14
0&
1%
#575000
1"
0!
11
00
0:
19
0=
1@
#580000
0"
1!
0#
01
10
02
08
1:
09
1=
0@
1?
1<
15
1&
#585000
1#
0$
12
03
07
18
0?
1>
#590000
0#
1"
0!
02
11
00
0:
19
08
1?
0=
1@
0;
04
0%
#595000
1#
12
18
0?
1;
14
1%
#600000
0#
0"
1!
1$
02
01
10
13
17
1:
09
08
1?
1=
0@
0>
#605000
0!
0$
00
03
07
0:
1@
1>
0;
0<
05
04
0&
0%
#610000
1!
1$
1#
10
13
12
18
17
1:
0@
0>
0?
1;
14
1%
#615000
0$
1"
03
11
19
07
1>
0=
0;
04
0%
#620000
1$
0"
13
01
09
17
0>
1=
1;
14
1%
#625000
0$
0#
03
02
08
07
1>
1?
0;
1<
15
04
1&
0%
#630000
1$
1"
13
11
19
17
0>
0=
1;
0<
05
14
0&
1%
#635000
0"
0!
01
00
0:
09
1=
1@
0;
1<
15
04
1&
0%
#640000
1"
1!
0$
11
10
03
07
1:
19
0=
0@
1>
1;
14
1%
#645000
1$
13
17
0>
0<
05
0&
#650000
0$
0"
0!
1#
03
01
00
12
18
0:
09
07
1>
1=
1@
0?
0;
1<
15
04
1&
0%
#655000
1$
1"
1!
0#
13
11
10
02
08
1:
19
17
0>
0=
0@
1?
1;
0<
05
14
0&
1%
#660000
0"
01
09
1=
1<
15
1&
#665000
1"
0$
0!
1#
11
03
00
12
18
0:
07
19
0=
1>
1@
0?
#670000
1$
1!
13
10
1:
17
0>
0@
0<
05
0&
#675000
0"
01
09
1=
#680000
1"
0$
0#
11
03
02
08
07
19
0=
1>
1?
1<
15
1&
#685000
1#
12
18
0?
0;
0<
05
04
0&
0%
#690000
0#
02
08
1?
1;
1<
15
14
1&
1%
#695000
1#
0"
0!
12
01
00
0:
09
18
0?
1=
1@
0;
04
0%
#700000
0#
1$
02
13
17
08
1?
0>
#705000
0$
03
07
1>
0<
05
0&
#710000
1"
1!
11
10
1:
19
0=
0@
1;
1<
15
14
1&
1%
#715000
0"
1$
1#
01
13
12
18
17
09
1=
0>
0?
0<
05
0&
#720000
1"
0$
11
03
07
19
0=
1>
0;
04
0%
#725000
0"
1$
0#
0!
01
13
02
00
0:
08
17
09
1=
0>
1?
1@
1<
15
1&
#730000
1"
0$
1#
11
03
12
18
07
19
0=
1>
0?
1;
14
1%
#735000
0"
0#
1!
01
02
10
1:
08
09
1=
1?
0@
0;
04
0%
#740000
0!
00
0:
1@
0<
05
0&
#745000
1"
11
19
0=
1<
15
1&
#750000
0"
1$
01
13
17
09
1=
0>
#755000
0$
1!
03
10
1:
07
1>
0@
#760000
0!
1#
00
12
18
0:
1@
0?
#765000
1$
13
17
0>
1;
14
1%
#770000
0$
1!
0#
03
10
02
08
1:
07
1>
0@
1?
0;
04
0%
#775000
1$
0!
1#
1"
13
00
12
11
19
18
0:
17
0>
1@
0?
0=
1;
0<
05
14
0&
1%
#780000
1!
0#
10
02
08
1:
0@
1?
#785000
0$
0"
03
01
09
07
1>
1=
0;
1<
15
04
1&
0%
#790000
1$
0!
13
00
0:
17
0>
1@
#795000
1#
12
18
0?
1;
14
1%
#800000
0#
0$
1!
02
03
10
1:
07
08
1?
1>
0@
0;
04
0%
#805000
1#
1$
1"
12
13
11
19
17
18
0?
0>
0=
1;
0<
05
14
0&
1%
#815000
0#
0$
0"
0!
02
03
01
00
0:
09
07
08
1?
1>
1=
1@
0;
04
0%
#820000
1$
1!
13
10
1:
17
0>
0@
1;
1<
15
14
1&
1%
#825000
0$
1#
1"
03
12
11
19
18
07
1>
0?
0=
0;
0<
05
04
0&
0%
#830000
1$
0#
0"
13
02
01
09
08
17
0>
1?
1=
1;
1<
15
14
1&
1%
#835000
1#
1"
0!
12
11
00
0:
19
18
0?
0=
1@
0<
05
0&
#840000
0"
0$
01
03
07
09
1=
1>
0;
1<
15
04
1&
0%
#845000
1"
1$
11
13
17
19
0=
0>
1;
0<
05
14
0&
1%
#850000
0"
0$
0#
01
03
02
08
07
09
1=
1>
1?
0;
04
0%
#855000
1$
1!
13
10
1:
17
0>
0@
1;
1<
15
14
1&
1%
#860000
0!
1"
1#
00
11
12
18
19
0:
1@
0=
0?
0<
05
0&
#865000
1!
0"
10
01
09
1:
0@
1=
#870000
0!
1"
0#
0$
00
11
02
03
07
08
19
0:
1@
0=
1?
1>
0;
1<
15
04
1&
0%
#875000
1!
0"
1#
1$
10
01
12
13
17
18
09
1:
0@
1=
0?
0>
1;
0<
05
14
0&
1%
#880000
0!
1"
0$
00
11
03
07
19
0:
1@
0=
1>
1<
15
1&
#885000
1$
13
17
0>
0<
05
0&
#890000
0$
0"
03
01
09
07
1>
1=
0;
1<
15
04
1&
0%
#895000
1$
13
17
0>
1;
14
1%
#900000
0$
0#
03
02
08
07
1>
1?
0;
0<
05
04
0&
0%
#905000
1$
1#
1!
13
12
10
1:
18
17
0>
0?
0@
1;
14
1%
#910000
0#
0!
1"
02
00
11
19
0:
08
1?
1@
0=
1<
15
1&
#915000
0$
03
07
1>
0;
04
0%
#920000
0"
01
09
1=
0<
05
0&
#925000
1#
12
18
0?
1<
15
1&
#930000
1$
13
17
0>
1;
14
1%
#935000
0$
0#
03
02
08
07
1>
1?
0;
0<
05
04
0&
0%
#940000
1$
1#
13
12
18
17
0>
0?
1;
1<
15
14
1&
1%
#945000
0$
03
07
1>
0;
04
0%
#950000
0#
1"
02
11
19
08
1?
0=
#955000
0"
01
09
1=
0<
05
0&
#960000
1"
1!
11
10
1:
19
0=
0@
1;
1<
15
14
1&
1%
#965000
0"
1$
01
13
17
09
1=
0>
#970000
0!
00
0:
1@
0;
04
0%
#975000
1!
1"
0$
1#
10
11
03
12
18
07
19
1:
0@
0=
1>
0?
0<
05
0&
#980000
0!
00
0:
1@
1;
1<
15
14
1&
1%
#990000
0"
0#
01
02
08
09
1=
1?
0;
0<
05
04
0&
0%
#995000
1"
1#
1!
11
12
10
1:
18
19
0=
0?
0@
