exercicios/aula_12/comparador_5_bits/simulation/qsim/comparador_5_bits.msim.vcd
$comment
	File created using the following command:
		vcd file comparador_5_bits.msim.vcd -direction
$end
$date
	Sat Sep 21 15:19:22 2019
$end
$version
	ModelSim Version 10.5b
$end
$timescale
	1ps
$end

$scope module comparador_5_bits_vhd_vec_tst $end
$var wire 1 ! a [4] $end
$var wire 1 " a [3] $end
$var wire 1 # a [2] $end
$var wire 1 $ a [1] $end
$var wire 1 % a [0] $end
$var wire 1 & b [4] $end
$var wire 1 ' b [3] $end
$var wire 1 ( b [2] $end
$var wire 1 ) b [1] $end
$var wire 1 * b [0] $end
$var wire 1 + ina $end
$var wire 1 , inb $end
$var wire 1 - inc $end
$var wire 1 . x $end
$var wire 1 / y $end
$var wire 1 0 z $end

$scope module i1 $end
$var wire 1 1 gnd $end
$var wire 1 2 vcc $end
$var wire 1 3 unknown $end
$var wire 1 4 devoe $end
$var wire 1 5 devclrn $end
$var wire 1 6 devpor $end
$var wire 1 7 ww_devoe $end
$var wire 1 8 ww_devclrn $end
$var wire 1 9 ww_devpor $end
$var wire 1 : ww_a [4] $end
$var wire 1 ; ww_a [3] $end
$var wire 1 < ww_a [2] $end
$var wire 1 = ww_a [1] $end
$var wire 1 > ww_a [0] $end
$var wire 1 ? ww_b [4] $end
$var wire 1 @ ww_b [3] $end
$var wire 1 A ww_b [2] $end
$var wire 1 B ww_b [1] $end
$var wire 1 C ww_b [0] $end
$var wire 1 D ww_ina $end
$var wire 1 E ww_inb $end
$var wire 1 F ww_inc $end
$var wire 1 G ww_x $end
$var wire 1 H ww_y $end
$var wire 1 I ww_z $end
$var wire 1 J \~QUARTUS_CREATED_GND~I_combout\ $end
$var wire 1 K \b[2]~input_o\ $end
$var wire 1 L \a[2]~input_o\ $end
$var wire 1 M \b[0]~input_o\ $end
$var wire 1 N \a[0]~input_o\ $end
$var wire 1 O \x~1_combout\ $end
$var wire 1 P \b[1]~input_o\ $end
$var wire 1 Q \b[3]~input_o\ $end
$var wire 1 R \a[3]~input_o\ $end
$var wire 1 S \b[4]~input_o\ $end
$var wire 1 T \a[4]~input_o\ $end
$var wire 1 U \ina~input_o\ $end
$var wire 1 V \x~0_combout\ $end
$var wire 1 W \a[1]~input_o\ $end
$var wire 1 X \x~2_combout\ $end
$var wire 1 Y \inb~input_o\ $end
$var wire 1 Z \y~0_combout\ $end
$var wire 1 [ \inc~input_o\ $end
$var wire 1 \ \z~0_combout\ $end
$var wire 1 ] \ALT_INV_inc~input_o\ $end
$var wire 1 ^ \ALT_INV_inb~input_o\ $end
$var wire 1 _ \ALT_INV_b[0]~input_o\ $end
$var wire 1 ` \ALT_INV_a[0]~input_o\ $end
$var wire 1 a \ALT_INV_b[2]~input_o\ $end
$var wire 1 b \ALT_INV_a[2]~input_o\ $end
$var wire 1 c \ALT_INV_b[3]~input_o\ $end
$var wire 1 d \ALT_INV_a[3]~input_o\ $end
$var wire 1 e \ALT_INV_b[4]~input_o\ $end
$var wire 1 f \ALT_INV_a[4]~input_o\ $end
$var wire 1 g \ALT_INV_ina~input_o\ $end
$var wire 1 h \ALT_INV_b[1]~input_o\ $end
$var wire 1 i \ALT_INV_a[1]~input_o\ $end
$var wire 1 j \ALT_INV_x~1_combout\ $end
$var wire 1 k \ALT_INV_x~0_combout\ $end
$upscope $end
$upscope $end
$enddefinitions $end
#0
$dumpvars
0+
0,
1-
0.
0/
10
01
12
x3
14
15
16
17
18
19
0D
0E
1F
0G
0H
1I
xJ
0K
0L
1M
0N
0O
1P
0Q
0R
0S
0T
0U
0V
0W
0X
0Y
0Z
1[
1\
0]
1^
0_
1`
1a
1b
1c
1d
1e
1f
1g
0h
1i
1j
1k
0!
0"
0#
0$
0%
0&
0'
0(
1)
1*
0:
0;
0<
0=
0>
0?
0@
0A
1B
1C
$end
#10000
1#
1$
1%
1(
1+
0-
1>
1=
1<
1A
1D
0F
0[
1U
1K
1L
1W
1N
0`
0i
0b
0a
0g
1]
1V
1O
0\
0j
0k
1X
0I
00
1G
1.
#15000
1!
1"
1&
1'
1;
1:
1@
1?
1S
1Q
1T
1R
0d
0f
0c
0e
#20000
0!
0"
0&
0'
0$
0(
0+
0*
1,
0=
0;
0:
0C
0A
0@
0?
0D
1E
1Y
0U
0S
0Q
0K
0M
0T
0R
0W
1i
1d
1f
1_
1a
1c
1e
1g
0^
0O
1Z
0V
0X
1k
1j
0G
1H
0.
1/
#25000
1"
0#
0<
1;
1R
0L
1b
0d
#30000
1!
1'
1$
1*
0,
0)
1=
1:
1C
0B
1@
0E
0Y
1Q
0P
1M
1T
1W
0i
0f
0_
1h
0c
1^
1O
0Z
0j
0H
0/
#35000
0!
0'
0$
1)
0"
1&
1(
0=
0;
0:
1B
1A
0@
1?
1S
0Q
1K
1P
0T
0R
0W
1i
1d
1f
0h
0a
1c
0e
0O
1j
#40000
0)
1"
0&
0*
0%
0C
0B
0?
0>
1;
1R
0N
0S
0P
0M
1_
1h
1e
1`
0d
#45000
0"
1&
1%
0(
1#
1>
1<
0;
0A
1?
1S
0K
0R
1L
1N
0`
0b
1d
1a
0e
#50000
0%
0#
1*
1!
1'
0>
0<
1:
1C
1@
1Q
1M
1T
0L
0N
1`
1b
0f
0_
0c
#55000
0*
0!
0'
1"
0&
1(
1)
0C
1B
1A
0@
0?
1;
0:
0T
1R
0S
0Q
1K
1P
0M
1_
0h
0a
1c
1e
0d
1f
#60000
1'
0"
1&
0)
1#
1$
0B
1@
1?
1=
1<
0;
0R
1L
1W
1S
1Q
0P
1h
0c
0e
0i
0b
1d
1O
0j
#65000
0&
1)
1%
1B
0?
1>
1N
0S
1P
0h
1e
0`
0O
1j
#70000
1&
0)
0%
0#
0$
0B
1?
0>
0=
0<
0L
0W
0N
1S
0P
1h
0e
1`
1i
1b
#75000
1%
1#
1$
1*
1>
1=
1<
1C
1M
1L
1W
1N
0`
0i
0b
0_
1O
0j
#80000
0&
0'
0@
0?
0S
0Q
1c
1e
#85000
0%
0*
0(
0>
0C
0A
0K
0M
0N
1`
1_
1a
0O
1j
#90000
1&
0$
1)
1"
1B
1?
0=
1;
1R
0W
1S
1P
0h
0e
1i
0d
#95000
0"
1%
1*
1(
1>
0;
1C
1A
1K
1M
0R
1N
0`
1d
0_
0a
1O
0j
#100000
1"
0%
0(
1$
0)
1'
0>
1=
1;
0B
0A
1@
1Q
0K
0P
1R
1W
0N
1`
0i
0d
1h
1a
0c
0O
1j
#105000
0"
1(
0$
1)
0'
0*
1!
0=
0;
1:
0C
1B
1A
0@
0Q
1K
1P
0M
1T
0R
0W
1i
1d
0f
1_
0h
0a
1c
1O
0j
#110000
1"
1$
0)
1*
1%
0#
1>
1=
0<
1;
1C
0B
0P
1M
1R
0L
1W
1N
0`
0i
1b
0d
0_
1h
0O
1j
#115000
0"
0$
0(
0!
0&
0=
0;
0:
0A
0?
0S
0K
0T
0R
0W
1i
1d
1f
1a
1e
1O
0j
#120000
1"
1$
1!
1&
1)
0*
0%
1#
0>
1=
1<
1;
1:
0C
1B
1?
1S
1P
0M
1T
1R
1L
1W
0N
1`
0i
0b
0d
0f
1_
0h
0e
0O
1j
#125000
0$
0!
1*
0#
1(
0=
0<
0:
1C
1A
1K
1M
0T
0L
0W
1i
1b
1f
0_
0a
#130000
0*
0"
0)
0C
0B
0;
0R
0P
0M
1_
1h
1d
#135000
1"
1#
0(
1<
1;
0A
0K
1R
1L
0b
0d
1a
#140000
0"
1)
1$
1!
1'
1=
0;
1:
1B
1@
1Q
1P
1T
0R
1W
0i
1d
0f
0h
0c
#145000
1"
0)
0$
0!
0'
0#
1*
0&
0=
0<
1;
0:
1C
0B
0@
0?
0S
0Q
0P
1M
0T
1R
0L
0W
1i
1b
0d
1f
0_
1h
1c
1e
#150000
0*
1&
0C
1?
1S
0M
1_
0e
1O
0j
#155000
1*
0"
1!
1(
1%
1C
1A
1>
0;
1:
1T
0R
1N
1K
1M
0_
0a
0`
1d
0f
0O
1j
#160000
0*
1)
1$
1#
0C
1B
1=
1<
1L
1W
1P
0M
1_
0h
0i
0b
#165000
0#
0!
0(
0%
1'
0>
0<
0:
0A
1@
1Q
0K
0T
0L
0N
1`
1b
1f
1a
0c
1O
0j
#170000
1(
1%
0'
1*
0&
1C
1A
0@
0?
1>
1N
0S
0Q
1K
1M
0_
0a
1c
1e
0`
0O
1j
#175000
0(
1'
1#
0$
0A
1@
0=
1<
1L
0W
1Q
0K
1a
0c
1i
0b
#180000
0'
0#
1$
0%
1&
0)
1"
0B
0@
1?
0>
1=
0<
1;
1R
0L
1W
0N
1S
0Q
0P
1h
1c
0e
1`
0i
1b
0d
#185000
1'
1(
0*
1!
0C
1A
1@
1:
1T
1Q
1K
0M
1_
0a
0c
0f
#190000
0'
0(
1*
1%
1C
0A
0@
1>
1N
0Q
0K
1M
0_
1a
1c
0`
1O
0j
#195000
1(
0*
0!
1)
0"
0C
1B
1A
0;
0:
0T
0R
1K
1P
0M
1_
0h
0a
1d
1f
0O
1j
#200000
0(
1"
1'
0%
0$
0A
1@
0>
0=
1;
1R
0W
0N
1Q
0K
1a
0c
1`
1i
0d
1O
0j
#205000
0'
1%
1$
0&
0@
0?
1>
1=
1W
1N
0S
0Q
1c
1e
0`
0i
0O
1j
#210000
1'
0$
1(
0"
0)
0B
1A
1@
0=
0;
0R
0W
1Q
1K
0P
1h
0a
0c
1i
1d
#215000
0'
1$
0(
1"
0%
1*
1!
1#
1C
0A
0@
0>
1=
1<
1;
1:
1T
1R
1L
1W
0N
0Q
0K
1M
0_
1a
1c
1`
0i
0b
0d
0f
#220000
1'
0$
1%
0*
1&
0C
1@
1?
1>
0=
0W
1N
1S
1Q
0M
1_
0c
0e
0`
1i
#225000
1$
0%
0&
0!
0#
1)
0>
1=
0<
0:
1B
0?
0S
1P
0T
0L
1W
0N
1`
0i
1b
1f
0h
1e
1O
0j
#230000
0$
1%
1!
0'
1*
0"
1>
0=
0;
1:
1C
0@
0Q
1M
1T
0R
0W
1N
0`
1i
1d
0f
0_
1c
#235000
1$
1'
0*
1=
0C
1@
1Q
0M
1W
0i
1_
0c
0O
1j
#240000
0'
0!
1#
0)
0B
0@
1<
0:
0T
1L
0Q
0P
1h
1c
0b
1f
#245000
0$
1*
1&
0=
1C
1?
1S
1M
0W
1i
0_
0e
#250000
1$
0*
1!
1)
1=
1:
0C
1B
1P
0M
1T
1W
0i
0f
1_
0h
#255000
0$
0!
0&
1'
0#
1(
0=
0<
0:
1A
1@
0?
0S
1Q
1K
0T
0L
0W
1i
1b
1f
0a
0c
1e
#260000
1!
0'
1#
1"
1<
1;
1:
0@
0Q
1T
1R
1L
0b
0d
0f
1c
#265000
0"
1$
1&
0)
1=
0;
0B
1?
1S
0P
0R
1W
0i
1d
1h
0e
#270000
1"
0&
1)
0!
1'
0#
0%
0>
0<
1;
0:
1B
1@
0?
0S
1Q
1P
0T
1R
0L
0N
1`
1b
0d
1f
0h
0c
1e
#275000
1&
0)
1!
0'
1%
0$
0(
0B
0A
0@
1?
1>
0=
1:
1T
0W
1N
1S
0Q
0K
0P
1h
1a
1c
0e
0`
1i
0f
#280000
1$
1(
0"
1*
1=
0;
1C
1A
1K
1M
0R
1W
0i
1d
0_
0a
#285000
1)
1B
1P
0h
#290000
0$
1"
0*
0&
1'
0%
0>
0=
1;
0C
1@
0?
0S
1Q
0M
1R
0W
0N
1`
1i
0d
1_
0c
1e
#295000
0"
1*
1%
0)
1#
1>
1<
0;
1C
0B
0P
1M
0R
1L
1N
0`
0b
1d
0_
1h
1O
0j
#300000
0*
1)
1$
1&
0'
0C
1B
0@
1?
1=
1W
1S
0Q
1P
0M
1_
0h
1c
0e
0i
0O
1j
#305000
1*
0)
0&
1"
1C
0B
0?
1;
1R
0S
0P
1M
0_
1h
1e
0d
1O
0j
#310000
1)
0"
0$
0#
0(
1B
0A
0=
0<
0;
0R
0L
0W
0K
1P
0h
1a
1i
1b
1d
#315000
0)
1"
1$
1#
1(
0*
1'
0%
0C
0B
1A
1@
0>
1=
1<
1;
1R
1L
1W
0N
1Q
1K
0P
0M
1_
1h
0a
0c
1`
0i
0b
0d
#320000
1)
0'
0!
1B
0@
0:
0T
0Q
1P
0h
1c
1f
#325000
1'
0$
0#
1*
1%
1&
1C
1@
1?
1>
0=
0<
0L
0W
1N
1S
1Q
1M
0_
0c
0e
0`
1i
1b
0O
1j
#330000
0)
1!
0(
0B
0A
1:
1T
0K
0P
1h
1a
0f
1O
0j
#335000
1)
1(
1$
1#
0*
0&
0"
0C
1B
1A
0?
1=
1<
0;
0R
1L
1W
0S
1K
1P
0M
1_
0h
0a
1e
0i
0b
1d
0O
1j
#340000
0(
0$
0#
1*
1"
0!
0'
1C
0A
0@
0=
0<
1;
0:
0T
1R
0L
0W
0Q
0K
1M
0_
1a
1c
1i
1b
0d
1f
1O
0j
#345000
1(
1$
1#
0*
0)
1&
0%
0C
0B
1A
1?
0>
1=
1<
1L
1W
0N
1S
1K
0P
0M
1_
1h
0a
0e
1`
0i
0b
#350000
0(
0$
0#
1*
1)
1%
0"
1!
1C
1B
0A
1>
0=
0<
0;
1:
1T
0R
0L
0W
1N
0K
1P
1M
0_
0h
1a
0`
1i
1b
1d
0f
#355000
1(
1#
0)
1'
0B
1A
1@
1<
1L
1Q
1K
0P
1h
0a
0c
0b
#360000
0'
1$
0%
1"
0@
0>
1=
1;
1R
1W
0N
0Q
1c
1`
0i
0d
0O
1j
#365000
1'
0(
0*
0!
0C
0A
1@
0:
0T
1Q
0K
0M
1_
1a
0c
1f
#370000
1(
1%
0#
0&
1A
0?
1>
0<
0L
1N
0S
1K
0a
1e
0`
1b
#375000
1&
0'
1)
1B
0@
1?
1S
0Q
1P
0h
1c
0e
#380000
1#
1*
1<
1C
1M
1L
0b
0_
1O
0j
#385000
1'
0(
0%
1!
0$
0"
0A
1@
0>
0=
0;
1:
1T
0R
0W
0N
1Q
0K
1a
0c
1`
1i
1d
0f
0O
1j
#390000
0'
1(
1%
0!
1$
0#
0*
0&
0C
1A
0@
0?
1>
1=
0<
0:
0T
0L
1W
1N
0S
0Q
1K
0M
1_
0a
1c
1e
0`
0i
1b
1f
#395000
1'
0(
1!
0$
1"
0)
0B
0A
1@
0=
1;
1:
1T
1R
0W
1Q
0K
0P
1h
1a
0c
1i
0d
0f
#400000
1#
1&
1<
1?
1S
1L
0b
0e
#405000
0#
0&
1(
0"
1)
0%
0>
0<
0;
1B
1A
0?
0S
1K
1P
0R
0L
0N
1`
1b
1d
0h
0a
1e
#410000
1#
1&
0)
1*
1<
1C
0B
1?
1S
0P
1M
1L
0b
0_
1h
0e
#415000
0#
1)
0*
0(
1"
0!
0<
1;
0:
0C
1B
0A
0K
1P
0M
0T
1R
0L
1b
0d
1f
1_
0h
1a
1O
0j
#420000
0)
1*
0"
1%
1C
0B
1>
0;
0R
1N
0P
1M
0_
1h
0`
1d
#425000
1)
0*
0%
1(
1!
0'
1$
0C
1B
1A
0@
0>
1=
1:
1T
1W
0N
0Q
1K
1P
0M
1_
0h
0a
1c
1`
0i
0f
0O
1j
#430000
0)
1%
0&
0B
0?
1>
1N
0S
0P
1h
1e
0`
#435000
1)
0%
1&
1'
0$
1#
1B
1@
1?
0>
0=
1<
1L
0W
0N
1S
1Q
1P
0h
0c
0e
1`
1i
0b
1O
0j
#440000
0)
0'
0B
0@
0Q
0P
1h
1c
#445000
1)
1'
1%
0&
1$
1*
0!
1C
1B
1@
0?
1>
1=
0:
0T
1W
1N
0S
1Q
1P
1M
0_
0h
0c
1e
0`
0i
1f
#450000
0)
0'
1&
1"
0B
0@
1?
1;
1R
1S
0Q
0P
1h
1c
0e
0d
#455000
1)
0"
0$
1!
0(
1B
0A
0=
0;
1:
1T
0R
0W
0K
1P
0h
1a
1i
1d
0f
0O
1j
#460000
1"
1$
0!
1(
0&
0%
0>
1=
1;
0:
1A
0?
0S
1K
0T
1R
1W
0N
1`
0i
0d
1f
0a
1e
#465000
0"
0(
1%
0)
1'
1>
0;
0B
0A
1@
1Q
0K
0P
0R
1N
0`
1d
1h
1a
0c
#470000
0%
1)
0'
0$
1!
1&
0*
0>
0=
1:
0C
1B
0@
1?
1S
0Q
1P
0M
1T
0W
0N
1`
1i
0f
1_
0h
1c
0e
#475000
1%
1'
1$
0!
0&
1*
1(
1>
1=
0:
1C
1A
1@
0?
0S
1Q
1K
1M
0T
1W
1N
0`
0i
1f
0_
0a
0c
1e
1O
0j
#480000
0'
1!
1&
0)
1"
0#
0B
0@
1?
0<
1;
1:
1T
1R
0L
1S
0Q
0P
1h
1c
0e
1b
0d
0f
0O
1j
#485000
1'
0&
1)
0(
1B
0A
1@
0?
0S
1Q
0K
1P
0h
1a
0c
1e
1O
0j
#490000
0)
0!
1#
0*
0C
0B
1<
0:
0T
1L
0P
0M
1_
1h
0b
1f
0O
1j
#495000
1)
1!
0#
1*
0"
0%
1C
1B
0>
0<
0;
1:
1T
0R
0L
0N
1P
1M
0_
0h
1`
1b
1d
0f
#500000
0)
0!
1#
0*
1%
1(
0$
0C
0B
1A
1>
0=
1<
0:
0T
1L
0W
1N
1K
0P
0M
1_
1h
0a
0`
1i
0b
1f
#505000
0%
1"
0>
1;
1R
0N
1`
0d
1O
0j
#510000
1%
1!
0#
1*
0(
1$
1>
1=
0<
1:
1C
0A
0K
1M
1T
0L
1W
1N
0`
0i
1b
0f
0_
1a
#515000
0%
0!
0*
1(
0$
1)
0'
0>
0=
0:
0C
1B
1A
0@
0Q
1K
1P
0M
0T
0W
0N
1`
1i
1f
1_
0h
0a
1c
0O
1j
#520000
1*
1$
0)
1'
1#
1C
0B
1@
1=
1<
1L
1W
1Q
0P
1M
0_
1h
0c
0i
0b
#525000
0*
0'
0#
1%
1!
0"
1&
0C
0@
1?
1>
0<
0;
1:
1T
0R
0L
1N
1S
0Q
0M
1_
1c
0e
0`
1b
1d
0f
#530000
1*
1#
1C
1<
1L
1M
0_
0b
1O
0j
#535000
0*
0#
1'
0%
1"
0&
0$
1)
0(
0C
1B
0A
1@
0?
0>
0=
0<
1;
1R
0L
0W
0N
0S
1Q
0K
1P
0M
1_
0h
1a
0c
1e
1`
1i
1b
0d
#540000
1#
0"
1$
0)
0!
1=
1<
0;
0:
0B
0P
0T
0R
1L
1W
0i
0b
1d
1f
1h
0O
1j
#545000
1)
0'
1&
1B
0@
1?
1S
0Q
1P
0h
1c
0e
#550000
1'
0&
0$
1*
1%
1(
1C
1A
1@
0?
1>
0=
0W
1N
0S
1Q
1K
1M
0_
0a
0c
1e
0`
1i
1O
0j
#555000
0'
0%
0(
0A
0@
0>
0N
0Q
0K
1a
1c
1`
0O
1j
#560000
1&
1!
1?
1:
1T
1S
0e
0f
#565000
1'
1(
0)
0#
0B
1A
1@
0<
0L
1Q
1K
0P
1h
0a
0c
1b
#570000
0!
1%
1$
0*
1>
1=
0:
0C
0M
0T
1W
1N
0`
0i
1f
1_
#575000
0$
0(
1)
1#
0&
1"
0=
1<
1;
1B
0A
0?
0S
0K
1P
1R
1L
0W
1i
0b
0d
0h
1a
1e
#580000
0)
1&
0"
1!
0%
1*
1C
0B
1?
0>
0;
1:
1T
0R
0N
1S
0P
1M
0_
1h
0e
1`
1d
0f
#585000
0&
1"
1%
0*
0#
0'
0C
0@
0?
1>
0<
1;
1R
0L
1N
0S
0Q
0M
1_
1c
1e
0`
1b
0d
#590000
0"
1*
1#
1'
1)
1$
1=
1<
0;
1C
1B
1@
1Q
1P
1M
0R
1L
1W
0i
0b
1d
0_
0h
0c
#595000
0#
1&
0<
1?
1S
0L
1b
0e
1O
0j
#600000
1"
0*
0%
0!
1(
0>
1;
0:
0C
1A
1K
0M
0T
1R
0N
1`
0d
1f
1_
0a
0O
1j
#605000
1*
1!
0(
1#
0$
1C
0A
0=
1<
1:
1T
1L
0W
0K
1M
0_
1a
1i
0b
0f
#610000
0*
1(
1$
0'
0C
1A
0@
1=
1W
0Q
1K
0M
1_
0a
1c
0i
1O
0j
#615000
1*
0(
0$
0#
0&
1C
0A
0?
0=
0<
0L
0W
0S
0K
1M
0_
1a
1e
1i
1b
0O
1j
#620000
0*
1$
1#
1&
1'
0)
0C
0B
1@
1?
1=
1<
1L
1W
1S
1Q
0P
0M
1_
1h
0c
0e
0i
0b
#625000
1*
0#
1(
0"
1%
1C
1A
1>
0<
0;
0R
0L
1N
1K
1M
0_
0a
0`
1b
1d
#630000
0*
0(
1"
0$
0&
0'
0C
0A
0@
0?
0=
1;
1R
0W
0S
0Q
0K
0M
1_
1a
1c
1e
1i
0d
#635000
1&
1'
1)
0!
1B
1@
1?
0:
0T
1S
1Q
1P
0h
0c
0e
1f
#640000
1(
1$
0%
1A
0>
1=
1W
0N
1K
0a
1`
0i
#645000
0(
1%
0&
0'
0"
0A
0@
0?
1>
0;
0R
1N
0S
0Q
0K
1a
1c
1e
0`
1d
#650000
1(
0%
1&
1"
0)
1#
0B
1A
1?
0>
1<
1;
1R
1L
0N
1S
1K
0P
1h
0a
0e
1`
0b
0d
1O
0j
#655000
0(
0&
0"
1)
1'
0$
1B
0A
1@
0?
0=
0;
0R
0W
0S
1Q
0K
1P
0h
1a
0c
1e
1i
1d
0O
1j
#660000
1&
0)
0'
1*
1C
0B
0@
1?
1S
0Q
0P
1M
0_
1h
1c
0e
#665000
0&
0#
1!
0?
0<
1:
1T
0L
0S
1e
1b
0f
#670000
1&
0!
1)
1'
0*
1"
1%
0C
1B
1@
1?
1>
1;
0:
0T
1R
1N
1S
1Q
1P
0M
1_
0h
0c
0e
0`
0d
1f
#675000
1!
0'
0"
1#
1<
0;
1:
0@
0Q
1T
0R
1L
0b
1d
0f
1c
#680000
1'
1"
0#
1*
1C
1@
0<
1;
1R
0L
1Q
1M
0_
0c
1b
0d
1O
0j
#685000
0'
1#
0*
0&
0)
1$
0C
0B
0@
0?
1=
1<
1L
1W
0S
0Q
0P
0M
1_
1h
1c
1e
0i
0b
0O
1j
#690000
0#
1(
0<
1A
1K
0L
1b
0a
#695000
1'
1&
1)
0$
0"
0!
0%
1B
1@
1?
0>
0=
0;
0:
0T
0R
0W
0N
1S
1Q
1P
0h
0c
0e
1`
1i
1d
1f
#700000
0&
0)
1"
1!
1%
1#
0(
0B
0A
0?
1>
1<
1;
1:
1T
1R
1L
1N
0S
0K
0P
1h
1a
1e
0`
0b
0d
0f
#705000
0"
0!
0%
0#
1(
1*
0>
0<
0;
0:
1C
1A
1K
1M
0T
0R
0L
0N
1`
1b
1d
1f
0_
0a
#710000
1"
1%
1#
0(
1)
1>
1<
1;
1B
0A
0K
1P
1R
1L
1N
0`
0b
0d
0h
1a
#715000
0)
1!
1&
0'
0B
0@
1?
1:
1T
1S
0Q
0P
1h
1c
0e
0f
#720000
0%
0#
1(
1$
0>
1=
0<
1A
1K
0L
1W
0N
1`
0i
1b
0a
#725000
1%
0$
1'
0"
0*
1>
0=
0;
0C
1@
1Q
0M
0R
0W
1N
0`
1i
1d
1_
0c
#730000
1$
0'
1=
0@
0Q
1W
0i
1c
#735000
0$
1"
1#
0=
1<
1;
1R
1L
0W
1i
0b
0d
#740000
1$
0#
1'
0%
0!
0&
0>
1=
0<
0:
1@
0?
0S
1Q
0T
0L
1W
0N
1`
0i
1b
1f
0c
1e
#745000
1%
1&
1*
1>
1C
1?
1S
1M
1N
0`
0_
0e
#750000
0&
0*
0$
0'
1!
0"
0(
1)
0C
1B
0A
0@
0?
0=
0;
1:
1T
0R
0W
0S
0Q
0K
1P
0M
1_
0h
1a
1c
1e
1i
1d
0f
#755000
0!
1(
0%
1#
0>
1<
0:
1A
1K
0T
1L
0N
1`
0b
1f
0a
1O
0j
#760000
1!
0(
1%
1>
1:
0A
0K
1T
1N
0`
0f
1a
0O
1j
#765000
0!
0%
1&
1*
1'
1"
0)
0>
1;
0:
1C
0B
1@
1?
1S
1Q
0P
1M
0T
1R
0N
1`
0d
1f
0_
1h
0c
0e
#770000
1!
0&
0*
0"
1(
1$
1=
0;
1:
0C
1A
0?
0S
1K
0M
1T
0R
1W
0i
1d
0f
1_
0a
1e
1O
0j
#775000
1&
0$
1%
0#
1?
1>
0=
0<
0L
0W
1N
1S
0e
0`
1i
1b
0O
1j
#780000
1$
1#
0!
0'
1)
1=
1<
0:
1B
0@
0Q
1P
0T
1L
1W
0i
0b
1f
0h
1c
#785000
0#
1!
0&
1"
0<
1;
1:
0?
0S
1T
1R
0L
1b
0d
0f
1e
#790000
0!
0"
0)
0%
1*
0(
0>
0;
0:
1C
0B
0A
0K
0P
1M
0T
0R
0N
1`
1d
1f
0_
1h
1a
#795000
1)
1%
0*
1#
1&
0$
1'
0C
1B
1@
1?
1>
0=
1<
1L
0W
1N
1S
1Q
1P
0M
1_
0h
0c
0e
0`
1i
0b
#800000
0)
0%
1*
0&
1$
1"
1C
0B
0?
0>
1=
1;
1R
1W
0N
0S
0P
1M
0_
1h
1e
1`
0i
0d
#805000
0$
0"
0'
1(
0=
0;
1A
0@
0Q
1K
0R
0W
1i
1d
0a
1c
#810000
1$
0(
1)
1%
0#
1>
1=
0<
1B
0A
0K
1P
0L
1W
1N
0`
0i
1b
0h
1a
1O
0j
#815000
0)
0%
1"
1'
1&
1!
0B
1@
1?
0>
1;
1:
1T
1R
0N
1S
1Q
0P
1h
0c
0e
1`
0d
0f
0O
1j
#820000
1)
0"
0!
1#
1B
1<
0;
0:
0T
0R
1L
1P
0h
0b
1d
1f
#825000
1!
1%
0'
1(
0*
1>
1:
0C
1A
0@
0Q
1K
0M
1T
1N
0`
0f
1_
0a
1c
#830000
0!
0%
0(
0&
0>
0:
0A
0?
0S
0K
0T
0N
1`
1f
1a
1e
#835000
1'
1*
0)
1"
0#
0$
1C
0B
1@
0=
0<
1;
1R
0L
0W
1Q
0P
1M
0_
1h
0c
1i
1b
0d
#840000
1)
0"
1!
1B
0;
1:
1T
0R
1P
0h
1d
0f
#845000
1"
0!
1#
1$
1%
1(
1>
1=
1<
1;
0:
1A
1K
0T
1R
1L
1W
1N
0`
0i
0b
0d
1f
0a
1O
0j
#850000
1!
0%
0)
0'
1&
0>
1:
0B
0@
1?
1S
0Q
0P
1T
0N
1`
0f
1h
1c
0e
0O
1j
#855000
1%
1)
0&
0"
0$
0*
1>
0=
0;
0C
1B
0?
0S
1P
0M
0R
0W
1N
0`
1i
1d
1_
0h
1e
#860000
0%
1"
1$
0!
1'
0>
1=
1;
0:
1@
1Q
0T
1R
1W
0N
1`
0i
0d
1f
0c
1O
0j
#865000
0"
1!
0'
1*
0#
0(
0<
0;
1:
1C
0A
0@
0Q
0K
1M
1T
0R
0L
1b
1d
0f
0_
1a
1c
0O
1j
#870000
1#
1(
0$
0)
1&
0=
1<
0B
1A
1?
1S
1K
0P
1L
0W
1i
0b
1h
0a
0e
#875000
0#
0(
1$
0&
0!
1'
1=
0<
0:
0A
1@
0?
0S
1Q
0K
0T
0L
1W
0i
1b
1f
1a
0c
1e
#880000
1#
1(
1!
0'
1"
0*
1%
1>
1<
1;
1:
0C
1A
0@
0Q
1K
0M
1T
1R
1L
1N
0`
0b
0d
0f
1_
0a
1c
#885000
0#
0(
0!
1*
0%
0$
1&
0>
0=
0<
0:
1C
0A
1?
1S
0K
1M
0T
0L
0W
0N
1`
1i
1b
1f
0_
1a
0e
#890000
1#
1%
1$
1)
1>
1=
1<
1B
1P
1L
1W
1N
0`
0i
0b
0h
#895000
0%
0$
0*
0"
0>
0=
0;
0C
0M
0R
0W
0N
1`
1i
1d
1_
#900000
1%
1$
1*
1"
0#
1!
1'
1>
1=
0<
1;
1:
1C
1@
1Q
1M
1T
1R
0L
1W
1N
0`
0i
1b
0d
0f
0_
0c
1O
0j
#905000
0%
0$
0*
0"
0&
0>
0=
0;
0C
0?
0S
0M
0R
0W
0N
1`
1i
1d
1_
1e
#910000
1*
1"
1&
1#
0!
0'
0)
1(
1C
0B
1A
0@
1?
1<
1;
0:
0T
1R
1L
1S
0Q
1K
0P
1M
0_
1h
0a
1c
0e
0b
0d
1f
0O
1j
#915000
0*
0&
1'
1)
0(
1%
1$
0C
1B
0A
1@
0?
1>
1=
1W
1N
0S
1Q
0K
1P
0M
1_
0h
1a
0c
1e
0`
0i
#920000
1(
0#
1A
0<
0L
1K
0a
1b
#925000
1#
1*
0'
0%
1!
0>
1<
1:
1C
0@
0Q
1M
1T
1L
0N
1`
0b
0f
0_
1c
#930000
0#
1'
1%
1&
0$
1>
0=
0<
1@
1?
1S
1Q
0L
0W
1N
0`
1i
1b
0c
0e
#935000
1#
0%
0&
0*
0!
0"
0>
1<
0;
0:
0C
0?
0S
0M
0T
0R
1L
0N
1`
0b
1d
1f
1_
1e
1O
0j
#940000
1*
0'
0(
1C
0A
0@
0Q
0K
1M
0_
1a
1c
0O
1j
#945000
0*
1(
0#
1&
0)
0C
0B
1A
1?
0<
0L
1S
1K
0P
0M
1_
1h
0a
0e
1b
#950000
0(
1)
1'
1%
1!
1"
1$
1B
0A
1@
1>
1=
1;
1:
1T
1R
1W
1N
1Q
0K
1P
0h
1a
0c
0`
0i
0d
0f
#955000
0%
0"
1*
0>
0;
1C
1M
0R
0N
1`
1d
0_
#960000
0)
1#
0B
1<
1L
0P
1h
0b
#965000
0'
0!
0@
0:
0T
0Q
1c
1f
#970000
1!
1)
1"
1(
1;
1:
1B
1A
1K
1P
1T
1R
0d
0f
0h
0a
#975000
0"
0(
1%
0*
1>
0;
0C
0A
0K
0M
0R
1N
0`
1d
1_
1a
#980000
1"
0%
0!
0)
1'
0$
0&
0>
0=
1;
0:
0B
1@
0?
0S
1Q
0P
0T
1R
0W
0N
1`
1i
0d
1f
1h
0c
1e
