exercicios/aula_14/ULA/simulation/qsim/ULA.msim.vcd
$comment
	File created using the following command:
		vcd file ULA.msim.vcd -direction
$end
$date
	Wed Sep 11 17:22:12 2019
$end
$version
	ModelSim Version 10.5b
$end
$timescale
	1ps
$end

$scope module ULA_vlg_vec_tst $end
$var reg 8 ! a [7:0] $end
$var reg 8 " b [7:0] $end
$var reg 3 # op [2:0] $end
$var wire 1 $ s [7] $end
$var wire 1 % s [6] $end
$var wire 1 & s [5] $end
$var wire 1 ' s [4] $end
$var wire 1 ( s [3] $end
$var wire 1 ) s [2] $end
$var wire 1 * s [1] $end
$var wire 1 + s [0] $end

$scope module i1 $end
$var wire 1 , gnd $end
$var wire 1 - vcc $end
$var wire 1 . unknown $end
$var tri1 1 / devclrn $end
$var tri1 1 0 devpor $end
$var tri1 1 1 devoe $end
$var wire 1 2 ~QUARTUS_CREATED_GND~I_combout $end
$var wire 1 3 op[1]~input_o $end
$var wire 1 4 a[0]~input_o $end
$var wire 1 5 op[2]~input_o $end
$var wire 1 6 op[0]~input_o $end
$var wire 1 7 b[0]~input_o $end
$var wire 1 8 Mux7~0_combout $end
$var wire 1 9 a[1]~input_o $end
$var wire 1 : b[1]~input_o $end
$var wire 1 ; u0|a1|saida~combout $end
$var wire 1 < Mux6~0_combout $end
$var wire 1 = u0|a1|cout~0_combout $end
$var wire 1 > b[2]~input_o $end
$var wire 1 ? a[2]~input_o $end
$var wire 1 @ Mux5~0_combout $end
$var wire 1 A u0|a2|cout~0_combout $end
$var wire 1 B b[3]~input_o $end
$var wire 1 C a[3]~input_o $end
$var wire 1 D Mux4~0_combout $end
$var wire 1 E a[4]~input_o $end
$var wire 1 F b[4]~input_o $end
$var wire 1 G u0|a4|saida~combout $end
$var wire 1 H Mux3~0_combout $end
$var wire 1 I u0|a4|cout~0_combout $end
$var wire 1 J b[5]~input_o $end
$var wire 1 K a[5]~input_o $end
$var wire 1 L Mux2~0_combout $end
$var wire 1 M a[6]~input_o $end
$var wire 1 N b[6]~input_o $end
$var wire 1 O u0|a6|saida~combout $end
$var wire 1 P Mux1~0_combout $end
$var wire 1 Q a[7]~input_o $end
$var wire 1 R u0|a6|cout~0_combout $end
$var wire 1 S b[7]~input_o $end
$var wire 1 T Mux0~0_combout $end
$upscope $end
$upscope $end
$enddefinitions $end
#0
$dumpvars
b10011111 !
b11010010 "
b110 #
1+
0*
1)
1(
0'
0&
1%
0$
0,
1-
x.
1/
10
11
02
13
14
15
06
07
18
19
1:
0;
0<
1=
0>
1?
1@
1A
0B
1C
1D
1E
1F
1G
0H
1I
0J
0K
0L
0M
1N
1O
1P
1Q
0R
1S
0T
$end
#5000
b11011111 !
b11011110 !
b1010010 "
b10010 "
b11010 "
b11110 "
b11100 "
b11101 "
b10 #
b11 #
16
05
17
0:
1>
1B
0N
0S
04
1M
0=
1;
08
1T
1<
1H
1'
1*
1$
0+
#10000
b11010110 !
b11010010 !
b11010000 !
b1101 "
b1100 "
07
0F
09
0?
0C
0G
0A
0;
0D
0@
0<
0*
0)
0(
0I
1G
#15000
b101100 "
b10010000 !
b10010001 !
b10101100 "
b10101110 "
b111 #
b10010011 !
b10101111 "
15
14
19
0M
17
1:
1J
1S
0O
1A
1=
1;
0T
0$
1I
0G
1O
#20000
b10011 !
b11 !
b101 #
b10100111 "
b100 #
b1011 !
b1111 !
b10000111 "
b1001111 !
b1001110 !
b111 "
b101 "
b100 "
07
0:
0B
0J
0S
06
03
04
1?
1C
0E
1M
0Q
0I
1G
0=
0P
0H
1@
1)
0'
0%
#25000
b1101110 !
b1000100 "
b1010100 "
b1101100 !
b1111100 !
b110 #
b1011100 "
b111 #
b1111000 !
b1111100 "
b1111001 !
b11111100 "
b11111110 "
b11111111 "
16
13
17
1:
1B
1F
1J
1N
1S
14
09
0?
1E
1K
1R
1I
1=
0;
0@
0)
#30000
b1011001 !
b10111111 "
b101 #
b10110111 "
b100 #
b1011101 !
b10010111 "
b1011100 !
06
03
0B
0J
0N
04
1?
0K
0R
0=
1;
1@
1H
1'
1)
#35000
b11011100 !
b10011100 !
b10000111 "
b10001100 !
b11000111 "
b110 #
b11001111 "
b10001000 !
13
1B
0F
1N
0?
0E
0M
1Q
0I
0A
1P
0H
1<
18
1+
1*
0'
1%
#40000
b10000000 !
b1001111 "
b111 #
b1101111 "
b0 !
b1111111 "
b10000 !
b111111 "
b110111 "
16
0B
1F
1J
0N
0S
0C
1E
0Q
1I
0G
0O
1T
1D
0@
0<
08
0+
0*
0)
1(
1$
1O
#45000
b110011 "
b11 #
b110001 "
b110000 "
b1010000 !
b1 #
b1010100 !
b10000 "
b11010100 !
b0 "
b11000100 !
b1000000 "
b1001000 "
1?
0E
1M
1Q
03
05
07
0:
0>
1B
0F
0J
1N
1R
0O
0I
0;
0D
1@
1)
0(
#50000
b11000110 !
b11100110 !
b11100111 !
b101 #
b1001001 "
b111 #
b11100011 !
b1101001 "
b1100011 !
b1111001 "
b1110011 !
b1110001 "
17
0B
1F
1J
13
15
14
19
0?
1E
1K
0Q
1O
1I
1=
1<
0P
1D
1(
0%
1*
#55000
b1111011 !
b110 #
b1110011 "
b111011 !
b10 #
b1110010 "
b1010010 "
b10111011 !
b1011010 "
07
1:
1B
0J
06
05
1C
0M
1Q
0O
1G
1L
1H
0@
18
1+
0)
1'
1&
#60000
b11011010 "
b0 #
b11001010 "
b10101011 !
b1 #
b101 #
b11101010 "
b101011 !
b11100010 "
0E
0Q
16
03
15
0B
0F
1J
1S
0I
0G
0H
1P
1%
0'
#65000
b11100110 "
b10100110 "
b101010 !
b101110 !
b100110 !
b1100110 !
b100110 "
b111 #
b11 #
b110 "
b1110 "
13
05
04
1?
0C
1M
1>
1B
0J
0N
0S
0R
1O
1A
0T
0D
1@
08
0+
1)
0(
0$
1G
#70000
b1100100 !
b1110100 !
b10 #
b1010 "
b1001010 "
b1111100 !
b111100 !
b11001010 "
b0 #
b11000010 "
0>
0B
1N
1S
06
03
09
1C
1E
0M
1I
0G
0A
0=
1;
1H
0<
1T
0@
0)
1$
0*
1'
0I
1G
1R
0O
1<
1@
1D
0H
0L
0&
0'
1(
1)
1*
0R
1O
0P
0T
1H
1L
1&
1'
0$
0%
1P
1T
1$
1%
#75000
b11000000 "
b11000001 "
b11010001 "
b10111100 !
b10111000 !
b11110001 "
b10111010 !
b11110101 "
b11111010 !
b10 #
b11111101 "
13
19
0?
1M
1Q
17
0:
1>
1B
1F
1J
1R
1I
0@
0)
#80000
b11101010 !
b11100010 !
b1111101 "
b1111111 "
b1111110 "
b1100010 !
b1100110 !
b1011110 "
b100110 !
b1010110 "
07
1:
0B
0J
0S
1?
0C
0E
0M
0Q
0O
0I
1A
1=
0;
0T
0P
0H
0D
1@
1)
0(
0'
0%
0$
0R
1O
#85000
b110 #
b100100 !
b1010010 "
b110100 !
b111100 !
b10111100 !
b1110010 "
b11111100 !
0>
1J
09
1C
1E
1M
1Q
15
1R
1I
0A
0=
1;
1T
0L
1D
1(
0&
1$
0G
#90000
b11011100 !
b11011101 !
b111 #
b101 #
b11110010 "
b11110000 "
b11110001 "
b11011001 !
b11111001 "
b11010001 !
b10010001 !
17
0:
1B
1S
16
03
14
0?
0C
0K
0M
0O
1P
1L
0@
18
1H
0<
0*
1'
1+
0)
1&
1%
#95000
b11101001 "
b1 #
b11101101 "
b10000001 !
b1 !
b11001101 "
b0 !
b11001111 "
b11001110 "
b100 !
b1000100 !
04
1?
0E
1M
0Q
05
07
1:
1>
0F
0J
0I
1A
0L
0H
1@
08
0T
0D
0(
0$
0+
1)
0'
0&
1G
#100000
b1100100 !
b1001110 "
b1011110 "
b101 #
b1011010 "
b1111010 "
b1100101 !
b1111000 "
b1111001 "
b1100001 !
15
17
0:
0>
1F
1J
0S
14
0?
1K
1O
0A
1I
0G
1L
0@
18
1H
1D
1(
1'
1+
0)
1&
0I
1G
#105000
b100 #
b110 #
b1110001 "
b1110001 !
b11110001 !
b11110001 "
b11100001 "
b10 #
b11100101 "
b11000101 "
b11000100 "
1E
1Q
07
1>
0B
0F
0J
1S
06
13
05
0O
0;
1T
0D
0(
1$
#110000
b11110011 !
b11111011 !
b11011011 !
b11011111 !
b0 #
b11001111 !
b1001111 !
b1000100 "
b100 #
b1000000 "
0>
0S
03
15
19
1?
1C
0E
0K
0Q
0G
1;
0T
0L
0H
08
0+
0'
0&
0$
#115000
b1001110 !
b1000010 "
b1100010 "
b1001100 !
b1000100 !
b1100100 !
b1100000 !
b1110000 !
b0 #
05
1:
1J
04
09
0?
0C
1E
1K
1O
1G
1<
1T
0P
0%
1$
1*
1H
1P
1%
1'
#120000
b1101010 "
b1101011 "
b11110000 !
b11101011 "
b11110001 !
b11101001 "
b11001001 "
b11110011 !
b11111011 !
b11111111 !
b11101111 !
14
19
1?
1C
0E
1Q
17
0:
1B
0J
1S
0O
1A
1=
0;
1L
1@
1)
1&
0<
0@
1D
0P
0%
1(
0)
0*
#125000
b10001001 "
b10101111 !
b10011001 "
b100 #
b10010001 "
b101111 !
b10001 "
b10011 "
b110011 "
b101101 !
b100101 !
b100001 !
b110001 !
15
09
0?
0C
1E
0M
0Q
1:
0B
1F
1J
0N
0S
0R
1O
1I
0G
0A
0T
0D
18
1+
0(
0$
#130000
b110 #
b110111 "
b10001 !
b110110 "
b10000 !
b1110110 "
b10 #
b1111110 "
b10010000 !
b11111110 "
b10010010 !
b10011010 !
b10011110 !
04
19
1?
1C
0K
1Q
07
1>
1B
1N
1S
13
05
1R
0O
1G
1A
1T
0L
1D
1@
1<
08
0+
1*
1)
1(
0&
1$
#135000
b11111100 "
b0 #
b10111100 "
b11110 !
b111100 "
b11100 !
b10100 !
b10000 !
09
0?
0C
0Q
03
0:
0N
0S
0R
1O
0A
0=
0<
0D
0@
0)
0(
0*
0G
1@
1D
1P
0T
0$
1%
1(
1)
0H
0'
#140000
b1 #
b101100 "
b1100 "
b10001 !
b101 #
b10010001 !
b10001100 "
14
1Q
0F
0J
1S
16
15
0O
0I
1G
1T
0P
1H
18
1+
1'
0%
1$
#145000
b11010001 !
b10000100 "
b10000110 "
b11010011 !
b10100110 "
b11010010 !
b1010010 !
1:
0B
1J
04
19
1M
0Q
1O
1A
1=
1P
1<
08
1L
0D
0(
1&
0+
1*
1%
#150000
b10100010 "
b111 #
b11100010 "
b110 #
b11110010 "
b1110010 "
b10010 !
b1110000 "
0M
06
13
0:
0>
1F
1N
0S
1I
0G
0A
0=
1;
0T
0H
0@
0)
0'
0$
1R
0O
#155000
b110010 !
b1110001 "
b111010 !
b111110 !
b10 #
b1111001 "
b10111110 !
b0 #
b111001 "
b1 #
b101001 "
b101011 "
16
03
05
17
1:
1B
0F
0N
1?
1C
1K
1Q
0R
1O
1A
1=
0;
1T
1D
1@
0P
1H
1'
0%
1)
1(
1$
#160000
b10111111 !
b101111 "
b11111111 !
b11111011 !
b101 #
b1111011 !
b111 #
b1101111 "
b110 #
b1111111 "
b1111101 "
06
13
15
0:
1>
1F
1N
14
0?
1M
0Q
1R
1G
0T
0H
0L
0D
0(
0&
0'
0$
#165000
b1101011 !
b1101001 !
b1011101 "
b11011101 "
b11011100 "
b1100001 !
b11010100 "
b1100000 !
b100000 !
b10 #
b10100000 !
b10010100 "
b10010110 "
05
07
1:
0B
0J
0N
1S
04
09
0C
0E
0M
1Q
0R
0I
0A
0=
1;
1T
0<
1L
0@
0)
1&
0*
1$
0O
#170000
b10000000 !
b10010010 "
b0 #
b1 #
b10000010 "
b10010000 !
b10100010 "
b100010 "
b10010001 !
b11010001 !
b1010001 !
b1100010 "
b1100000 "
16
03
0:
0>
0F
1J
1N
0S
14
1E
0K
1M
0Q
1R
0;
0T
1P
0L
1H
18
1+
1'
0&
1%
0$
#175000
b1010101 !
b1010111 !
b1100001 "
b101 #
b1110111 !
b111 #
b110 #
b1110001 "
b1100111 !
b1010001 "
b11010001 "
b1100110 !
b11100110 !
b10010001 "
b10010011 "
06
13
15
17
1:
1F
0J
0N
1S
04
19
1?
0E
1K
1Q
0R
1O
1A
1=
1L
1@
1)
1&
#180000
b11101110 !
b10010111 "
b10101110 !
b10101010 !
b10010110 "
b10 #
b0 #
b1 #
b10110110 "
b110110 "
b10101011 !
16
03
05
07
1>
1J
0S
14
0?
1C
0M
1I
0G
0P
1D
0@
1T
0H
1<
1*
0'
1$
0)
1(
0%
#185000
b111110 "
b10101001 !
b10001001 !
b101110 "
b10011001 !
b101100 "
b10010001 !
b101000 "
b11010001 !
b11010101 !
b101 #
b111 #
b110 #
b1000 "
b10001000 "
b11010100 !
06
13
15
04
09
1?
0C
1E
0K
1M
0:
0>
1B
0F
0J
1S
0A
0=
0T
0L
1H
1@
0<
1P
08
0+
1%
0*
1)
1'
0&
0$
0I
1G
#190000
b11001000 "
b11001001 "
b11010110 !
b11110110 !
b11100110 !
b11001011 "
b11001111 "
b10100110 !
b10100010 !
b10 #
b11 #
b11101111 "
b1101111 "
16
05
19
0?
0E
1K
0M
17
1:
1>
1J
1N
0S
1R
0O
1A
1=
0G
1T
0P
1L
0@
1<
0H
0D
0(
0'
1*
0)
1&
0%
1$
1G
#195000
b100010 !
b100011 !
b101111 "
b100001 !
b101011 "
b1011 "
b10001011 "
0>
0J
0N
1S
14
09
0Q
0A
0R
0T
0<
18
1+
0*
0$
0G
#200000
b1100001 !
b1100101 !
b111 #
b11001011 "
b1100111 !
b11101011 "
1J
1N
15
19
1?
1M
1R
1O
1A
1;
1@
0L
1H
08
0+
1'
0&
1)
1G
#205000
b11100011 "
b11110011 "
b101 #
b100 #
b11100111 !
b11100110 !
b11110111 "
b11100100 !
b11010111 "
04
09
1Q
06
03
1>
0B
1F
0J
0O
0=
0H
1T
1P
1%
1$
0'
#210000
b11101100 !
b11010110 "
b11111100 !
b11010100 "
b11111000 !
b11000100 "
b1111000 !
b1111001 !
b1111011 !
07
0:
0F
14
19
0?
1C
1E
0Q
1I
0G
0A
0T
0@
0)
0$
0I
1G
1O
0O
#215000
b1011011 !
b0 #
b11001100 "
b10 #
b11 #
b11001000 "
b1010011 !
b11001001 "
b1000011 !
b11011001 "
b1000001 !
17
0>
1B
1F
16
13
05
09
0C
0E
0K
18
1+
#220000
b1011001 "
b1 !
b101 !
b10000101 !
b111 #
b110 #
b10001101 !
b10001111 !
06
15
19
1?
1C
0M
1Q
0S
0R
1O
1I
0G
1A
1=
0;
1T
1@
1<
1H
08
0+
1'
1*
1)
1$
#225000
b10101111 !
b1010001 "
b1010000 "
b1000000 "
b11000000 "
b101111 !
b101101 !
07
0B
0F
1S
09
1K
0Q
1R
0O
0A
0=
0I
1G
1L
0<
0H
1D
18
1+
1(
0'
0*
1&
0R
1O
0G
#230000
b10000000 "
b10100000 "
b101100 !
b100 #
b111100 !
b111000 !
b101 #
b10101000 "
b10101001 "
16
03
04
0?
1E
17
1B
1J
0N
1I
0P
1H
0@
0)
1'
0%
#235000
b10101011 "
b1111000 !
b1 #
b1110000 !
b1010000 !
b1010010 !
b10001011 "
b10001010 "
05
19
0C
0K
1M
07
1:
0J
1=
0I
1G
0L
1<
08
1P
0D
0T
0$
0(
1%
0+
1*
0&
#240000
b1010 "
b11 #
b1000010 !
b1000110 !
b1000 "
b111 #
1?
0E
13
15
0:
0S
0=
1;
0G
1T
1L
1@
18
1+
1)
1&
1$
#245000
b1100 "
b11100 "
b11000110 !
b11100110 !
b11100100 !
b111100 "
b101 #
b11100000 !
b111110 "
b1 #
03
05
09
0?
1K
1Q
1:
1>
1F
1J
1R
0O
1G
0H
0@
0<
08
0+
0*
0)
0'
#250000
b1111110 "
b1110110 "
b11110110 "
b11110000 !
b11110010 "
b1110000 !
b1110010 !
b11010010 "
b11010000 "
b101 #
15
19
1E
0Q
0:
0>
0B
0J
1N
1S
1I
0G
1<
1H
1'
1*
1O
#255000
b100 #
b1111010 !
b11010001 "
b11000001 "
b1011010 !
b110 #
b1011110 !
b10000001 "
b1001110 !
b10000101 "
b11001110 !
b10100101 "
b10100111 "
17
1:
1>
0F
1J
0N
1?
1C
0E
0K
1Q
06
13
0O
0I
1A
1=
0;
0T
0H
1D
0<
18
1+
0*
1(
0'
0$
1G
0R
1O
#260000
b11001111 !
b100111 "
b11001101 !
b100110 "
b110110 "
b100 #
b1110110 "
b11011101 !
b1110010 "
b1011101 !
b1110000 "
03
07
0:
0>
1F
1N
0S
14
09
1E
0Q
1I
0A
0=
1R
0O
1H
08
0L
0D
0(
0&
0+
1'
0G
1O
#265000
b1111000 "
b1010101 !
b1110101 !
b1011000 "
b11011000 "
b1110111 !
b11011001 "
b11001001 "
19
0C
1K
17
1B
0F
0J
1S
0I
1G
1A
1=
0H
18
1+
0'
1I
0G
0O
1O
#270000
b101 #
b1110110 !
b1100110 !
b11001101 "
b11100110 !
b11001111 "
b11000111 "
b11000110 !
b11000100 !
1:
1>
0B
04
09
0E
0K
1Q
16
0O
0I
0=
1;
1T
1@
1<
1*
1)
1$
#275000
b10000100 !
b111 #
b10001100 !
b1000111 "
b1000110 "
b1010110 "
b1010010 "
b1100 !
b1110 !
07
0>
1F
0S
13
19
1C
0M
0Q
0R
1O
1I
1=
0;
0P
1D
0<
1L
1&
0*
1(
0%
#280000
b1010 !
b110 #
b1001010 !
b100 #
b11010010 "
b11010011 "
b11010111 "
b11001010 !
b11001000 !
17
1>
1S
06
03
09
0?
1M
1Q
1R
0O
0A
0=
1;
1P
0@
0L
0D
08
0+
0(
0&
0)
1%
0I
1G
#285000
b0 #
b11110111 "
b11001001 !
b11011001 !
b11111111 "
b11111001 !
b11110001 !
b11110101 !
b1 #
b11 #
b1111111 "
b1111011 "
b11110111 !
14
19
1?
0C
1E
1K
0>
1B
1J
0S
16
13
05
1O
1I
0G
1A
1=
1L
1H
1@
1<
18
1+
1*
1)
1'
1&
1G
#290000
b111011 "
b111001 "
b101001 "
b101000 "
b1000 "
b11110110 !
b11100110 !
b0 "
b11000110 !
b11001110 !
b11001010 !
b10 #
b10000000 "
b10000100 "
06
04
0?
1C
0E
0K
07
0:
1>
0B
0F
0J
0N
1S
0R
0I
0A
0=
0L
0H
1D
0@
08
0+
0)
1(
0'
0&
0G
#295000
b110 #
b10010100 "
b10010101 "
b10110101 "
b11001011 !
b11011011 !
b10111101 "
b11111011 !
b111 #
b111101 "
b111001 "
14
1E
1K
17
0>
1B
1F
1J
0S
16
15
1R
0O
1I
1G
1=
0;
0D
1@
1)
0(
#300000
b11111001 !
b11111101 !
b111000 "
b11101101 !
b11001101 !
b110 #
b10111000 "
b10111100 "
06
07
1>
1S
09
1?
0E
0K
0G
1A
0=
1L
1H
0@
0<
0T
18
1+
0$
0*
0)
1'
1&
#305000
b1001101 !
b10111110 "
b10 #
b10101110 "
b10001110 "
b1001111 !
b1001011 !
b10001111 "
b1011011 !
b1111011 !
05
17
1:
0F
0J
19
0?
1E
1K
0Q
1=
1;
1<
1D
1(
1*
#310000
b111011 !
b0 #
b11001111 "
b110011 !
b110010 !
b1 #
b1001111 "
b10110010 !
b101 #
b1101111 "
b10110000 !
b10110100 !
b10010100 !
1J
1N
0S
16
03
15
04
09
1?
0C
0K
0M
1Q
0=
1T
1@
1)
1$
#315000
b1101011 "
b111 #
b101011 "
b10010101 !
b10101011 "
b10101 !
b10111 !
b110111 !
14
19
1K
0Q
13
0>
0N
1S
0R
1O
1=
0T
0L
0D
0<
08
0+
0*
0(
0&
0$
#320000
b10111011 "
b10111010 "
b1110111 !
b10011010 "
b1110011 !
b10011110 "
b1110010 !
b1110000 !
04
09
0?
1M
07
1>
1F
0J
1R
0O
1G
0A
0=
1L
0H
0@
18
1+
0)
0'
1&
0G
#325000
b10010110 "
b1100000 !
b110 #
b10 #
b0 #
b10110 "
b11100000 !
b110 "
b10100000 !
b100110 "
b10100100 !
b100010 "
06
03
05
1?
0E
0M
1Q
0>
0B
0F
1J
0S
0R
1O
0I
1@
0P
1<
08
0+
1*
0%
1)
0L
1P
1T
1$
1%
0&
#330000
b10101100 !
b10001100 !
b10001110 !
b1 #
b101 #
b111 #
b110010 "
1F
16
13
15
19
1C
0K
0O
1G
1A
1=
0;
1D
0<
18
1+
0*
1(
1I
0G
1O
#335000
b110000 "
b110001 "
b10001111 !
b111001 "
b10011111 !
b11111 !
b1011111 !
b1011011 !
b111101 "
b1111011 !
b110 #
b10 #
b101101 "
06
05
14
0?
1E
1K
1M
0Q
17
0:
1>
1B
0F
1R
0O
1H
0@
1<
0T
1L
1&
0$
1*
0)
1'
#340000
b1101101 "
b1110011 !
b0 #
b1101111 "
b1110010 !
b1100010 !
b11100010 !
b10100010 !
b1101011 "
b10000010 !
03
04
0C
0E
0K
0M
1Q
1:
0>
1N
0A
0I
1G
0P
1@
0<
0L
0H
0D
0(
0'
0&
0*
1)
0%
0R
1O
0G
1H
1L
1D
1(
1&
1'
0H
1P
1T
1$
1%
0'
#345000
b11101011 "
b1 #
b101 #
b10101011 "
b10001010 !
b11001010 !
1C
1M
16
15
0N
1S
1G
0@
1<
1*
0)
#350000
b10001011 "
b11001110 !
b10001001 "
b11001111 !
b11011111 !
b1011111 !
b10001101 "
b1111111 !
b1 #
b11001101 "
b1110111 !
05
14
1?
0C
1E
1K
0Q
0:
1>
0J
1N
1R
0O
1A
1@
0T
1H
0D
0(
1'
0$
1)
1I
0G
1O
#355000
b1110101 !
b11001100 "
b11 #
b1001100 "
b10 #
b1110100 !
b1100100 !
b1001000 "
b1000100 !
b110 #
06
13
15
07
0>
0S
04
09
0E
0K
0O
0I
1G
0A
0=
0L
0H
0<
08
0P
1D
1(
0%
0+
0*
0'
0&
0G
#360000
b1000000 "
b1010000 "
b1010010 "
b1010011 "
b1010100 !
b10 #
05
1E
17
1:
0B
1F
1I
1;
1H
0D
1P
1%
0(
1'
#365000
b1010000 !
b11010000 !
b11011000 !
b11011010 !
b11010011 "
b11 #
b11011011 !
b11111011 !
b11011011 "
b11011010 "
b11101011 !
16
07
1B
1S
14
19
0?
1C
0E
1K
1Q
1O
1=
0;
1T
1L
0H
1D
0@
1<
18
1+
1*
0)
1(
0'
1&
1$
#370000
b1 #
b11011110 "
b101 #
b11101111 !
b1101111 !
b1100111 !
b1100101 !
b100 #
b1100100 !
b11010110 "
04
09
1?
0C
0Q
1>
0B
06
03
15
0I
1G
1A
0=
1;
0T
0L
0D
1@
0<
08
0+
0*
1)
0(
0&
0$
0O
#375000
b100100 !
b1010110 "
b110100 !
b110 #
b10 #
b110000 !
b10110000 !
b10111000 !
b11 #
16
13
05
0S
0?
1C
1E
0M
1Q
0R
1O
1I
0A
1T
0P
1H
1D
0@
1L
1&
0)
1(
1'
0%
1$
0G
1R
0O
#380000
b11111000 !
b11101000 !
b1 #
b101 #
b11101100 !
b1101100 !
b100 #
06
03
15
1?
0E
1M
0Q
1O
0I
1G
1A
0T
1P
0H
1@
0L
0D
0(
0&
1)
0'
1%
0$
1I
0G
0O
1O
#385000
b1110110 "
b110110 "
b100110 "
b100100 "
b10100100 "
b1100100 !
b1110100 !
b110 #
b1110000 !
13
0?
0C
1E
0:
0F
1J
0N
1S
0O
0I
1G
0A
0;
1T
1H
1'
1$
#390000
b1010000 !
b10100101 "
b1010010 !
b1010011 !
b10101101 "
b10 #
b11010011 !
b10001101 "
b11011011 !
b11001011 !
b0 #
b11001111 !
03
05
17
1B
0J
14
19
1?
1C
0E
0K
1Q
0R
1O
1A
1=
0@
0P
0%
0)
1@
1D
1P
0T
0$
1%
1(
1)
#395000
b10001001 "
b10001011 "
b11101111 !
b10001010 "
b11101101 !
b10000010 "
b1101101 !
b10100010 "
b1100101 !
b1110101 !
09
0C
1E
1K
0Q
07
1:
0>
0B
1J
1R
0O
0A
0=
1;
0@
18
1T
1$
1+
0)
1<
1@
0D
0P
0T
0$
0%
0(
1)
1*
#400000
b11100010 "
b11110010 "
b100 #
b11110011 "
b1110111 !
b11111011 "
19
15
17
1B
1F
1N
1O
1I
0G
1A
1=
1P
1L
0@
0)
1&
1%
1G
#405000
b110111 !
b101 #
b1111011 "
b111 #
b110011 !
b1111001 "
b10110011 !
b10100011 !
b1101001 "
b1101000 "
b10100001 !
b1100000 "
07
0:
0B
0F
0S
16
13
09
0?
0E
0M
1Q
0O
0I
0G
0A
0=
0;
1T
0P
1@
0L
1D
1(
0&
1)
0%
1$
#410000
b10100000 !
b1100100 "
b1000100 "
b11 #
b11100000 !
b11000100 "
b1 #
b1100000 !
b11010100 "
03
05
1>
1F
0J
1S
04
1M
0Q
1G
0T
1P
08
1L
0H
0@
0D
0<
0*
0(
0)
0'
1&
0+
1%
0$
#415000
b1000000 !
b0 #
b11010110 "
b11010111 "
b1000010 !
b1000011 !
b1010111 "
b10 #
17
1:
0S
06
13
14
19
0K
1A
1=
1;
0L
1<
18
1+
1*
0&
#420000
b1000111 !
b1010111 !
b1011111 "
b1011011 "
b1111011 "
b10111 !
b1111001 "
b11111001 "
b0 #
03
0:
0>
1B
1J
1S
1?
1E
0M
0R
1O
1I
0;
0P
1H
1L
08
0+
1&
1'
0%
1R
0O
0<
0L
1P
1T
1$
1%
0&
0*
0P
0T
0$
0%
#425000
b11111 !
b10111001 "
b10111000 "
b1111 !
b111000 "
07
0N
0S
1C
0E
0G
0R
1O
0A
0=
1;
1D
1T
18
1+
1$
1(
1<
1@
0D
1P
0T
0H
0'
0$
1%
0(
1)
1*
#430000
b101000 "
b101111 !
b101101 !
b101100 !
b100000 "
b100100 "
b1101100 !
b10 #
b1100100 !
b1100100 "
b1100101 "
b11100101 "
13
04
09
0C
1K
1M
17
1>
0B
0F
1N
1S
1R
0I
1A
0;
08
1L
0<
0*
1&
0+
#435000
b110 #
b11100100 !
b11100000 !
b11100111 "
b11110111 "
b11100010 !
b11111111 "
b100 #
b11101010 !
b11111110 "
07
1:
1B
1F
19
0?
1C
1Q
03
15
1I
1=
1T
1D
0@
1<
1*
0)
1(
1$
#440000
b11111010 !
b11011010 !
b10011010 !
b10111110 "
b0 #
b11010 !
b10101110 "
b10 #
b10010 !
13
05
0F
0N
0C
1E
0K
0M
0Q
0R
0T
0P
0L
1H
0D
0(
1'
0&
0%
0$
#445000
b11 #
b10001110 "
b10001010 "
b1010 "
b10110 !
b1001010 "
b1011010 "
b1 #
b11110 !
1?
1C
0>
1F
0J
1N
0S
16
03
1G
1D
1@
1)
1(
#450000
b11111 !
b11101 !
b1011011 "
b1101 !
b1001101 !
b101 #
b11001101 !
b100 #
b1011111 "
b11011111 "
b10011111 "
06
15
17
1>
0N
1S
14
09
0E
1M
1Q
0G
1T
0H
0<
18
1+
0*
0'
1$
#455000
b10011101 "
b10010101 "
b11101101 !
b11101111 !
b10010100 "
b11111111 !
b10111111 !
b0 #
b10010000 "
b10000 "
05
19
1E
1K
0M
07
0:
0>
0B
0S
1G
0A
0=
1;
0D
0@
1P
1%
0)
0(
0G
1<
1@
1D
1H
1'
1(
1)
1*
0H
0'
#460000
b10 #
b10110111 !
b1010000 "
b1010010 "
b10110101 !
b1010011 "
b110 #
17
1:
1N
09
0C
13
15
1A
1=
0;
1R
0O
1L
0D
08
0+
0(
1&
#465000
b10110001 !
b111 #
b1011011 "
b10010001 !
b1011111 "
b101 #
b10011001 !
b1011101 "
b10011011 !
b1011100 "
b1 #
07
0:
1>
1B
16
03
05
19
0?
1C
0K
0R
1O
1G
0A
0=
1;
0L
1D
0@
0P
1H
18
1+
1'
0%
0)
1(
0&
#470000
b1111100 "
b1101100 "
b10011010 !
b10001010 !
b11001010 !
b11101100 "
b10101100 "
b10100100 "
b11101010 !
b10100000 "
b11101000 !
b101 #
15
04
09
0E
1K
1M
0>
0B
0F
1J
0N
1S
1R
0O
0I
0G
0;
1P
1L
0H
0<
08
0+
0*
0'
1&
1%
#475000
b111 #
b11100000 !
b10100010 "
b10000010 "
b11110000 !
b10110000 !
b10001010 "
b10010000 !
b11 #
1:
1B
0J
0C
1E
0K
0M
13
05
0R
1G
1;
0P
0L
1H
0D
0(
1'
0&
0%
#480000
b10000 !
b10001011 "
b10001 !
b1011 "
b1001011 "
b1001001 "
b1010001 !
b1110001 !
17
0:
1N
0S
14
1K
1M
0Q
1R
0T
1P
1L
18
1+
1&
1%
0$
#485000
b1110101 !
b10 #
b1001101 "
b0 #
b11110101 !
b1001100 "
b10110101 !
b10010101 !
07
1>
06
03
1?
0K
0M
1Q
0R
1O
1A
0;
0P
0L
1D
1<
1*
1(
0&
0%
1I
0G
0<
0D
1P
1T
1$
1%
0(
0*
0H
1L
1&
0'
#490000
b10011101 !
b10001101 !
b100 #
b10001100 !
b1001110 "
b10001000 !
b101 #
b11001000 !
1:
16
15
04
0?
1C
0E
1M
1R
0O
0I
1G
0A
1;
1D
1@
08
0L
1<
1*
0&
0+
1)
1(
#495000
b11001110 "
b10001110 "
b10001010 "
b10001011 "
b1 #
b10001001 "
b11001100 !
b0 #
b10001100 !
1?
0M
06
05
17
0:
0>
0N
1S
0R
0;
0P
18
1H
0D
0(
1'
1+
0%
0<
0T
0$
0*
#500000
b10011001 "
b10111001 "
b10110001 "
b10011100 !
b110001 "
b1110001 "
b100 #
b1110011 "
b10011000 !
b101 #
16
15
0?
1E
1:
0B
1F
1J
1N
0S
1O
1I
0G
1;
1T
1P
1L
1D
1<
0@
0)
1*
1(
1&
1%
1$
1R
0O
#505000
b10011010 !
b11010 !
b11011 !
b1110111 "
b1110110 "
b1100110 "
b1101110 "
b1011 !
b101110 "
b1 #
b0 #
06
05
07
1>
1B
0F
0N
14
19
0E
0Q
0I
1G
1A
1=
0;
0R
1O
0H
0P
0D
1@
0L
0&
1)
0(
0%
0'
0O
1P
0T
0<
0@
1D
1H
1L
1&
1'
1(
0)
0*
0$
1%
0P
0%
