exercicios/aula_14/ULA/simulation/qsim/ULA.msim.vcd
$comment
	File created using the following command:
		vcd file ULA.msim.vcd -direction
$end
$date
	Wed Sep 11 20:08:08 2019
$end
$version
	ModelSim Version 10.5b
$end
$timescale
	1ps
$end

$scope module ULA_vlg_vec_tst $end
$var reg 8 ! a [7:0] $end
$var reg 8 " b [7:0] $end
$var reg 3 # op [2:0] $end
$var wire 1 $ s [7] $end
$var wire 1 % s [6] $end
$var wire 1 & s [5] $end
$var wire 1 ' s [4] $end
$var wire 1 ( s [3] $end
$var wire 1 ) s [2] $end
$var wire 1 * s [1] $end
$var wire 1 + s [0] $end

$scope module i1 $end
$var wire 1 , gnd $end
$var wire 1 - vcc $end
$var wire 1 . unknown $end
$var tri1 1 / devclrn $end
$var tri1 1 0 devpor $end
$var tri1 1 1 devoe $end
$var wire 1 2 ~QUARTUS_CREATED_GND~I_combout $end
$var wire 1 3 op[2]~input_o $end
$var wire 1 4 b[0]~input_o $end
$var wire 1 5 op[0]~input_o $end
$var wire 1 6 a[0]~input_o $end
$var wire 1 7 op[1]~input_o $end
$var wire 1 8 Mux7~0_combout $end
$var wire 1 9 a[1]~input_o $end
$var wire 1 : b[1]~input_o $end
$var wire 1 ; Mux6~0_combout $end
$var wire 1 < Mux6~1_combout $end
$var wire 1 = Mux6~2_combout $end
$var wire 1 > b[2]~input_o $end
$var wire 1 ? a[2]~input_o $end
$var wire 1 @ u0|a2|saida~combout $end
$var wire 1 A u1|a1|k2~combout $end
$var wire 1 B Mux5~0_combout $end
$var wire 1 C b[3]~input_o $end
$var wire 1 D u1|a2|k2~combout $end
$var wire 1 E a[3]~input_o $end
$var wire 1 F u0|a2|cout~0_combout $end
$var wire 1 G Mux4~0_combout $end
$var wire 1 H b[4]~input_o $end
$var wire 1 I a[4]~input_o $end
$var wire 1 J u0|a4|saida~combout $end
$var wire 1 K u1|a3|k2~combout $end
$var wire 1 L Mux3~0_combout $end
$var wire 1 M a[5]~input_o $end
$var wire 1 N b[5]~input_o $end
$var wire 1 O u0|a5|saida~0_combout $end
$var wire 1 P u0|a5|saida~combout $end
$var wire 1 Q u1|a4|k2~combout $end
$var wire 1 R Mux2~0_combout $end
$var wire 1 S b[6]~input_o $end
$var wire 1 T u0|a4|cout~0_combout $end
$var wire 1 U a[6]~input_o $end
$var wire 1 V u0|a6|saida~combout $end
$var wire 1 W u1|a5|k2~combout $end
$var wire 1 X Mux1~0_combout $end
$var wire 1 Y a[7]~input_o $end
$var wire 1 Z b[7]~input_o $end
$var wire 1 [ u0|a7|saida~0_combout $end
$var wire 1 \ u0|a7|saida~combout $end
$var wire 1 ] u1|a6|k2~combout $end
$var wire 1 ^ Mux0~0_combout $end
$upscope $end
$upscope $end
$enddefinitions $end
#0
$dumpvars
b1101001 !
b1001111 "
b100 #
1+
0*
0)
1(
0'
0&
1%
0$
0,
1-
x.
1/
10
11
02
13
14
05
16
07
18
09
1:
0;
0<
0=
1>
0?
0@
0A
0B
1C
0D
1E
1F
1G
0H
0I
1J
0K
0L
1M
0N
1O
1P
0Q
0R
1S
0T
1U
0V
0W
1X
0Y
0Z
0[
1\
0]
0^
$end
#10000
b101001 !
b1001 !
b11001 !
b10001 !
b10000 !
b1101111 "
b1111111 "
b1110111 "
b1110011 "
b0 #
b10 #
b11 #
15
17
03
0>
0C
1H
1N
06
0E
1I
0M
0U
0\
1V
1T
0P
0J
0F
0X
1L
0G
08
0+
0(
1'
0%
1\
0V
#20000
b10100 !
b10110 !
b11110011 "
b10110011 "
b10110001 "
b1010110 !
b1110110 !
b1111110 !
b10100001 "
b10101001 "
b111 #
b110 #
05
13
0:
1C
0H
0S
1Z
19
1?
1E
1M
1U
0O
1@
1<
1;
1[
1X
1B
1^
18
1+
1$
1)
1%
0\
1P
1=
1*
#30000
b10101000 "
b1101110 !
b1101111 !
b11101000 "
b11101010 "
b1001111 !
b11111010 "
b10 #
b11 #
15
03
16
0I
0M
04
1:
1H
1S
1V
1F
0@
1O
1K
1D
1A
0L
0^
1G
1(
0$
0'
0P
#40000
b11001111 !
b11011010 "
b11001011 !
b11001001 !
b11011000 "
b11101001 !
b111 #
13
0:
0N
09
0?
1M
1Y
0[
0K
0F
0D
0A
1R
0X
0G
0(
0%
1&
1\
#50000
b101 #
b1011000 "
b1010000 "
b1010001 "
b11101000 !
b10001 "
b1 "
b100 #
b11101100 !
b11101110 !
b0 #
06
19
1?
14
0C
0H
0S
0Z
05
07
03
0<
1[
0V
0T
1P
1@
1^
1X
0R
1G
0B
0)
1(
0&
1%
1$
1V
1B
1R
0X
0%
1&
1)
1X
1%
#60000
b1101110 !
b100001 "
b10 #
b10100001 "
b10101001 "
b11101001 "
b11111001 "
b11 #
b1101010 !
b1101000 !
b111 #
15
17
13
1C
1H
1N
1S
1Z
09
0?
0Y
0@
1<
0\
0O
1T
0P
0^
0X
0R
0G
08
0+
0(
0&
0%
0$
1P
#70000
b11111101 "
b101000 !
b100000 !
b110000 !
b11111111 "
b10000 !
b11111110 "
b10001 !
b11011110 "
b101 #
b10101 !
b1 #
07
03
16
1?
0E
1I
0M
0U
04
1:
1>
0N
1\
1F
1R
0B
1X
1G
1(
1%
0)
1&
1J
0G
1^
1$
0(
1L
1'
#80000
b1011110 "
b11110 "
b10111 !
b1010111 !
b1000111 !
b1100111 !
b11111 "
b11 #
b1100011 !
17
19
0?
0I
1M
1U
14
0S
0Z
0[
0\
0V
1O
0J
1A
0^
18
0L
0'
1+
0$
0P
1\
#90000
b11100011 !
b1111 "
0H
1Y
1[
0T
1P
1J
1^
1$
1V
#100000
b111 "
b11 "
b1 "
b100001 "
b111 #
b10100001 "
b11100001 !
b11000001 !
b101 #
b1000001 !
09
0M
0Y
07
13
0:
0>
0C
1N
1Z
0J
0F
0<
0;
0A
0=
0*
#110000
b100 #
b1001001 !
b1001000 !
b1011000 !
b10100000 "
b10100100 "
b10100110 "
b10000110 "
b110 "
b1111000 !
04
1:
1>
0N
0Z
06
1E
1I
1M
05
1J
1@
0[
0^
0X
0R
08
0+
0&
0%
0$
0\
#120000
b0 #
b1111010 !
b10 #
b11111010 !
b11110010 !
b111 "
b101 "
14
0:
19
0E
1Y
17
03
1;
1[
1^
1X
1R
1L
18
1+
1'
1&
1%
1$
1\
1=
1*
#130000
b1000101 "
b10110010 !
b11 #
b10110011 !
b10100011 !
b11000101 "
b10000011 !
b11 !
b11000111 "
15
16
0I
0M
0U
0Y
1:
1S
1Z
1F
0@
1<
0O
0J
1A
0^
0X
0R
0L
0=
0*
0'
0&
0%
0$
0P
1=
1*
#140000
b111 !
b11010111 "
b11010011 "
b11110011 "
b111 #
b101 #
b1111 !
b11110010 "
b10110010 "
b1001111 !
b100 #
05
07
13
04
0>
1H
1N
0S
1?
1E
1U
1T
1P
1K
1D
1O
08
0+
0P
0\
0V
#150000
b10111010 "
b1001101 !
b1011101 !
b11011101 !
b11011001 !
b10111110 "
b10011110 "
b0 #
b10 #
b11011110 "
b11 #
15
17
03
09
0?
1I
1Y
1>
1C
0N
1S
0O
1J
0F
1@
0[
0K
0D
0A
0<
0;
1X
1G
1^
1L
18
1+
1'
1$
1(
1%
1\
1P
0=
0*
#160000
b11011000 !
b11011100 "
b11001100 "
b11001101 "
b11000101 "
b11011010 !
b11001010 !
b11001110 !
b11000001 "
b111 #
b10000001 "
13
14
0:
0>
0C
0H
0S
06
19
1?
0I
0T
0P
0J
1<
1;
0\
1V
1B
08
0^
1R
1&
0$
0+
1)
1=
1*
#170000
b1 "
b11101110 !
b10101110 !
b101110 !
b100001 "
b101 #
b101111 !
b100011 "
b110011 "
b111011 "
b101101 !
b101001 !
b111111 "
b1 #
b1111111 "
07
03
16
09
0?
1M
0U
0Y
1:
1>
1C
1H
1N
1S
0Z
1\
0V
1T
1P
1F
0@
0<
0R
0L
0G
0(
0'
0&
0=
0B
1G
1R
0X
1^
1$
0%
1&
1(
0)
0*
#180000
b0 #
b111001 !
b11001 !
b10011001 !
b1011111 "
b10 #
b1010111 "
0C
0N
1I
0M
1Y
05
17
1<
0;
1[
0\
1V
1J
0R
1L
1'
0&
1\
1=
1*
#190000
b10010001 !
b1010110 "
b11010001 !
b11010000 !
b11010100 !
b10110 "
b11 #
b11000100 !
b1 #
15
07
04
0S
06
1?
0E
0I
1U
0T
0P
1;
1X
0=
1R
1&
0*
1%
1=
0R
0&
1*
#200000
b10100 "
b100 "
b101 #
b11100100 !
b100100 "
b101100 "
b10100100 !
b1101100 "
b111 #
1M
0U
17
13
0:
1C
0H
1N
1S
0\
0V
0X
0G
18
1+
0(
0%
#210000
b10100110 !
b10101110 !
b10101111 !
b10101011 !
b10111011 !
b1101110 "
b1111110 "
b11 #
b11111011 !
03
1:
1H
16
19
0?
1E
1I
1U
1V
1T
1P
1A
1X
1G
1R
1&
1(
1%
#220000
b1111010 "
b1111011 !
b1011010 "
b11010 "
b1 #
b1111001 !
b1110001 !
b1110000 !
b1110100 !
b1100100 !
b101 #
07
13
06
09
1?
0E
0I
0Y
0>
0N
0S
0V
1O
0F
1@
0[
0J
0A
1B
0^
08
0+
0$
1)
1\
0T
1J
0\
1V
#230000
b100 #
b11000 "
b100100 !
b11100 "
b111100 "
b1111100 "
b110 #
b100110 !
b101110 !
b101111 !
b10 #
16
19
1E
0U
0:
1>
1N
1S
05
17
03
0<
1\
0V
0O
1F
0@
1T
0P
1K
0J
1D
1A
0X
0L
0'
0%
1P
0B
0G
1L
0=
0*
1'
0(
0)
#240000
b11111100 "
b11111101 "
b1111 !
b11110101 "
b11100101 "
b10001111 !
b10001011 !
b11100111 "
b10100111 "
0?
0M
1Y
14
1:
0C
0H
0S
1Z
0\
1V
0T
0P
1J
1O
0K
0D
1^
0R
1B
1)
0&
1$
1P
0V
1G
0L
0'
1(
#250000
b11001011 !
b11000011 !
b100111 "
b11100011 !
b101111 "
b111111 "
b1100011 !
b1100111 !
b1111111 "
1C
1H
1S
0Z
1?
0E
1M
1U
0Y
1\
1V
0O
1T
0P
0J
1D
1@
0^
1X
1R
0G
0B
0)
0(
1&
1%
0$
1P
1G
1(
#260000
b1110111 !
b1111011 "
b1011011 "
b1110101 !
b1110100 !
b1011010 "
b1011000 "
b1010100 !
b1010000 "
b1000000 "
b11010100 !
b11010000 !
b0 "
04
0:
0>
0C
0H
0N
0S
06
09
0?
1I
0M
1Y
1[
0\
0T
0P
1J
0F
0D
0@
0A
1<
0;
1^
0R
1L
1B
1=
18
1+
1*
1)
1'
0&
1$
1\
0=
0B
0G
0(
0)
0*
#270000
b11 #
b111 #
b11011000 !
b11001000 !
b100 "
b100100 "
b101100 "
b11001100 !
1>
1C
1N
1?
1E
0I
15
13
1;
1F
1O
1P
1=
1*
#280000
b101 #
b11001101 !
b101110 "
b11101101 !
b1101101 !
b1101110 "
b1 #
b1100110 "
b1101001 !
1:
0C
1S
16
0?
1M
0Y
07
03
0[
0\
0O
0F
1@
1R
08
0+
1&
0P
0J
1\
1B
1G
0^
0$
1(
1)
1^
0L
0R
0&
0'
1$
#290000
b101001 !
b11100110 "
b0 #
b100001 !
b11100010 "
b100000 !
b0 !
b11101010 "
05
0>
1C
1Z
06
0E
0M
0U
0\
1O
0@
1[
1\
1P
0B
0^
0$
0)
1R
1^
1$
1&
#300000
b10 !
b11101011 "
b11001011 "
b10000010 !
b10000110 !
b10001110 !
b10101110 !
14
0N
19
1?
1E
1M
1Y
0[
1J
1F
0;
0G
18
1+
0(
0\
0=
1G
1L
1'
1(
0*
0^
0$
#310000
b10 #
b10001011 "
b110 #
b11101110 !
b111 #
b10000011 "
b11101100 !
b10000010 "
b1101100 !
09
1U
0Y
04
0C
0S
15
17
13
0<
0F
1@
1[
1B
1)
1\
0J
#320000
b10010010 "
b1111100 !
b1111101 !
b10110010 "
b1110101 !
b101 #
b110101 !
b10110011 "
07
16
0E
1I
0U
14
1H
1N
0O
1T
0P
1F
0@
1<
1;
0X
0G
1^
1$
0(
0%
1P
1=
1*
#330000
b110011 "
b110111 "
b10101 !
b100 #
b111111 "
b10111 !
b101111 "
b111 !
b1111 !
b1001111 !
05
19
1E
0I
0M
1U
1>
1C
0H
0Z
0[
0T
0P
1J
1@
0\
0V
1O
1K
1D
1A
0^
0L
1G
0R
0&
1(
0'
0$
1P
1V
#340000
b1001011 !
b1001010 !
b10101111 "
b1101010 !
b101 #
b1101000 !
b1111000 !
b111000 !
15
1Z
06
09
0?
1I
1M
0U
0O
1T
0P
0J
0K
0F
0D
0A
1[
1R
1L
1^
1$
1'
1&
1\
1P
#350000
b10101101 "
b1 #
b11 #
b10101001 "
b111100 !
b101001 "
b111110 !
19
1?
17
03
0:
0>
0Z
0[
0^
08
0+
0$
0\
#360000
b1101001 "
b1001001 "
b110110 !
b100110 !
b1100110 !
b1001011 "
b111 #
b1100010 !
b11001011 "
13
0?
0E
0I
1U
1:
0N
1S
1Z
1[
1\
1O
0<
0;
0T
0P
0G
0(
0\
0V
1P
0=
0*
#370000
b11011011 "
b1000010 !
b11011111 "
b1000000 !
b10011111 "
b1001000 !
b11 #
b1001100 !
b11111 "
03
09
1?
1E
0M
1>
1H
0S
0Z
0[
1\
1V
1T
0P
1F
0@
0O
1X
0L
0R
1G
1(
0&
0'
1%
1P
0\
#380000
b11110 "
b1001101 !
b111110 "
b1011101 !
b111100 "
b101100 "
b101000 "
b1011111 !
16
19
1I
04
0:
0>
0H
1N
1\
0V
1O
0F
1@
1<
1;
1Q
1K
1D
1A
1L
18
1+
1'
0P
1=
1*
#390000
b100000 "
b10 #
b0 #
b11111 !
b111111 !
b1100000 "
b100 #
b111011 !
b11100000 "
b11100001 "
b111010 !
b101010 !
b11100011 "
b11110011 "
b11110111 "
06
0?
0I
1M
0U
05
07
13
14
1:
1>
0C
1H
1S
1Z
1[
0T
1P
1J
1F
0@
0O
0Q
0K
0D
0A
0X
0L
0G
0B
08
1R
1&
0+
0)
0(
0'
0%
1T
0J
0\
#400000
b10101010 !
b10100010 !
b101 #
b1110111 "
b10100011 !
b1110101 "
b1110001 "
0:
0>
0Z
15
16
0E
1Y
0T
0P
1J
0F
1A
1@
1^
18
1X
1L
1'
1%
1+
1$
#410000
b1010001 "
b1011001 "
b111 #
b11100011 !
b11 #
b11110011 !
b1110011 !
b1111011 !
b10 #
b11011001 "
1E
1I
1U
0Y
05
17
03
1C
0N
1Z
1O
1T
1P
0<
0^
1G
1B
08
0+
1)
1(
0$
1V
0P
0=
0*
#420000
b10011001 "
b10011000 "
b10001000 "
b1111010 !
b10001010 "
b10001110 "
b111010 !
b101010 !
b11 #
b1110 "
15
06
0I
0U
04
1:
1>
0H
0S
0Z
0[
1\
0T
1P
1F
0@
1<
0A
0X
0L
0B
1=
1*
0)
0'
0%
0\
0V
#430000
b101000 !
b101100 !
b101110 "
b100110 "
b1 #
b101 #
b10101100 !
b1100110 "
b1100111 "
b10101101 !
b11101101 !
b100 #
05
07
13
14
0C
1N
1S
16
09
1?
1U
1Y
1[
1\
1V
1@
0<
0;
0O
1X
1B
18
0G
0(
1+
1)
1%
0P
0\
0=
0*
#440000
b1110111 "
b11111101 !
b0 #
b110111 "
b11111100 !
03
06
1I
1H
0S
0V
1T
1P
0@
1;
1L
0R
0&
1'
1=
0B
1R
0X
0%
1&
0)
1*
#450000
b11110100 !
b110011 "
b11110110 !
b10 #
b11 #
b11100110 !
b1110011 "
15
17
0>
1S
19
0E
0I
0T
0P
1<
1V
0L
1X
1B
1^
08
0+
1$
1)
1%
0'
#460000
b1110001 "
b11110001 "
b11100010 !
b11111001 "
b10100010 !
b10101010 !
b10111001 "
0?
1E
0U
0:
1C
0S
1Z
0[
1\
1T
1P
0J
0F
0X
1G
0B
0)
1(
0%
0\
#470000
b10011001 "
b101010 !
b10001001 "
b111 #
b101011 !
b10001101 "
b10001111 "
b1111 "
b101111 !
b111 "
b100111 !
13
16
1?
0E
0Y
1:
1>
0C
0H
0N
0Z
1O
0T
0P
1F
1@
0<
0;
1D
1A
1L
1X
1%
1'
1P
0V
0=
0*
#480000
b111 !
b110 "
b101 #
b100110 "
b10000111 !
b110110 "
b110100 "
b10110100 "
b10000011 !
07
04
0:
1H
1N
1Z
0?
0M
1Y
0F
0D
1J
1<
1;
1B
18
0X
0G
0(
0%
1+
1)
1=
1*
#490000
b10000001 !
b10010001 !
b11110100 "
b1 #
b10010000 !
b10011000 !
b10111000 !
b11 #
b10111100 !
17
03
1S
06
09
1?
1E
1I
1M
1\
0O
1T
0P
0J
1F
0@
0A
0<
0;
1G
08
0+
1(
1P
1J
0=
0*
#500000
b11111100 !
b11111100 "
b11101100 "
b11101110 "
b11111110 !
b11101110 !
b11101111 !
b11001111 !
b1 #
07
1:
1C
0H
16
19
0I
0M
1U
1V
1O
0T
0P
1K
1D
1A
1@
0B
0)
0V
1P
1B
0R
1X
1%
0&
1)
1R
0X
0%
1&
#510000
b0 #
b11101010 "
b1101010 "
b101010 "
b100 #
b11000111 !
b10000111 !
b100010 "
b100000 "
b10010111 !
b10010110 !
b110 #
06
0E
1I
0U
0:
0>
0C
0S
0Z
05
17
13
1<
1;
1[
0\
0F
0K
0D
0A
0G
0(
1\
1=
1*
#520000
b0 "
b1000000 "
b1001000 "
b10000110 !
b10000111 !
b100 #
07
16
0I
1C
0N
1S
1V
0O
0J
1D
1A
0<
0;
0R
0L
0^
0B
0)
0$
0'
0&
0P
0=
0*
#530000
b111 !
b11 !
b1 !
b101 #
b1001100 "
b1001110 "
b1101110 "
b101110 "
b10001 !
b10000 !
1:
1>
1N
0S
15
06
09
0?
1I
0Y
0[
1J
0D
0A
1<
1;
0V
1O
1L
1B
1R
1G
1(
1&
1)
1'
1P
0\
1=
1*
#540000
b111110 "
b110000 !
b1 #
b110100 !
b111010 "
b111000 "
b100100 !
03
1?
0I
1M
0:
0>
1H
0<
0;
1V
0O
0P
1X
0=
0*
1%
0R
0&
#550000
b10111000 "
b1100100 !
b10110000 "
b11100100 !
b11100110 !
b11100111 !
b10100000 "
b11000111 !
b101 #
b10100010 "
b11010111 !
13
16
19
1I
0M
1U
1Y
1:
0C
0H
1Z
1F
0@
1<
1;
1O
1D
1A
1^
0G
1R
18
1+
1&
0(
1$
1P
1=
1*
#560000
b10100011 "
b11011111 !
b100 #
b10000011 "
b10000111 "
b10001111 "
b1011111 !
b1011101 !
b1011100 !
b10011111 "
b0 #
05
03
06
09
1E
0Y
14
1>
1C
1H
0N
0O
1T
0P
0<
1[
0D
0A
1G
0B
0^
0$
0)
1(
1\
1P
0R
0&
1R
1^
1$
1&
#570000
b1011000 !
b11111 "
b1001000 !
b10111 "
b11001000 !
b11001010 !
b11001011 !
b100 #
13
0C
0Z
16
19
0?
0I
1Y
0J
1A
1<
0^
0L
0=
0G
0X
0R
0&
0%
0(
0*
0'
0$
1=
1*
#580000
b110 #
b1010111 "
b10001011 !
b10000011 !
b111 #
b1110111 "
b1110011 "
b1100011 "
b11100011 "
b11101011 "
b11 !
b1 !
b0 !
b11 #
06
09
0E
0U
0Y
0>
1C
0H
1N
1S
1Z
15
17
03
0<
0;
0\
0V
1O
0T
0P
1J
0F
0A
08
0+
1P
0J
1\
1V
0=
0*
#590000
b11101001 "
b11101000 "
b10000 !
b10 #
b1101000 "
b10010000 !
05
1I
1Y
04
0:
0Z
1<
1J
1^
18
1L
1'
1+
1$
#600000
b10010100 !
b0 #
b101000 "
b1000 "
b11000 "
b1 #
b10011000 "
1H
0N
0S
1Z
15
07
1?
1@
0<
0[
0V
0O
1T
0P
0J
1X
1R
1G
08
0+
1(
1&
1%
0\
1P
0L
0R
0X
1B
1)
0%
0&
0'
1R
0^
0$
1&
#610000
b10110100 !
b11110100 !
b11110110 !
b11110111 !
b101 #
b10011001 "
b11110011 !
b111 #
b11011001 "
b11111001 "
b11101001 "
b1101001 "
14
0H
1N
1S
0Z
17
13
16
19
0?
1M
1U
1\
1V
1A
1<
1;
1[
0T
0P
1J
0R
1^
1L
0G
0(
1'
1$
0&
0\
1=
1*
#620000
b11111011 !
b1101101 "
b11101011 !
b1101011 !
b1001011 !
b1011 !
b1010 !
b101 #
b101101 "
b1101 "
b10001101 "
07
1>
0N
0S
1Z
06
1E
0I
0M
0U
0Y
1\
0V
0A
0L
1G
18
1+
1(
0'
#630000
b10000101 "
b10000111 "
b100 #
b1000 !
b0 #
b0 !
b10000000 !
b10100000 !
b10100001 !
b111 "
16
09
0E
1M
1Y
05
03
1:
0C
0Z
0J
1F
0@
0<
1O
0G
1L
08
0+
1'
0(
1P
0=
0B
1G
0L
0'
1(
0)
0*
1R
1&
#640000
b10111 "
b10110001 !
b11110001 !
b10 #
b110111 "
b111111 "
b111101 "
b11 #
b11110011 !
b11111011 !
b11011011 !
15
17
19
1E
1I
0M
1U
0:
1C
1H
1N
1V
1T
0P
1J
1<
1A
0R
1L
1X
18
1+
1%
1'
0&
0\
0V
1=
1*
#650000
b111001 "
b1111001 "
b111 #
b1011011 !
b11111001 "
b11101001 "
b1001011 !
b1011 !
b11100001 "
b11100011 "
0I
0U
0Y
13
1:
0>
0C
0H
1S
1Z
0T
1P
0F
1@
0<
0;
0^
0X
1B
08
0+
1)
0%
0$
0J
1\
1V
0=
0*
#660000
b1111 !
b1110 !
b11000011 "
b1100 !
b100 !
b100100 !
b11000111 "
b10000111 "
b10001111 "
1>
1C
0N
0S
06
09
1?
0E
1M
0V
1F
0@
0A
1R
0G
0B
1X
1%
0)
0(
1&
1J
#670000
b10001110 "
b10100100 !
b1110 "
b11100100 !
b11100000 !
b11100010 !
b11101010 !
b11001010 !
b1001110 "
b1000110 "
19
0?
1E
0M
1U
1Y
04
0C
1S
0Z
0\
0O
1^
0X
1G
18
1+
1(
0%
1$
0P
#680000
b101 #
b1 #
b1010110 "
b11011010 !
b1010100 "
b1110100 "
b1110000 "
b1110001 "
b10011010 !
b1111001 "
1I
0U
14
0:
0>
1C
1H
1N
07
03
1;
1\
1V
1O
1T
1P
0F
0^
0R
08
0+
0&
0$
0P
0\
0V
0G
1R
1X
1^
1=
1*
1$
1%
1&
0(
0X
0^
0R
0&
0$
0%
#690000
b0 #
b10111010 !
b111001 "
b100 #
b11001 "
b10001 "
0C
0N
0S
1M
05
13
0;
1\
1V
0J
0=
0*
#700000
b111010 !
b111110 !
b101110 !
b10011 "
b10111 "
b10110 "
b0 #
b110110 "
b111110 "
03
04
1:
1>
1C
1N
1?
0I
0Y
0[
1F
1@
0O
1^
0L
1X
1%
0'
1$
1P
0\
1B
1G
1(
1)
0^
1R
1&
0$
#710000
b10 #
b11 #
b1110 !
b1111110 "
b11110 !
b1111010 "
b1111011 "
b1011011 "
14
0>
0N
1S
1I
0M
15
17
1<
1;
1J
0@
0X
0R
1L
1'
0&
0%
1=
1*
#720000
b11111 !
b10111 !
b1001011 "
b10011 !
b1001001 "
b1000001 "
b1 #
b0 #
b1 "
b11 !
b100001 "
05
07
0:
0C
0H
1N
0S
16
0?
0E
0I
0T
0P
0J
0F
1@
1A
1O
0<
0B
1X
1R
1&
1%
0)
1P
0V
0=
1B
0G
0L
0R
0&
0'
0(
1)
0*
0X
1R
1&
0%
#730000
b10100001 "
b1 !
b100001 !
b10100101 "
b10100100 "
b100000 !
b100100 !
b10100110 "
b10101110 "
b1 #
b11101110 "
b110100 !
15
06
09
1?
1I
1M
04
1:
1>
1C
1S
1Z
1[
1\
1J
1F
0@
1<
0O
0A
1G
1=
1*
1(
1T
0J
0\
0B
0G
1L
1^
1$
1'
0(
0)
0^
0L
0'
0$
#740000
b10110100 !
b101 #
b10111100 !
b111 #
b11001110 "
b10011100 !
b11001100 "
b110 #
b10001100 !
0:
0N
05
17
13
1E
0I
0M
1Y
0[
1\
1V
0T
0P
1J
0<
0;
0R
1X
1%
0&
0\
0=
0*
#750000
b11001100 !
b11011100 "
b1011100 "
b1011101 "
b1010101 "
b1001100 !
b10 #
b0 #
b1110101 "
b1 #
15
07
03
14
0C
1H
1N
0Z
1U
0Y
1\
0V
1O
1T
1P
0J
1<
1L
1'
1V
0P
0L
1R
0X
1^
1$
0%
1&
0'
0R
1X
1%
0&
#760000
b1001110 !
b1001111 !
b110101 "
b110100 "
b11001111 !
b101 #
b100 #
05
13
04
0S
16
19
1Y
1[
1K
1D
1A
0<
0V
0^
1=
0X
1B
1)
0%
1*
0$
0\
0=
0*
#770000
b110000 "
b11001011 !
b11011011 !
b100000 "
b0 "
b1 "
b1011011 !
b101 #
15
0?
1I
0Y
14
0>
0H
0N
1\
1V
0O
0F
1@
1<
0[
0K
0D
1;
1L
0B
18
1X
1G
1(
1%
1+
0)
1'
0\
0T
1J
1=
1*
#780000
b11011 !
b1001 "
b11001 !
b1001001 "
b1 #
b1101001 "
b10011001 !
03
1C
1N
1S
09
0U
1Y
1[
0A
0@
0;
1O
1T
1P
0J
0G
1B
08
0+
1)
0(
0V
0P
0L
1R
0B
0)
1&
0'
0R
0X
0%
0&
#790000
b10010001 !
b11 #
b1101101 "
b11010001 !
b1100101 "
b111 #
b1000101 "
1>
0C
0N
17
13
0E
1U
0T
1P
1J
1;
0O
1@
1G
1^
1R
1L
1'
1&
1$
1(
0P
#800000
b11110001 !
b1000111 "
b11000111 "
b110 #
b11110011 !
b10000111 "
b100 #
b10000011 "
b10110011 !
b0 #
05
07
03
1:
0>
0S
1Z
19
1M
0U
1\
1O
1A
0;
0[
0R
0^
1B
0G
0(
1)
0$
0&
0\
1P
1^
1$
1R
0^
0$
1&
#810000
b10110111 !
b10010011 "
b10010010 "
b110111 !
b111111 !
b10110010 "
b111101 !
b11110010 "
b11110110 "
b1111101 !
04
1>
1H
1N
1S
09
1?
1E
1U
0Y
1[
1\
1V
1T
0P
0J
1F
0@
0A
1;
0O
1G
18
1+
1(
1P
1J
0\
0B
0G
0L
0R
1X
1^
1$
1%
0&
0'
0(
0)
0^
1L
1R
1&
1'
0$
#820000
b1101101 !
b11111110 "
b11111100 "
b1 #
b101 #
b11111101 "
b11101101 !
b11011101 "
b11101111 !
b11011001 "
15
13
14
0:
0>
1C
0N
19
0I
1Y
0[
0J
1K
1D
1A
1O
1^
1G
1B
1)
1(
1$
0P
1\
#830000
b11101110 !
b11001001 "
b11111110 !
b11000001 "
b11000011 "
b100 #
b0 #
b11000010 "
b1111110 !
b1111100 !
05
03
04
1:
0C
0H
06
09
1I
0Y
1[
0K
0F
0D
0A
1@
0L
08
0G
0R
0B
0)
0&
0(
0+
0'
0T
1P
1J
0\
1B
1G
1(
1)
0V
0^
1L
1R
1&
1'
0$
0X
0%
#840000
b10 #
b11010010 "
b11011010 "
b11011000 "
b110 #
b11011001 "
14
0:
1C
1H
17
13
0<
0;
1T
0P
1^
0L
0G
18
1+
0(
0'
1$
1V
0=
0*
#850000
b1111000 !
b111000 !
b11111001 "
b11111101 "
b111001 !
b111 #
b10111001 !
b101 #
b11101101 "
15
07
1>
0H
1N
16
0?
0U
1Y
0[
0V
0O
0J
1X
1L
1G
1(
1'
1%
1P
1\
#860000
b10011001 !
b1101101 "
b10010001 !
b101101 "
b10000001 !
b10000011 !
b100101 "
b1 #
b10000111 !
b11000111 !
b101 "
b1 "
b11000110 !
b0 #
05
03
0>
0C
0N
0S
0Z
06
19
1?
0E
0I
0M
1U
0\
1V
0T
0P
1;
1[
0X
0L
0G
0(
0'
0%
1\
1=
0R
1X
0^
0$
1%
0&
1*
1^
1$
#870000
b11 "
b10 #
b11001110 !
b1000011 "
b1001011 "
b1101011 "
b1101111 "
1E
17
1:
1>
1C
1N
1S
0\
0V
1O
1J
1F
1G
1(
1P
#880000
b1111111 "
b11101110 !
b11111111 "
b11111110 !
b10111110 !
b11111101 "
b0 #
b10111101 "
b10111001 "
07
1I
1M
0U
0:
0>
1H
0S
1Z
0[
1\
1V
1T
0P
0F
0O
0^
0X
1L
1R
1&
1'
0%
0$
1P
0\
0G
0R
1X
1^
1$
1%
0&
0(
0^
1R
1&
0$
#890000
b111110 !
b111100 !
b111101 !
b10011001 "
b11001 "
b1111101 !
b10 #
17
0N
0Z
16
09
1U
0Y
1\
0V
1<
0;
1O
0=
08
1G
1(
0+
0*
0P
1=
1*
#900000
b11000 "
b110 #
b1110101 !
b10000 "
b10010 "
b10110 "
b11110101 !
b11110111 !
b11110110 !
b100 #
06
19
0E
1Y
07
13
04
1:
1>
0C
0J
1F
1;
1[
0G
0X
0R
0=
0*
0&
0%
0(
0\
1=
1*
#910000
b11100110 !
b1010110 "
b1010111 "
b11101110 !
b1010101 "
b1101110 !
b1101111 !
b110 #
17
14
0:
1S
16
1E
0I
0Y
0[
1K
1D
1A
1V
1G
1R
0B
0)
1&
1(
1\
#920000
b1101011 !
b111 #
b11 #
b1011101 "
b1111011 !
b1011111 "
b1111010 !
b1 #
1:
1C
15
07
03
06
0?
1I
1J
0K
0D
0@
0A
0;
0L
1B
1^
1X
0R
0&
1%
1$
1)
0'
0=
0B
1L
1'
0)
0*
#930000
b1001111 "
b1011010 !
b11010 !
b11000 !
b1111 "
b1110 "
b10011000 !
b110 "
b100 "
b11 #
17
09
0M
0U
1Y
04
0:
0C
0H
0S
0\
0V
0J
0F
1@
0<
1[
0O
0X
0%
1\
0T
1J
#940000
b0 "
b10011100 !
b10011101 !
b10000 "
b11011101 !
b1010000 "
b1011101 !
b1011000 "
b1011010 "
b1 #
07
16
1?
1U
0Y
1:
0>
1C
1H
1S
0\
1T
1P
1<
1;
0[
0G
1B
1)
0(
1\
1=
1R
0^
0$
1&
1*
1^
1$
#950000
b11011010 "
b1010101 !
b101 #
b1000101 !
b1000111 !
b11011110 "
b1000011 !
b1000010 !
b11001110 "
b10 !
b10000010 !
b11000110 "
13
06
19
0?
0E
0I
0U
1Y
1>
0C
0H
1Z
0T
0P
0J
1F
0@
0\
1V
0L
1X
0R
0&
1%
0'
