exercicios/aula_8/maquina_autoatendimento/simulation/qsim/maquina_autoatendimento.msim.vcd
$comment
	File created using the following command:
		vcd file maquina_autoatendimento.msim.vcd -direction
$end
$date
	Wed Aug 28 12:28:15 2019
$end
$version
	ModelSim Version 10.5b
$end
$timescale
	1ps
$end

$scope module maquina_autoatendimento_vhd_vec_tst $end
$var wire 1 ! o [7] $end
$var wire 1 " o [6] $end
$var wire 1 # o [5] $end
$var wire 1 $ o [4] $end
$var wire 1 % o [3] $end
$var wire 1 & o [2] $end
$var wire 1 ' o [1] $end
$var wire 1 ( o [0] $end
$var wire 1 ) s [2] $end
$var wire 1 * s [1] $end
$var wire 1 + s [0] $end

$scope module i1 $end
$var wire 1 , gnd $end
$var wire 1 - vcc $end
$var wire 1 . unknown $end
$var wire 1 / devoe $end
$var wire 1 0 devclrn $end
$var wire 1 1 devpor $end
$var wire 1 2 ww_devoe $end
$var wire 1 3 ww_devclrn $end
$var wire 1 4 ww_devpor $end
$var wire 1 5 ww_s [2] $end
$var wire 1 6 ww_s [1] $end
$var wire 1 7 ww_s [0] $end
$var wire 1 8 ww_o [7] $end
$var wire 1 9 ww_o [6] $end
$var wire 1 : ww_o [5] $end
$var wire 1 ; ww_o [4] $end
$var wire 1 < ww_o [3] $end
$var wire 1 = ww_o [2] $end
$var wire 1 > ww_o [1] $end
$var wire 1 ? ww_o [0] $end
$var wire 1 @ \~QUARTUS_CREATED_GND~I_combout\ $end
$var wire 1 A \s[0]~input_o\ $end
$var wire 1 B \s[1]~input_o\ $end
$var wire 1 C \s[2]~input_o\ $end
$var wire 1 D \Mux0~0_combout\ $end
$var wire 1 E \ALT_INV_s[2]~input_o\ $end
$var wire 1 F \ALT_INV_s[1]~input_o\ $end
$var wire 1 G \ALT_INV_s[0]~input_o\ $end
$upscope $end
$upscope $end
$enddefinitions $end
#0
$dumpvars
0,
1-
x.
1/
10
11
12
13
14
x@
1A
1B
1C
0D
0E
0F
0G
1)
1*
1+
15
16
17
08
19
0:
0;
0<
1=
1>
1?
0!
1"
0#
0$
0%
1&
1'
1(
$end
#100000
0)
05
0C
1E
0=
0&
#160000
1)
0+
07
15
1C
0A
1G
0E
0?
1=
0(
1&
#210000
1+
0*
17
06
0B
1A
0G
1F
1?
0>
1(
0'
#280000
0+
0)
07
05
0C
0A
1G
1E
1D
0?
0=
0(
0&
1<
1%
#340000
1*
16
1B
0F
0D
1>
1'
0<
0%
#410000
0*
1)
06
15
1C
0B
1F
0E
0>
1=
0'
1&
#540000
0)
1+
17
05
0C
1A
0G
1E
1?
0=
1(
0&
#680000
0+
07
0A
1G
1D
0?
0(
1<
1%
