exercicios/aula_20/latchrs/simulation/qsim/latchrs.msim.vcd
$comment
	File created using the following command:
		vcd file latchrs.msim.vcd -direction
$end
$date
	Wed Oct  2 14:13:58 2019
$end
$version
	ModelSim Version 10.5b
$end
$timescale
	1ps
$end

$scope module latchrs_vhd_vec_tst $end
$var wire 1 ! q $end
$var wire 1 " qbar $end
$var wire 1 # r $end
$var wire 1 $ s $end

$scope module i1 $end
$var wire 1 % gnd $end
$var wire 1 & vcc $end
$var wire 1 ' unknown $end
$var wire 1 ( devoe $end
$var wire 1 ) devclrn $end
$var wire 1 * devpor $end
$var wire 1 + ww_devoe $end
$var wire 1 , ww_devclrn $end
$var wire 1 - ww_devpor $end
$var wire 1 . ww_r $end
$var wire 1 / ww_s $end
$var wire 1 0 \q~input_o\ $end
$var wire 1 1 \qbar~input_o\ $end
$var wire 1 2 \~QUARTUS_CREATED_GND~I_combout\ $end
$var wire 1 3 \s~input_o\ $end
$var wire 1 4 \r~input_o\ $end
$var wire 1 5 \q~3_combout\ $end
$var wire 1 6 \qbar~2_combout\ $end
$var wire 1 7 \ALT_INV_r~input_o\ $end
$var wire 1 8 \ALT_INV_s~input_o\ $end
$var wire 1 9 \ALT_INV_q~3_combout\ $end
$upscope $end
$upscope $end
$enddefinitions $end
#0
$dumpvars
x!
x"
0#
0$
0%
1&
x'
1(
1)
1*
1+
1,
1-
0.
0/
x0
x1
x2
03
04
x5
x6
17
18
x9
$end
#5000
1#
1$
1.
1/
13
14
07
08
06
05
19
#15000
0!
0"
0#
0.
01
00
04
17
15
09
x!
x0
#20000
0$
0/
03
18
#25000
1$
1/
13
08
#30000
0$
0/
03
18
#35000
1!
x"
1#
1.
x1
10
14
07
05
19
16
x!
1"
x0
11
#40000
0!
x"
0#
0.
x1
00
04
17
#45000
1$
1/
13
08
15
06
09
0"
x!
x0
01
#50000
0$
1!
x"
1#
0/
1.
x1
10
14
03
18
07
05
19
16
x!
1"
x0
11
#55000
0!
x"
0#
0.
x1
00
04
17
#70000
1$
1/
13
08
15
06
09
0"
x!
x0
01
#80000
1!
x"
1#
1.
x1
10
14
07
05
19
x!
x0
#85000
0$
0/
03
18
16
1"
11
#90000
0!
x"
0#
0.
x1
00
04
17
#95000
x!
1"
1#
1.
11
x0
14
07
#105000
0!
x"
0#
1$
0.
1/
x1
00
13
04
17
08
06
15
09
x!
0"
01
x0
#110000
1!
x"
1#
1.
x1
10
14
07
05
19
x!
x0
#115000
0!
0"
0#
0$
0.
0/
01
00
03
04
17
18
16
x"
x1
#125000
x!
1"
1#
1.
11
x0
14
07
#130000
0!
x"
0#
1$
0.
1/
x1
00
13
04
17
08
06
15
09
x!
0"
01
x0
#135000
1!
x"
1#
0$
1.
0/
x1
10
03
14
07
18
05
19
16
x!
1"
x0
11
#140000
1$
1/
13
08
06
x"
x1
#145000
0!
0"
0#
0.
01
00
04
17
15
09
x!
x0
#155000
1!
x"
1#
1.
x1
10
14
07
05
19
x!
x0
#160000
0$
0/
03
18
16
1"
11
#175000
1$
1/
13
08
06
x"
x1
#180000
0!
0"
0#
0.
01
00
04
17
15
09
x!
x0
#185000
1!
x"
1#
1.
x1
10
14
07
05
19
x!
x0
#195000
0!
0"
0#
0.
01
00
04
17
15
09
x!
x0
#200000
1!
x"
1#
0$
1.
0/
x1
10
03
14
07
18
05
19
16
x!
1"
x0
11
#205000
0!
x"
0#
1$
0.
1/
x1
00
13
04
17
08
06
15
09
x!
0"
01
x0
#210000
1!
x"
1#
1.
x1
10
14
07
05
19
x!
x0
#215000
0!
0"
0#
0.
01
00
04
17
15
09
x!
x0
#220000
0$
0/
03
18
#230000
1!
x"
1#
1.
x1
10
14
07
05
19
16
x!
1"
x0
11
#235000
0!
x"
0#
1$
0.
1/
x1
00
13
04
17
08
06
15
09
x!
0"
01
x0
#240000
0$
0/
03
18
#250000
1!
x"
1#
1.
x1
10
14
07
05
19
16
x!
1"
x0
11
#255000
0!
x"
0#
1$
0.
1/
x1
00
13
04
17
08
06
15
09
x!
0"
01
x0
#260000
1!
x"
1#
0$
1.
0/
x1
10
03
14
07
18
05
19
16
x!
1"
x0
11
#265000
0!
x"
0#
1$
0.
1/
x1
00
13
04
17
08
06
15
09
x!
0"
01
x0
#270000
0$
0/
03
18
#280000
1!
x"
1#
1.
x1
10
14
07
05
19
16
x!
1"
x0
11
#285000
0!
x"
0#
0.
x1
00
04
17
#290000
x!
1"
1#
1$
1.
1/
11
x0
13
14
07
08
06
x"
x1
#295000
0!
0"
0#
0$
0.
0/
01
00
03
04
17
18
16
x"
x1
#300000
1$
1/
13
08
15
06
09
0"
x!
x0
01
#305000
0$
1!
x"
1#
0/
1.
x1
10
14
03
18
07
05
19
16
x!
1"
x0
11
#310000
1$
0!
x"
0#
1/
0.
x1
00
04
13
08
17
15
06
09
0"
x!
x0
01
#315000
0$
0/
03
18
#320000
1!
x"
1#
1.
x1
10
14
07
05
19
16
x!
1"
x0
11
#325000
0!
x"
0#
0.
x1
00
04
17
#330000
x!
1"
1#
1.
11
x0
14
07
#335000
0!
x"
0#
1$
0.
1/
x1
00
13
04
17
08
06
15
09
x!
0"
01
x0
#340000
1!
x"
1#
1.
x1
10
14
07
05
19
x!
x0
#345000
0!
0"
0#
0.
01
00
04
17
15
09
x!
x0
#350000
0$
0/
03
18
#355000
1$
1!
x"
1#
1/
1.
x1
10
14
13
08
07
05
19
x!
x0
#360000
0$
0!
0"
0#
0/
0.
01
00
04
03
18
17
16
x"
x1
#365000
1$
1/
13
08
15
06
09
0"
x!
x0
01
#370000
0$
0/
03
18
#375000
1!
x"
1#
1.
x1
10
14
07
05
19
16
x!
1"
x0
11
#380000
0!
x"
0#
1$
0.
1/
x1
00
13
04
17
08
06
15
09
x!
0"
01
x0
#395000
0$
0/
03
18
#400000
1!
x"
1#
1.
x1
10
14
07
05
19
16
x!
1"
x0
11
#410000
0!
x"
0#
0.
x1
00
04
17
#415000
1$
1/
13
08
15
06
09
0"
x!
x0
01
#425000
1!
x"
1#
1.
x1
10
14
07
05
19
x!
x0
#430000
0!
0"
0#
0$
0.
0/
01
00
03
04
17
18
16
x"
x1
#440000
x!
1"
1#
1$
1.
1/
11
x0
13
14
07
08
06
x"
x1
#450000
0!
0"
0#
0.
01
00
04
17
15
09
x!
x0
#455000
1!
x"
1#
0$
1.
0/
x1
10
03
14
07
18
05
19
16
x!
1"
x0
11
#460000
1$
1/
13
08
06
x"
x1
#470000
0$
0!
0"
0#
0/
0.
01
00
04
03
18
17
16
x"
x1
#475000
1$
x!
1"
1#
1/
1.
11
x0
14
13
08
07
06
x"
x1
#480000
0!
0"
0#
0.
01
00
04
17
15
09
x!
x0
#485000
1!
x"
1#
1.
x1
10
14
07
05
19
x!
x0
#490000
0$
0/
03
18
16
1"
11
#500000
0!
x"
0#
0.
x1
00
04
17
#505000
x!
1"
1#
1$
1.
1/
11
x0
13
14
07
08
06
x"
x1
#510000
0$
0/
03
18
16
1"
11
#515000
0!
x"
0#
0.
x1
00
04
17
#525000
x!
1"
1#
1.
11
x0
14
07
#530000
0!
x"
0#
0.
x1
00
04
17
#535000
1$
1/
13
08
15
06
09
0"
x!
x0
01
#540000
0$
0/
03
18
#545000
1$
1/
13
08
#550000
1!
x"
1#
1.
x1
10
14
07
05
19
x!
x0
#555000
0$
0/
03
18
16
1"
11
#565000
0!
x"
0#
0.
x1
00
04
17
#570000
x!
1"
1#
1.
11
x0
14
07
#575000
1$
1/
13
08
06
x"
x1
#580000
0!
0"
0#
0.
01
00
04
17
15
09
x!
x0
#585000
1!
x"
1#
0$
1.
0/
x1
10
03
14
07
18
05
19
16
x!
1"
x0
11
#605000
1$
1/
13
08
06
x"
x1
#610000
0$
0/
03
18
16
1"
11
#625000
1$
0!
x"
0#
1/
0.
x1
00
04
13
08
17
15
06
09
0"
x!
x0
01
#635000
0$
1!
x"
1#
0/
1.
x1
10
14
03
18
07
05
19
16
x!
1"
x0
11
#640000
1$
1/
13
08
06
x"
x1
#645000
0!
0"
0#
0.
01
00
04
17
15
09
x!
x0
#655000
1!
x"
1#
0$
1.
0/
x1
10
03
14
07
18
05
19
16
x!
1"
x0
11
#660000
0!
x"
0#
0.
x1
00
04
17
#665000
x!
1"
1#
1.
11
x0
14
07
#670000
1$
1/
13
08
06
x"
x1
#685000
0!
0"
0#
0.
01
00
04
17
15
09
x!
x0
#690000
0$
0/
03
18
#695000
1!
x"
1#
1.
x1
10
14
07
05
19
16
x!
1"
x0
11
#705000
1$
1/
13
08
06
x"
x1
#710000
0!
0"
0#
0.
01
00
04
17
15
09
x!
x0
#715000
1!
x"
1#
1.
x1
10
14
07
05
19
x!
x0
#720000
0!
0"
0#
0$
0.
0/
01
00
03
04
17
18
16
x"
x1
#725000
x!
1"
1#
1$
1.
1/
11
x0
13
14
07
08
06
x"
x1
#735000
0!
0"
0#
0$
0.
0/
01
00
03
04
17
18
16
x"
x1
#740000
x!
1"
1#
1$
1.
1/
11
x0
13
14
07
08
06
x"
x1
#750000
0!
0"
0#
0.
01
00
04
17
15
09
x!
x0
#755000
0$
0/
03
18
#760000
1$
1/
13
08
#765000
0$
0/
03
18
#770000
1$
1!
x"
1#
1/
1.
x1
10
14
13
08
07
05
19
x!
x0
#775000
0$
0!
0"
0#
0/
0.
01
00
04
03
18
17
16
x"
x1
#780000
x!
1"
1#
1.
11
x0
14
07
#790000
0!
x"
0#
0.
x1
00
04
17
#805000
1$
1/
13
08
15
06
09
0"
x!
x0
01
#810000
0$
0/
03
18
#815000
1$
1/
13
08
#820000
0$
0/
03
18
#825000
1$
1!
x"
1#
1/
1.
x1
10
14
13
08
07
05
19
x!
x0
#830000
0$
0!
0"
0#
0/
0.
01
00
04
03
18
17
16
x"
x1
#835000
1$
x!
1"
1#
1/
1.
11
x0
14
13
08
07
06
x"
x1
#840000
0!
0"
0#
0.
01
00
04
17
15
09
x!
x0
#845000
1!
x"
1#
0$
1.
0/
x1
10
03
14
07
18
05
19
16
x!
1"
x0
11
#850000
0!
x"
0#
0.
x1
00
04
17
#855000
1$
1/
13
08
15
06
09
0"
x!
x0
01
#860000
1!
x"
1#
1.
x1
10
14
07
05
19
x!
x0
#865000
0!
0"
0#
0.
01
00
04
17
15
09
x!
x0
#870000
1!
x"
1#
0$
1.
0/
x1
10
03
14
07
18
05
19
16
x!
1"
x0
11
#875000
0!
x"
0#
1$
0.
1/
x1
00
13
04
17
08
06
15
09
x!
0"
01
x0
#885000
1!
x"
1#
1.
x1
10
14
07
05
19
x!
x0
#890000
0$
0/
03
18
16
1"
11
#895000
0!
x"
0#
0.
x1
00
04
17
#900000
x!
1"
1#
1$
1.
1/
11
x0
13
14
07
08
06
x"
x1
#905000
0!
0"
0#
0$
0.
0/
01
00
03
04
17
18
16
x"
x1
#910000
x!
1"
1#
1.
11
x0
14
07
#915000
0!
x"
0#
1$
0.
1/
x1
00
13
04
17
08
06
15
09
x!
0"
01
x0
#920000
1!
x"
1#
1.
x1
10
14
07
05
19
x!
x0
#925000
0!
0"
0#
0.
01
00
04
17
15
09
x!
x0
#930000
0$
0/
03
18
#940000
1$
1!
x"
1#
1/
1.
x1
10
14
13
08
07
05
19
x!
x0
#945000
0$
0/
03
18
16
1"
11
#950000
0!
x"
0#
0.
x1
00
04
17
#960000
x!
1"
1#
1$
1.
1/
11
x0
13
14
07
08
06
x"
x1
#975000
0$
0/
03
18
16
1"
11
#980000
0!
x"
0#
0.
x1
00
04
17
#985000
x!
1"
1#
1.
11
x0
14
07
#990000
1$
1/
13
08
06
x"
x1
#995000
0!
0"
0#
0.
01
00
04
17
15
09
x!
x0
