exercicios/aula_26/exercicio1/simulation/qsim/exercicio1.msim.vcd
$comment
	File created using the following command:
		vcd file exercicio1.msim.vcd -direction
$end
$date
	Wed Oct 30 23:18:18 2019
$end
$version
	ModelSim Version 10.5b
$end
$timescale
	1ps
$end

$scope module exercicio1_vhd_vec_tst $end
$var wire 1 ! bt $end
$var wire 1 " clk $end
$var wire 1 # l1 $end
$var wire 1 $ l2 $end
$var wire 1 % l3 $end
$var wire 1 & x $end

$scope module i1 $end
$var wire 1 ' gnd $end
$var wire 1 ( vcc $end
$var wire 1 ) unknown $end
$var wire 1 * devoe $end
$var wire 1 + devclrn $end
$var wire 1 , devpor $end
$var wire 1 - ww_devoe $end
$var wire 1 . ww_devclrn $end
$var wire 1 / ww_devpor $end
$var wire 1 0 ww_clk $end
$var wire 1 1 ww_bt $end
$var wire 1 2 ww_x $end
$var wire 1 3 ww_l1 $end
$var wire 1 4 ww_l2 $end
$var wire 1 5 ww_l3 $end
$var wire 1 6 \~QUARTUS_CREATED_GND~I_combout\ $end
$var wire 1 7 \clk~input_o\ $end
$var wire 1 8 \clk~inputCLKENA0_outclk\ $end
$var wire 1 9 \bt~input_o\ $end
$var wire 1 : \y[0]~feeder_combout\ $end
$var wire 1 ; \Mux2~0_combout\ $end
$var wire 1 < \y[1]~feeder_combout\ $end
$var wire 1 = \Mux1~0_combout\ $end
$var wire 1 > \y[2]~feeder_combout\ $end
$var wire 1 ? \Mux0~0_combout\ $end
$var wire 1 @ \x~reg0_q\ $end
$var wire 1 A \l1~reg0_q\ $end
$var wire 1 B \l2~reg0_q\ $end
$var wire 1 C \l3~reg0_q\ $end
$var wire 1 D y [3] $end
$var wire 1 E y [2] $end
$var wire 1 F y [1] $end
$var wire 1 G y [0] $end
$var wire 1 H \ALT_INV_bt~input_o\ $end
$var wire 1 I \ALT_INV_Mux2~0_combout\ $end
$var wire 1 J \ALT_INV_Mux1~0_combout\ $end
$var wire 1 K \ALT_INV_Mux0~0_combout\ $end
$var wire 1 L ALT_INV_y [2] $end
$var wire 1 M ALT_INV_y [1] $end
$var wire 1 N ALT_INV_y [0] $end
$upscope $end
$upscope $end
$enddefinitions $end
#0
$dumpvars
0!
0"
0#
0$
0%
0&
0'
1(
x)
1*
1+
1,
1-
1.
1/
00
01
02
03
04
05
x6
07
08
09
0:
0;
0<
0=
0>
0?
0@
0A
0B
0C
1H
1I
1J
1K
xD
0E
0F
0G
1L
1M
1N
$end
#20000
1!
11
19
0H
1=
0J
1>
#25000
1"
10
17
18
1E
1A
0L
1;
0=
1J
0I
13
1<
0>
1#
#50000
0"
00
07
08
#60000
0!
01
09
1H
0;
1=
0J
1I
0<
1>
#75000
1"
10
17
18
#100000
0"
00
07
08
#120000
1!
11
19
0H
1;
0=
1J
0I
1<
0>
#125000
1"
10
17
18
1F
0E
0A
1B
1L
0M
0;
1?
0K
1I
14
03
0<
1:
1$
0#
#150000
0"
00
07
08
#160000
0!
01
09
1H
1;
0?
1K
0I
1<
0:
#175000
1"
10
17
18
#200000
0"
00
07
08
#220000
1!
11
19
0H
0;
1?
0K
1I
0<
1:
#225000
1"
10
17
18
1G
0F
1@
0B
1C
1M
0N
0?
1K
15
04
12
0:
1%
0$
1&
#250000
0"
00
07
08
#260000
0!
01
09
1H
#275000
1"
10
17
18
0G
0@
0C
1N
05
02
0%
0&
#300000
0"
00
07
08
#320000
1!
11
19
0H
1=
0J
1>
#325000
1"
10
17
18
1E
1A
0L
1;
0=
1J
0I
13
1<
0>
1#
#350000
0"
00
07
08
#360000
0!
01
09
1H
0;
1=
0J
1I
0<
1>
#375000
1"
10
17
18
#400000
0"
00
07
08
#420000
1!
11
19
0H
1;
0=
1J
0I
1<
0>
#425000
1"
10
17
18
1F
0E
0A
1B
1L
0M
0;
1?
0K
1I
14
03
0<
1:
1$
0#
#450000
0"
00
07
08
#460000
0!
01
09
1H
1;
0?
1K
0I
1<
0:
#475000
1"
10
17
18
#500000
0"
00
07
08
#525000
1"
10
17
18
#550000
0"
00
07
08
#575000
1"
10
17
18
#600000
0"
00
07
08
#625000
1"
10
17
18
#650000
0"
00
07
08
#675000
1"
10
17
18
#700000
0"
00
07
08
#725000
1"
10
17
18
#750000
0"
00
07
08
#775000
1"
10
17
18
#800000
0"
00
07
08
#825000
1"
10
17
18
#850000
0"
00
07
08
#875000
1"
10
17
18
#900000
0"
00
07
08
#925000
1"
10
17
18
#950000
0"
00
07
08
#975000
1"
10
17
18
