exercicios/aula_28/exercicio1/simulation/qsim/exercicio1.msim.vcd
$comment
	File created using the following command:
		vcd file exercicio1.msim.vcd -direction
$end
$date
	Mon Nov  4 22:06:24 2019
$end
$version
	ModelSim Version 10.5b
$end
$timescale
	1ps
$end

$scope module exercicio1_vhd_vec_tst $end
$var wire 1 ! a [7] $end
$var wire 1 " a [6] $end
$var wire 1 # a [5] $end
$var wire 1 $ a [4] $end
$var wire 1 % a [3] $end
$var wire 1 & a [2] $end
$var wire 1 ' a [1] $end
$var wire 1 ( a [0] $end
$var wire 1 ) c $end
$var wire 1 * clk $end
$var wire 1 + d $end
$var wire 1 , s [7] $end
$var wire 1 - s [6] $end
$var wire 1 . s [5] $end
$var wire 1 / s [4] $end
$var wire 1 0 s [3] $end
$var wire 1 1 s [2] $end
$var wire 1 2 s [1] $end
$var wire 1 3 s [0] $end

$scope module i1 $end
$var wire 1 4 gnd $end
$var wire 1 5 vcc $end
$var wire 1 6 unknown $end
$var wire 1 7 devoe $end
$var wire 1 8 devclrn $end
$var wire 1 9 devpor $end
$var wire 1 : ww_devoe $end
$var wire 1 ; ww_devclrn $end
$var wire 1 < ww_devpor $end
$var wire 1 = ww_clk $end
$var wire 1 > ww_c $end
$var wire 1 ? ww_s [7] $end
$var wire 1 @ ww_s [6] $end
$var wire 1 A ww_s [5] $end
$var wire 1 B ww_s [4] $end
$var wire 1 C ww_s [3] $end
$var wire 1 D ww_s [2] $end
$var wire 1 E ww_s [1] $end
$var wire 1 F ww_s [0] $end
$var wire 1 G ww_a [7] $end
$var wire 1 H ww_a [6] $end
$var wire 1 I ww_a [5] $end
$var wire 1 J ww_a [4] $end
$var wire 1 K ww_a [3] $end
$var wire 1 L ww_a [2] $end
$var wire 1 M ww_a [1] $end
$var wire 1 N ww_a [0] $end
$var wire 1 O ww_d $end
$var wire 1 P \s[0]~input_o\ $end
$var wire 1 Q \s[1]~input_o\ $end
$var wire 1 R \s[2]~input_o\ $end
$var wire 1 S \s[3]~input_o\ $end
$var wire 1 T \s[4]~input_o\ $end
$var wire 1 U \s[5]~input_o\ $end
$var wire 1 V \s[6]~input_o\ $end
$var wire 1 W \s[7]~input_o\ $end
$var wire 1 X \a[0]~input_o\ $end
$var wire 1 Y \a[1]~input_o\ $end
$var wire 1 Z \a[2]~input_o\ $end
$var wire 1 [ \a[3]~input_o\ $end
$var wire 1 \ \a[4]~input_o\ $end
$var wire 1 ] \a[5]~input_o\ $end
$var wire 1 ^ \a[6]~input_o\ $end
$var wire 1 _ \a[7]~input_o\ $end
$var wire 1 ` \~QUARTUS_CREATED_GND~I_combout\ $end
$var wire 1 a \clk~input_o\ $end
$var wire 1 b \clk~inputCLKENA0_outclk\ $end
$var wire 1 c \c~input_o\ $end
$var wire 1 d \i2|Mux0~0_combout\ $end
$var wire 1 e \i2|Mux1~0_combout\ $end
$var wire 1 f \i2|d~0_combout\ $end
$var wire 1 g \i2|y\ [1] $end
$var wire 1 h \i2|y\ [0] $end
$var wire 1 i \ALT_INV_c~input_o\ $end
$var wire 1 j \i2|ALT_INV_y\ [1] $end
$var wire 1 k \i2|ALT_INV_y\ [0] $end
$upscope $end
$upscope $end
$enddefinitions $end
#0
$dumpvars
0)
0*
0+
04
15
x6
17
18
19
1:
1;
1<
0=
0>
0O
1P
1Q
1R
0S
1T
0U
1V
1W
0X
0Y
0Z
0[
1\
0]
1^
1_
x`
0a
0b
0c
0d
1e
0f
1i
1!
1"
0#
1$
0%
0&
0'
0(
1,
1-
0.
1/
00
11
12
13
1?
1@
0A
1B
0C
1D
1E
1F
1G
1H
0I
1J
0K
0L
0M
0N
0g
0h
1j
1k
$end
#5000
1#
0$
1&
1'
1)
0,
0-
1.
10
02
03
1M
1L
0J
1I
1>
0F
0E
1C
1A
0@
0?
0W
0V
1U
1S
0Q
0P
1c
1]
0\
1Z
1Y
0i
#10000
0&
1-
13
0!
0"
0/
01
0L
0H
0G
1F
0D
0B
1@
1V
0T
0R
1P
0_
0^
0Z
#15000
1&
0-
03
1!
11
0#
1$
1,
0.
00
12
1%
1L
1K
1J
0I
1G
0F
1E
1D
0C
0A
0@
1?
1W
0V
0U
0S
1R
1Q
0P
1_
0]
1\
1[
1Z
#20000
0&
1-
13
0!
1#
1.
10
0)
1(
1N
0L
1I
0G
1F
1C
1A
1@
0>
0c
1V
1U
1S
1P
0_
1]
0Z
1X
1i
#25000
1&
03
0#
0.
00
01
0$
0,
02
0%
1L
0K
0J
0I
0F
0E
0D
0C
0A
0?
0W
0U
0S
0R
0Q
0P
0]
0\
0[
1Z
#30000
1#
1.
1$
1,
1%
0-
1/
1K
1J
1I
1B
1A
0@
1?
1W
0V
1U
1T
1]
1\
1[
#35000
0#
0&
13
10
12
1!
1)
0(
1"
0'
0N
0M
0L
0I
1H
1G
1F
1E
1C
1>
1c
1S
1Q
1P
1_
1^
0]
0Z
0Y
0X
0i
#37500
1*
1=
1a
1b
1h
0k
1d
0e
#40000
1#
1&
03
00
0"
1'
0$
0/
11
1M
1L
0J
1I
0H
0F
1D
0C
0B
0T
0S
1R
0P
0^
1]
0\
1Z
1Y
#45000
0&
13
10
0'
1/
1(
0.
0,
1-
1N
0M
0L
1F
1C
1B
0A
1@
0?
0W
1V
0U
1T
1S
1P
0Z
0Y
1X
#50000
03
1'
1.
1,
0-
01
0)
0%
0F
0D
1A
0@
1?
1M
0K
0>
0c
0[
1Y
1W
0V
1U
0R
0P
1i
0d
1e
#55000
13
0,
1-
11
1%
1$
02
0!
1F
0E
1D
1@
0?
1K
1J
0G
0_
1\
1[
0W
1V
1R
0Q
1P
#60000
03
1,
01
0%
12
1!
0'
0.
1&
00
0/
1"
0F
1E
0D
0C
0B
0A
1?
0M
1L
0K
1H
1G
1_
1^
0[
1Z
0Y
1W
0U
0T
0S
0R
1Q
0P
#65000
0,
1%
02
0!
1'
1.
10
0-
0(
0#
0E
1C
1A
0@
0?
0N
1M
1K
0I
0G
0_
0]
1[
1Y
0X
0W
0V
1U
1S
0Q
#70000
1,
0%
12
0'
00
1-
1(
1#
11
0"
0$
1E
1D
0C
1@
1?
1N
0M
0K
0J
1I
0H
0^
1]
0\
0[
0Y
1X
1W
1V
0S
1R
1Q
#75000
1%
0(
01
1!
0.
13
0&
1/
1)
0*
0N
0L
1K
1G
1F
0D
1B
0A
1>
0=
0a
1c
0U
1T
0R
1P
1_
1[
0Z
0X
0b
0i
1d
0e
#80000
1(
0!
1.
1&
0)
02
1'
0-
1N
1M
1L
0G
0E
1A
0@
0>
0c
0V
1U
0Q
0_
1Z
1Y
1X
1i
0d
1e
#85000
1!
0.
0&
11
0/
10
0#
1$
0L
1J
0I
1G
1D
1C
0B
0A
0U
0T
1S
1R
1_
0]
1\
0Z
#90000
01
1/
0$
12
1"
1E
0D
1B
0J
1H
1^
0\
1T
0R
1Q
#95000
02
0"
1&
00
0(
1)
0%
03
0F
0E
0C
0N
1L
0K
0H
1>
1c
0^
0[
1Z
0X
0S
0Q
0P
0i
1d
0e
#100000
12
10
0)
1%
0!
0,
1E
1C
0?
0>
1K
0G
0_
1[
0c
0W
1S
1Q
1i
0d
1e
#105000
1)
1,
1"
1(
0/
1.
0'
1>
0B
1A
1?
1N
0M
1H
1^
0Y
1X
1W
1U
0T
1c
0i
1d
0e
#110000
0)
0"
0(
0.
1'
0%
11
1#
0>
0N
1M
0K
1I
0H
1D
0A
0U
1R
0^
1]
0[
1Y
0X
0c
1i
0d
1e
#112500
1*
1=
1a
1b
#115000
1)
1(
1.
01
0#
0,
02
1!
1>
1N
0I
1G
0E
0D
1A
0?
0W
1U
0R
0Q
1_
0]
1X
1c
0i
1d
0e
#120000
0(
11
1"
00
0&
0N
0L
1H
1D
0C
0S
1R
1^
0Z
0X
#125000
1(
0)
0.
1,
12
0!
0'
1$
1N
0M
1J
0G
0>
1E
0A
1?
1W
0U
1Q
0c
0_
1\
0Y
1X
1i
0d
1e
#130000
0(
1)
1.
1'
0$
0"
10
1&
1%
0N
1M
1L
1K
0J
0H
1>
1C
1A
1U
1S
1c
0^
0\
1[
1Z
1Y
0X
0i
1d
0e
#135000
0.
0&
1!
01
1/
13
1-
1F
0D
1B
0A
1@
0L
1G
1_
0Z
1V
0U
1T
0R
1P
#140000
1.
0/
1"
00
0,
02
0E
0C
0B
1A
0?
1H
1^
0W
1U
0T
0S
0Q
#145000
0"
10
1,
12
11
0-
1$
1#
1J
1I
0H
1E
1D
1C
0@
1?
1W
0V
1S
1R
1Q
0^
1]
1\
#150000
00
0,
02
0#
0.
1/
0!
03
1(
0)
0*
0F
0E
0C
1B
0A
0?
1N
0I
0G
0>
0=
0a
0c
0_
0]
1X
0W
0U
1T
0S
0Q
0P
0b
1i
0d
1e
#155000
1,
12
0/
1!
13
1)
1"
01
0$
0'
1F
1E
0D
0B
1?
0M
0J
1H
1G
1>
1c
1_
1^
0\
0Y
1W
0T
0R
1Q
1P
0i
1d
0e
#160000
02
0!
0)
10
1.
0(
1-
1&
0%
0E
1C
1A
1@
0N
1L
0K
0G
0>
0c
0_
0[
1Z
0X
1V
1U
1S
0Q
1i
0d
1e
#165000
12
1!
00
0-
0,
1/
03
0"
11
1'
0F
1E
1D
0C
1B
0@
0?
1M
0H
1G
1_
0^
1Y
0W
0V
1T
0S
1R
1Q
0P
#170000
02
10
1-
1,
0/
1"
1(
1%
1#
0E
1C
0B
1@
1?
1N
1K
1I
1H
1^
1]
1[
1X
1W
1V
0T
1S
0Q
#175000
1/
0"
0(
0#
13
01
0'
0.
0&
1F
0D
1B
0A
0N
0M
0L
0I
0H
0^
0]
0Z
0Y
0X
0U
1T
0R
1P
#180000
03
1'
12
0-
0%
0!
1)
1$
0F
1E
0@
1M
0K
1J
0G
1>
1c
0_
1\
0[
1Y
0V
1Q
0P
0i
1d
0e
#185000
02
1-
1!
1"
1#
1.
1&
0E
1A
1@
1L
1I
1H
1G
1_
1^
1]
1Z
1V
1U
0Q
#187500
1*
1=
1a
1b
1g
0h
1k
0j
0d
1e
#190000
12
0!
0"
0'
1%
0/
1(
11
0,
1E
1D
0B
0?
1N
0M
1K
0H
0G
0_
0^
1[
0Y
1X
0W
0T
1R
1Q
#195000
1!
1"
1'
0(
0&
13
0)
00
0N
1M
0L
1H
1G
1F
0C
0>
0c
0S
1P
1_
1^
0Z
1Y
0X
1i
#200000
1&
03
1)
10
02
0%
1/
01
1,
0$
1L
0K
0J
0F
0E
0D
1C
1B
1?
1>
1c
1W
1T
1S
0R
0Q
0P
0\
0[
1Z
0i
#205000
0)
00
11
1(
0#
0>
1D
0C
1N
0I
0]
1X
0S
1R
0c
1i
#210000
1)
10
0(
0&
1$
0'
0-
1>
1C
0@
0N
0M
0L
1J
1\
0Z
0Y
0X
0V
1S
1c
0i
#215000
0)
1(
1&
0$
1'
1-
01
1#
13
0!
0"
0.
0>
1N
1M
1L
0J
1I
0H
0G
1F
0D
0A
1@
1V
0U
0R
1P
0_
0^
1]
0\
1Z
1Y
1X
0c
1i
#220000
0(
0-
1!
1"
1.
1%
0/
0,
0N
1K
1H
1G
0B
1A
0@
0?
0W
0V
1U
0T
1_
1^
1[
0X
#225000
0%
1,
0&
11
0#
12
0*
0L
0K
0I
1E
1D
1?
0=
0a
1W
1R
1Q
0]
0[
0Z
0b
#230000
0,
1&
1#
1-
0!
0"
1/
1$
0'
1B
1@
0?
0M
1L
1J
1I
0H
0G
0_
0^
1]
1\
1Z
0Y
0W
1V
1T
#235000
1,
0#
1!
1"
0$
00
0C
1?
0J
0I
1H
1G
1_
1^
0]
0\
1W
0S
#240000
10
0&
0/
1'
1%
01
02
1)
03
0F
0E
0D
1C
0B
1M
0L
1K
1>
1c
1[
0Z
1Y
0T
1S
0R
0Q
0P
0i
#245000
00
1&
0'
11
13
0,
1#
0!
0"
1$
0-
1F
1D
0C
0@
0?
0M
1L
1J
1I
0H
0G
0_
0^
1]
1\
1Z
0Y
0W
0V
0S
1R
1P
#250000
10
0&
01
0#
1!
1"
0$
1/
0%
0)
1(
0.
0D
1C
1B
0A
1N
0L
0K
0J
0I
1H
1G
0>
0c
1_
1^
0]
0\
0[
0Z
1X
0U
1T
1S
0R
1i
#255000
00
11
1#
0!
0"
1$
1)
0(
1.
1'
1D
0C
1A
0N
1M
1J
1I
0H
0G
1>
1c
0_
0^
1]
1\
1Y
0X
1U
0S
1R
0i
#260000
10
01
1"
0$
0.
0/
1%
03
1,
12
0F
1E
0D
1C
0B
0A
1?
1K
0J
1H
1^
0\
1[
1W
0U
0T
1S
0R
1Q
0P
#262500
1*
1=
1a
1b
0g
1h
0k
1j
1d
0e
#265000
00
0"
13
0,
0#
1!
0'
1&
1-
1F
0C
1@
0?
0M
1L
0I
0H
1G
1_
0^
0]
1Z
0Y
0W
1V
0S
1P
#270000
10
1"
03
1,
1#
0!
1'
0&
0-
11
1$
1.
0)
1(
0F
1D
1C
1A
0@
1?
1N
1M
0L
1J
1I
1H
0G
0>
0c
0_
1^
1]
1\
0Z
1Y
1X
1W
0V
1U
1S
1R
0P
1i
0d
1e
#275000
0"
0#
1&
1-
01
0$
1)
1/
02
1L
0J
0I
0H
0E
0D
1B
1@
1>
1c
1V
1T
0R
0Q
0^
0]
0\
1Z
0i
1d
0e
#280000
1#
0&
0-
0)
0/
13
0,
0(
0%
0N
0L
0K
1I
1F
0B
0@
0?
0>
0c
0W
0V
0T
1P
1]
0[
0Z
0X
1i
0d
1e
#285000
1-
03
1,
1"
12
00
1!
0'
0F
1E
0C
1@
1?
0M
1H
1G
1_
1^
0Y
1W
1V
0S
1Q
0P
#290000
0-
13
0,
10
1'
1&
1)
1%
1$
0.
1F
1C
0A
0@
0?
1M
1L
1K
1J
1>
1c
1\
1[
1Z
1Y
0W
0V
0U
1S
1P
0i
1d
0e
#295000
03
00
0'
0&
0)
0%
1.
02
0#
1(
0F
0E
0C
1A
1N
0M
0L
0K
0I
0>
0c
0]
0[
0Z
0Y
1X
1U
0S
0Q
0P
1i
0d
1e
#300000
1'
1%
1-
0*
1M
1K
1@
0=
0a
1V
1[
1Y
0b
#305000
0'
0-
1&
1)
0.
12
0(
1,
0!
1/
11
0N
0M
1L
0G
1E
1D
1B
0A
0@
1?
1>
1c
1W
0V
0U
1T
1R
1Q
0_
1Z
0Y
0X
0i
1d
0e
#310000
0&
1.
1!
0/
0%
13
1#
0$
0"
0L
0K
0J
1I
0H
1G
1F
0B
1A
1U
0T
1P
1_
0^
1]
0\
0[
0Z
#315000
0!
1/
03
0#
1$
1"
0,
01
10
1J
0I
1H
0G
0F
0D
1C
1B
0?
0W
1T
1S
0R
0P
0_
1^
0]
1\
#320000
1!
13
1,
1&
1%
02
1L
1K
1G
1F
0E
1?
1W
0Q
1P
1_
1[
1Z
#325000
0!
0,
0%
0/
0$
0"
11
0.
1'
0)
1(
1N
1M
0K
0J
0H
0G
1D
0B
0A
0?
0>
0c
0W
0U
0T
1R
0_
0^
0\
0[
1Y
1X
1i
0d
1e
#330000
1,
1$
0'
03
0&
1#
00
0F
0C
1?
0M
0L
1J
1I
1]
1\
0Z
0Y
1W
0S
0P
#335000
1'
0#
10
1%
1"
01
0(
12
1-
0N
1M
1K
0I
1H
1E
0D
1C
1@
1V
1S
0R
1Q
1^
0]
1[
1Y
0X
#337500
1*
1=
1a
1b
#340000
0'
1#
0%
0"
11
02
0-
0$
13
1&
1/
1.
0M
1L
0K
0J
1I
0H
1F
0E
1D
1B
1A
0@
0V
1U
1T
1R
0Q
1P
0^
1]
0\
0[
1Z
0Y
#345000
1'
1"
12
1-
03
0/
0.
00
1!
1M
1H
1G
0F
1E
0C
0B
0A
1@
1V
0U
0T
0S
1Q
0P
1_
1^
1Y
#350000
0'
0-
1/
1.
0#
01
1$
1(
1)
1N
0M
1J
0I
0D
1B
1A
0@
1>
1c
0V
1U
1T
0R
0]
1\
0Y
1X
0i
1d
0e
#355000
0.
0$
0(
0)
0"
02
0!
1%
0,
0E
0A
0?
0N
1K
0J
0H
0G
0>
0c
0_
0^
0\
1[
0X
0W
0U
0Q
1i
0d
1e
#360000
1.
1$
12
1#
0&
1E
1A
0L
1J
1I
1]
1\
0Z
1U
1Q
#365000
0$
02
0#
1&
1)
1!
0%
1'
1-
11
1M
1L
0K
0J
0I
1G
0E
1D
1@
1>
1c
1V
1R
0Q
1_
0]
0\
0[
1Z
1Y
0i
1d
0e
#370000
1$
12
1#
0&
0)
0!
1%
0-
01
0.
13
0L
1K
1J
1I
0G
1F
1E
0D
0A
0@
0>
0c
0V
0U
0R
1Q
1P
0_
1]
1\
1[
0Z
1i
0d
1e
#375000
02
0#
0%
1-
11
03
1"
1,
0/
0*
0F
0E
1D
0B
1@
1?
0K
0I
1H
0=
0a
1^
0]
0[
1W
1V
0T
1R
0Q
0P
0b
#380000
01
1&
1!
0'
1(
0D
1N
0M
1L
1G
1_
1Z
0Y
1X
0R
#385000
11
0&
1%
0-
0"
0,
1)
10
1D
1C
0@
0?
0L
1K
0H
1>
1c
0^
1[
0Z
0W
0V
1S
1R
0i
1d
0e
#390000
01
1&
1-
0!
1'
12
1#
13
0$
1F
1E
0D
1@
1M
1L
0J
1I
0G
0_
1]
0\
1Z
1Y
1V
0R
1Q
1P
#395000
11
0&
0-
0'
02
03
0%
1,
0)
0(
0F
0E
1D
0@
1?
0N
0M
0L
0K
0>
0c
0[
0Z
0Y
0X
1W
0V
1R
0Q
0P
1i
0d
1e
#400000
01
1&
1-
0,
1)
1(
1!
0#
1"
00
1/
1.
0D
0C
1B
1A
1@
0?
1N
1L
0I
1H
1G
1>
1c
1_
1^
0]
1Z
1X
0W
1V
1U
1T
0S
0R
0i
1d
0e
#405000
0&
1,
0.
12
0L
1E
0A
1?
1W
0U
1Q
0Z
#410000
1&
0,
11
0-
0(
0!
0"
1'
13
0N
1M
1L
0H
0G
1F
1D
0@
0?
0W
0V
1R
1P
0_
0^
1Z
1Y
0X
#412500
1*
1=
1a
1b
1g
0h
1k
0j
0d
1e
#415000
0&
01
1(
1"
0'
03
0)
1%
1N
0M
0L
1K
1H
0F
0D
0>
0c
0R
0P
1^
1[
0Z
0Y
1X
1i
#420000
1&
0"
1'
1)
0%
1,
1-
1.
02
10
0/
1$
1M
1L
0K
1J
0H
1>
0E
1C
0B
1A
1@
1?
1W
1V
1U
0T
1S
0Q
1c
0^
1\
0[
1Z
1Y
0i
#425000
0&
1"
0'
0)
1%
0-
12
00
1/
0$
1!
0M
0L
1K
0J
1H
1G
0>
1E
0C
1B
0@
0V
1T
0S
1Q
0c
1_
1^
0\
1[
0Z
0Y
1i
#430000
1&
0"
1'
1)
0%
10
0/
0(
13
1#
0N
1M
1L
0K
1I
0H
1>
1F
1C
0B
0T
1S
1P
1c
0^
1]
0[
1Z
1Y
0X
0i
#435000
0&
1"
0'
1%
00
0#
1$
0!
0,
0.
11
0M
0L
1K
1J
0I
1H
0G
1D
0C
0A
0?
0W
0U
0S
1R
0_
1^
0]
1\
1[
0Z
0Y
#440000
0"
1'
0%
10
0$
1!
0)
1/
1(
03
1-
1N
1M
0K
0J
0H
1G
0F
1C
1B
1@
0>
0c
1V
1T
1S
0P
1_
0^
0\
0[
1Y
1X
1i
#445000
1"
0'
00
13
1&
1#
1.
01
0M
1L
1I
1H
1F
0D
0C
1A
1U
0S
0R
1P
1^
1]
1Z
0Y
#450000
0"
1'
10
03
0&
0#
0.
0/
0-
1,
02
0*
1M
0L
0I
0H
0F
0E
1C
0B
0A
0@
1?
0=
0a
1W
0V
0U
0T
1S
0Q
0P
0^
0]
0Z
1Y
0b
#455000
13
1/
1-
0,
11
1$
0!
1)
1F
1D
1B
1@
0?
1J
0G
1>
1c
0_
1\
0W
1V
1T
1R
1P
0i
#460000
0/
0-
01
0$
0)
00
1#
1.
12
1%
0(
1E
0D
0C
0B
1A
0@
0N
1K
0J
1I
0>
0c
1]
0\
1[
0X
0V
1U
0T
0S
0R
1Q
1i
#465000
1/
1$
1)
10
0.
0%
1,
0'
1C
1B
0A
1?
0M
0K
1J
1>
1c
1\
0[
0Y
1W
0U
1T
1S
0i
#470000
0/
0$
0,
1-
02
1!
1"
1&
0E
0B
1@
0?
1L
0J
1H
1G
1_
1^
0\
1Z
0W
1V
0T
0Q
#475000
1$
0-
0"
0&
0)
00
1'
1M
0L
1J
0H
0C
0@
0>
0c
0V
0S
0^
1\
0Z
1Y
1i
#480000
1-
1"
1)
0'
1/
1,
0!
1%
11
0#
1D
1B
1@
1?
0M
1K
0I
1H
0G
1>
1c
0_
1^
0]
1[
0Y
1W
1V
1T
1R
0i
#485000
0)
0,
0%
1#
1&
03
0>
0F
0?
1L
0K
1I
1]
0[
1Z
0W
0P
0c
1i
#487500
1*
1=
1a
1b
0g
1h
0k
1j
#490000
1,
0&
13
1'
1!
0$
10
1(
1F
1C
1?
1N
1M
0L
0J
1G
1_
0\
0Z
1Y
1X
1W
1S
1P
#495000
03
1$
0#
0"
01
12
1.
0F
1E
0D
1A
1J
0I
0H
0^
0]
1\
1U
0R
1Q
0P
#500000
0$
1"
11
0,
1&
0'
0!
1)
1%
0/
0M
1L
1K
0J
1H
0G
1D
0B
0?
1>
1c
0W
0T
1R
0_
1^
0\
1[
1Z
0Y
0i
1d
0e
#505000
01
0&
0)
13
1#
00
0(
1F
0D
0C
0N
0L
1I
0>
0c
1]
0Z
0X
0S
0R
1P
1i
0d
1e
#510000
1&
1)
10
1(
1$
0"
0%
1/
02
0-
1N
1L
0K
1J
0H
1>
0E
1C
1B
0@
0V
1T
1S
0Q
1c
0^
1\
0[
1Z
1X
0i
1d
0e
#515000
00
0$
1"
0/
12
11
0#
1E
1D
0C
0B
0J
0I
1H
1^
0]
0\
0T
0S
1R
1Q
#520000
10
1/
0&
0(
1-
0.
1C
1B
0A
1@
0N
0L
0Z
0X
1V
0U
1T
1S
#525000
00
1&
1(
0-
1.
1$
0"
0)
03
1'
1!
0*
0F
0C
1A
0@
1N
1M
1L
1J
0H
1G
0>
0=
0a
0c
1_
0^
1\
1Z
1Y
1X
0V
1U
0S
0P
0b
1i
0d
1e
#530000
10
0(
1-
0$
13
0'
01
1#
1,
1F
0D
1C
1@
1?
0N
0M
0J
1I
1]
0\
0Y
0X
1W
1V
1S
0R
1P
#535000
1(
0-
03
11
0#
0&
02
1N
0L
0I
0F
0E
1D
0@
0V
1R
0Q
0P
0]
0Z
1X
#540000
1&
12
00
1$
1'
0!
1M
1L
1J
0G
1E
0C
0S
1Q
0_
1\
1Z
1Y
#545000
10
0$
13
01
0,
1)
1%
1F
0D
1C
0?
1K
0J
1>
1c
0\
1[
0W
1S
0R
1P
0i
1d
0e
#550000
11
0)
0%
0&
0'
1!
1-
1"
1D
1@
0>
0M
0L
0K
1H
1G
1_
1^
0[
0Z
0Y
0c
1V
1R
1i
0d
1e
#555000
01
1%
1'
0"
1$
03
0/
0F
0D
0B
1M
1K
1J
0H
0^
1\
1[
1Y
0T
0R
0P
#560000
0'
0$
13
1/
0!
0-
0(
0N
0M
0J
0G
1F
1B
0@
0V
1T
1P
0_
0\
0Y
0X
#562500
1*
1=
1a
1b
#565000
1'
1$
03
1(
1)
1&
00
1N
1M
1L
1J
0F
0C
1>
1c
0S
0P
1\
1Z
1Y
1X
0i
1d
0e
#570000
0'
0$
0(
0)
0&
10
0/
1!
0%
0N
0M
0L
0K
0J
1G
0>
1C
0B
0T
1S
0c
1_
0\
0[
0Z
0Y
0X
1i
0d
1e
#575000
1'
1$
1)
1&
1/
1%
13
1,
1#
1M
1L
1K
1J
1I
1>
1F
1B
1?
1W
1T
1P
1c
1]
1\
1[
1Z
1Y
0i
1d
0e
#580000
0'
0$
0)
0/
0%
03
0#
1(
0!
1-
1"
0.
1N
0M
0K
0J
0I
1H
0G
0>
0F
0B
0A
1@
1V
0U
0T
0P
0c
0_
1^
0]
0\
0[
0Y
1X
1i
0d
1e
#585000
1'
1)
1%
0(
0-
0"
0&
0,
00
0N
1M
0L
1K
0H
1>
0C
0@
0?
0W
0V
0S
1c
0^
1[
0Z
1Y
0X
0i
1d
0e
#590000
0'
1-
1&
1/
1#
11
02
0M
1L
1I
0E
1D
1B
1@
1V
1T
1R
0Q
1]
1Z
0Y
#595000
0-
12
0)
0%
1,
10
1.
1E
1C
1A
0@
1?
0>
0K
0[
0c
1W
0V
1U
1S
1Q
1i
0d
1e
#600000
1-
02
1%
0,
00
1'
0&
0#
01
1(
1"
1$
13
0*
1F
0E
0D
0C
1@
0?
1N
1M
0L
1K
1J
0I
1H
0=
0a
1^
0]
1\
1[
0Z
1Y
1X
0W
1V
0S
0R
0Q
1P
0b
#605000
1,
10
1&
11
0$
0.
1!
1D
1C
0A
1?
1L
0J
1G
1_
0\
1Z
1W
0U
1S
1R
#610000
00
0&
01
1$
0-
12
0'
0(
0"
03
1)
0F
1E
0D
0C
0@
0N
0M
0L
1J
0H
1>
1c
0^
1\
0Z
0Y
0X
0V
0S
0R
1Q
0P
0i
1d
0e
#615000
10
1&
1-
02
13
0,
1.
1F
0E
1C
1A
1@
0?
1L
1Z
0W
1V
1U
1S
0Q
1P
#620000
00
0&
12
11
1'
1(
0%
1#
1E
1D
0C
1N
1M
0L
0K
1I
1]
0[
0Z
1Y
1X
0S
1R
1Q
#625000
0'
0(
0#
1,
0$
1"
0)
0!
0/
0N
0M
0J
0I
1H
0G
0B
1?
0>
0c
1W
0T
0_
1^
0]
0\
0Y
0X
1i
0d
1e
#630000
1'
1#
0"
1)
10
02
01
1%
0-
0.
1M
1K
1I
0H
1>
0E
0D
1C
0A
0@
0V
0U
1S
0R
0Q
1c
0^
1]
1[
1Y
0i
1d
0e
#635000
0'
1"
0)
00
0%
1(
1/
1&
03
1N
0M
1L
0K
1H
0>
0F
0C
1B
1T
0S
0P
0c
1^
0[
1Z
0Y
1X
1i
0d
1e
#637500
1*
1=
1a
1b
#640000
0&
11
1.
1!
0L
1G
1D
1A
1U
1R
1_
0Z
#645000
1&
0!
1%
13
1-
0,
1$
1L
1K
1J
0G
1F
1@
0?
0W
1V
1P
0_
1\
1[
1Z
#650000
0&
0%
03
0-
1,
0$
0.
1'
0"
1)
0#
12
1M
0L
0K
0J
0I
0H
0F
1E
0A
0@
1?
1>
1c
1W
0V
0U
1Q
0P
0^
0]
0\
0[
0Z
1Y
0i
1d
0e
#655000
1&
1%
13
1$
0'
0)
02
1!
01
10
0/
0M
1L
1K
1J
1G
1F
0E
0D
1C
0B
0>
0c
0T
1S
0R
0Q
1P
1_
1\
1[
1Z
0Y
1i
0d
1e
#660000
0$
1'
0!
1-
1"
1#
1M
0J
1I
1H
0G
1@
1V
0_
1^
1]
0\
1Y
#665000
1$
0-
03
00
0,
1.
0(
0N
1J
0F
0C
1A
0@
0?
0W
0V
1U
0S
0P
1\
0X
#670000
0$
10
0.
0&
12
1/
0L
0J
1E
1C
1B
0A
0U
1T
1S
1Q
0\
0Z
#675000
00
1&
02
0/
1-
1,
0'
1!
0"
0#
1)
0*
0E
0C
0B
1@
1?
0M
1L
0I
0H
1G
1>
0=
0a
1c
1_
0^
0]
1Z
0Y
1W
1V
0T
0S
0Q
0b
0i
1d
0e
#680000
10
1/
0-
1'
1#
0)
1$
1.
13
1(
0%
11
1F
1D
1C
1B
1A
0@
1N
1M
0K
1J
1I
0>
0c
1]
1\
0[
1Y
1X
0V
1U
1T
1S
1R
1P
1i
0d
1e
#685000
00
0/
1)
0.
03
0(
0&
0,
0!
1"
0F
0C
0B
0A
0?
1>
0N
0L
1H
0G
0_
1^
0Z
0X
1c
0W
0U
0T
0S
0P
0i
1d
0e
#690000
10
1!
0"
1-
0'
0#
0$
01
12
1E
0D
1C
1@
0M
0J
0I
0H
1G
1_
0^
0]
0\
0Y
1V
1S
0R
1Q
#695000
1"
1'
1$
02
1.
1(
1%
1N
1M
1K
1J
1H
0E
1A
1U
0Q
1^
1\
1[
1Y
1X
#700000
0"
0'
0$
0.
0(
0!
1#
11
1/
0)
13
1&
0N
0M
1L
0J
1I
0H
0G
1F
1D
1B
0A
0>
0c
0U
1T
1R
1P
0_
0^
1]
0\
1Z
0Y
0X
1i
0d
1e
#705000
1"
1$
1.
1(
1!
1)
12
1,
1N
1J
1H
1G
1E
1A
1?
1>
1c
1W
1U
1Q
1_
1^
1\
1X
0i
1d
0e
#710000
0.
0(
02
0#
03
0&
0%
00
0-
0F
0E
0C
0A
0@
0N
0L
0K
0I
0]
0[
0Z
0X
0V
0U
0S
0Q
0P
#712500
1*
1=
1a
1b
1g
0h
1k
0j
0d
1e
#715000
1.
12
1#
1-
0"
0$
0,
01
1E
0D
1A
1@
0?
0J
1I
0H
0^
1]
0\
0W
1V
1U
0R
1Q
#720000
0.
0#
0-
1$
1,
13
1&
10
0!
0)
1'
0/
1F
1C
0B
0A
0@
1?
1M
1L
1J
0I
0G
0>
0c
0_
0]
1\
1Z
1Y
1W
0V
0U
0T
1S
1P
1i
#725000
1-
0$
0&
00
1)
0'
1/
11
1%
1D
0C
1B
1@
0M
0L
1K
0J
1>
1c
0\
1[
0Z
0Y
1V
1T
0S
1R
0i
#730000
0-
1$
1&
10
01
0%
1#
03
02
1(
0F
0E
0D
1C
0@
1N
1L
0K
1J
1I
1]
1\
0[
1Z
1X
0V
1S
0R
0Q
0P
#735000
0&
00
1%
12
0(
1'
0,
0N
1M
0L
1K
1E
0C
0?
0W
0S
1Q
1[
0Z
1Y
0X
#740000
10
0%
02
0'
11
0)
1.
0E
1D
1C
1A
0M
0K
0>
0c
0[
0Y
1U
1S
1R
0Q
1i
#745000
00
12
01
1)
0.
1(
1,
1-
0#
13
1"
1F
1E
0D
0C
0A
1@
1?
1>
1N
0I
1H
1^
0]
1X
1c
1W
1V
0U
0S
0R
1Q
1P
0i
