exercicios/aula_28/exercicio1/simulation/qsim/exercicio1.msim.vcd
$comment
	File created using the following command:
		vcd file exercicio1.msim.vcd -direction
$end
$date
	Sat Nov  9 12:14:23 2019
$end
$version
	ModelSim Version 10.5b
$end
$timescale
	1ps
$end

$scope module exercicio1_vhd_vec_tst $end
$var wire 1 ! a [7] $end
$var wire 1 " a [6] $end
$var wire 1 # a [5] $end
$var wire 1 $ a [4] $end
$var wire 1 % a [3] $end
$var wire 1 & a [2] $end
$var wire 1 ' a [1] $end
$var wire 1 ( a [0] $end
$var wire 1 ) c $end
$var wire 1 * clk $end
$var wire 1 + d $end
$var wire 1 , s [7] $end
$var wire 1 - s [6] $end
$var wire 1 . s [5] $end
$var wire 1 / s [4] $end
$var wire 1 0 s [3] $end
$var wire 1 1 s [2] $end
$var wire 1 2 s [1] $end
$var wire 1 3 s [0] $end

$scope module i1 $end
$var wire 1 4 gnd $end
$var wire 1 5 vcc $end
$var wire 1 6 unknown $end
$var wire 1 7 devoe $end
$var wire 1 8 devclrn $end
$var wire 1 9 devpor $end
$var wire 1 : ww_devoe $end
$var wire 1 ; ww_devclrn $end
$var wire 1 < ww_devpor $end
$var wire 1 = ww_clk $end
$var wire 1 > ww_c $end
$var wire 1 ? ww_s [7] $end
$var wire 1 @ ww_s [6] $end
$var wire 1 A ww_s [5] $end
$var wire 1 B ww_s [4] $end
$var wire 1 C ww_s [3] $end
$var wire 1 D ww_s [2] $end
$var wire 1 E ww_s [1] $end
$var wire 1 F ww_s [0] $end
$var wire 1 G ww_a [7] $end
$var wire 1 H ww_a [6] $end
$var wire 1 I ww_a [5] $end
$var wire 1 J ww_a [4] $end
$var wire 1 K ww_a [3] $end
$var wire 1 L ww_a [2] $end
$var wire 1 M ww_a [1] $end
$var wire 1 N ww_a [0] $end
$var wire 1 O ww_d $end
$var wire 1 P \~QUARTUS_CREATED_GND~I_combout\ $end
$var wire 1 Q \clk~input_o\ $end
$var wire 1 R \clk~inputCLKENA0_outclk\ $end
$var wire 1 S \c~input_o\ $end
$var wire 1 T \s[1]~input_o\ $end
$var wire 1 U \a[1]~input_o\ $end
$var wire 1 V \a[0]~input_o\ $end
$var wire 1 W \i1|Add0~29_sumout\ $end
$var wire 1 X \i2|d~1_combout\ $end
$var wire 1 Y \i1|Add0~30\ $end
$var wire 1 Z \i1|Add0~25_sumout\ $end
$var wire 1 [ \i1|LessThan0~4_combout\ $end
$var wire 1 \ \s[4]~input_o\ $end
$var wire 1 ] \a[4]~input_o\ $end
$var wire 1 ^ \a[3]~input_o\ $end
$var wire 1 _ \a[2]~input_o\ $end
$var wire 1 ` \i1|Add0~26\ $end
$var wire 1 a \i1|Add0~17_sumout\ $end
$var wire 1 b \i1|Add0~18\ $end
$var wire 1 c \i1|Add0~21_sumout\ $end
$var wire 1 d \i1|Add0~22\ $end
$var wire 1 e \i1|Add0~13_sumout\ $end
$var wire 1 f \i1|LessThan0~1_combout\ $end
$var wire 1 g \s[3]~input_o\ $end
$var wire 1 h \s[7]~input_o\ $end
$var wire 1 i \s[5]~input_o\ $end
$var wire 1 j \a[6]~input_o\ $end
$var wire 1 k \a[5]~input_o\ $end
$var wire 1 l \i1|Add0~14\ $end
$var wire 1 m \i1|Add0~9_sumout\ $end
$var wire 1 n \i1|Add0~10\ $end
$var wire 1 o \i1|Add0~5_sumout\ $end
$var wire 1 p \s[6]~input_o\ $end
$var wire 1 q \a[7]~input_o\ $end
$var wire 1 r \i1|Add0~6\ $end
$var wire 1 s \i1|Add0~1_sumout\ $end
$var wire 1 t \i1|LessThan0~0_combout\ $end
$var wire 1 u \i1|LessThan0~5_combout\ $end
$var wire 1 v \s[2]~input_o\ $end
$var wire 1 w \i1|LessThan0~2_combout\ $end
$var wire 1 x \i1|LessThan0~3_combout\ $end
$var wire 1 y \i2|Mux0~0_combout\ $end
$var wire 1 z \i2|Mux0~1_combout\ $end
$var wire 1 { \i2|Mux0~2_combout\ $end
$var wire 1 | \s[0]~input_o\ $end
$var wire 1 } \i1|LessThan0~6_combout\ $end
$var wire 1 ~ \i2|Mux0~3_combout\ $end
$var wire 1 !! \i2|Mux0~4_combout\ $end
$var wire 1 "! \i2|Mux1~0_combout\ $end
$var wire 1 #! \i2|d~0_combout\ $end
$var wire 1 $! \i2|y\ [1] $end
$var wire 1 %! \i2|y\ [0] $end
$var wire 1 &! \i1|tot_saida\ [7] $end
$var wire 1 '! \i1|tot_saida\ [6] $end
$var wire 1 (! \i1|tot_saida\ [5] $end
$var wire 1 )! \i1|tot_saida\ [4] $end
$var wire 1 *! \i1|tot_saida\ [3] $end
$var wire 1 +! \i1|tot_saida\ [2] $end
$var wire 1 ,! \i1|tot_saida\ [1] $end
$var wire 1 -! \i1|tot_saida\ [0] $end
$var wire 1 .! \ALT_INV_a[0]~input_o\ $end
$var wire 1 /! \ALT_INV_a[1]~input_o\ $end
$var wire 1 0! \ALT_INV_a[3]~input_o\ $end
$var wire 1 1! \ALT_INV_a[2]~input_o\ $end
$var wire 1 2! \ALT_INV_a[4]~input_o\ $end
$var wire 1 3! \ALT_INV_a[5]~input_o\ $end
$var wire 1 4! \ALT_INV_a[6]~input_o\ $end
$var wire 1 5! \ALT_INV_a[7]~input_o\ $end
$var wire 1 6! \ALT_INV_s[0]~input_o\ $end
$var wire 1 7! \ALT_INV_s[1]~input_o\ $end
$var wire 1 8! \ALT_INV_s[3]~input_o\ $end
$var wire 1 9! \ALT_INV_s[2]~input_o\ $end
$var wire 1 :! \ALT_INV_s[4]~input_o\ $end
$var wire 1 ;! \ALT_INV_s[5]~input_o\ $end
$var wire 1 <! \ALT_INV_s[6]~input_o\ $end
$var wire 1 =! \ALT_INV_s[7]~input_o\ $end
$var wire 1 >! \ALT_INV_c~input_o\ $end
$var wire 1 ?! \i2|ALT_INV_Mux0~3_combout\ $end
$var wire 1 @! \i1|ALT_INV_LessThan0~6_combout\ $end
$var wire 1 A! \i2|ALT_INV_Mux0~2_combout\ $end
$var wire 1 B! \i2|ALT_INV_Mux0~1_combout\ $end
$var wire 1 C! \i1|ALT_INV_LessThan0~5_combout\ $end
$var wire 1 D! \i1|ALT_INV_LessThan0~4_combout\ $end
$var wire 1 E! \i1|ALT_INV_LessThan0~3_combout\ $end
$var wire 1 F! \i1|ALT_INV_LessThan0~2_combout\ $end
$var wire 1 G! \i1|ALT_INV_LessThan0~1_combout\ $end
$var wire 1 H! \i1|ALT_INV_LessThan0~0_combout\ $end
$var wire 1 I! \i2|ALT_INV_Mux0~0_combout\ $end
$var wire 1 J! \i2|ALT_INV_d~0_combout\ $end
$var wire 1 K! \i2|ALT_INV_y\ [1] $end
$var wire 1 L! \i2|ALT_INV_y\ [0] $end
$var wire 1 M! \i1|ALT_INV_tot_saida\ [7] $end
$var wire 1 N! \i1|ALT_INV_tot_saida\ [6] $end
$var wire 1 O! \i1|ALT_INV_tot_saida\ [5] $end
$var wire 1 P! \i1|ALT_INV_tot_saida\ [4] $end
$var wire 1 Q! \i1|ALT_INV_tot_saida\ [3] $end
$var wire 1 R! \i1|ALT_INV_tot_saida\ [2] $end
$var wire 1 S! \i1|ALT_INV_tot_saida\ [1] $end
$var wire 1 T! \i1|ALT_INV_tot_saida\ [0] $end
$upscope $end
$upscope $end
$enddefinitions $end
#0
$dumpvars
0)
0*
0+
04
15
x6
17
18
19
1:
1;
1<
0=
0>
0O
xP
0Q
0R
0S
0T
1U
0V
0W
1X
0Y
1Z
0[
1\
0]
1^
0_
0`
0a
0b
1c
0d
0e
1f
0g
0h
0i
0j
0k
0l
0m
0n
0o
0p
0q
0r
0s
1t
0u
1v
0w
0x
0y
0z
0{
0|
0}
0~
0!!
1"!
1#!
1.!
0/!
00!
11!
12!
13!
14!
15!
16!
17!
18!
09!
0:!
1;!
1<!
1=!
1>!
1?!
1@!
1A!
1B!
1C!
1D!
1E!
1F!
0G!
0H!
1I!
0J!
0!
0"
0#
0$
1%
0&
1'
0(
0,
0-
0.
1/
00
11
02
03
0?
0@
0A
1B
0C
1D
0E
0F
0G
0H
0I
0J
1K
0L
1M
0N
0$!
0%!
0&!
0'!
0(!
0)!
0*!
0+!
0,!
0-!
1K!
1L!
1M!
1N!
1O!
1P!
1Q!
1R!
1S!
1T!
$end
#5000
1)
1>
1S
0>!
#20000
0)
0>
0S
1>!
#35000
1)
1>
1S
0>!
#37500
1*
1=
1Q
1R
1%!
0L!
0X
1y
0"!
0I!
1!!
#50000
0)
0>
0S
1>!
0y
1"!
1I!
0!!
#75000
1)
0*
1>
0=
0Q
1S
0R
0>!
1y
0"!
0I!
1!!
#80000
0)
0>
0S
1>!
0y
1"!
1I!
0!!
#95000
1)
1>
1S
0>!
1y
0"!
0I!
1!!
#100000
0)
0>
0S
1>!
0y
1"!
1I!
0!!
#105000
1)
1>
1S
0>!
1y
0"!
0I!
1!!
#110000
0)
0>
0S
1>!
0y
1"!
1I!
0!!
#112500
1*
1=
1Q
1R
#115000
1)
1>
1S
0>!
1y
0"!
0I!
1!!
#125000
0)
0>
0S
1>!
0y
1"!
1I!
0!!
#130000
1)
1>
1S
0>!
1y
0"!
0I!
1!!
#150000
0)
0*
0>
0=
0Q
0S
0R
1>!
0y
1"!
1I!
0!!
#155000
1)
1>
1S
0>!
1y
0"!
0I!
1!!
#160000
0)
0>
0S
1>!
0y
1"!
1I!
0!!
#180000
1)
1>
1S
0>!
1y
0"!
0I!
1!!
#187500
1*
1=
1Q
1R
1$!
0%!
1L!
0K!
0y
1"!
1I!
0!!
#195000
0)
0>
0S
1>!
#200000
1)
1>
1S
0>!
#205000
0)
0>
0S
1>!
#210000
1)
1>
1S
0>!
#215000
0)
0>
0S
1>!
#225000
0*
0=
0Q
0R
#240000
1)
1>
1S
0>!
#250000
0)
0>
0S
1>!
#255000
1)
1>
1S
0>!
#262500
1*
1=
1Q
1R
1,!
1*!
0$!
1%!
0L!
1K!
0Q!
0S!
0Z
1`
0c
1d
1w
1y
0"!
0I!
0F!
1e
1a
1!!
#270000
0)
0>
0S
1>!
0y
1"!
1I!
0!!
#275000
1)
1>
1S
0>!
1y
0"!
0I!
1!!
#280000
0)
0>
0S
1>!
0y
1"!
1I!
0!!
#290000
1)
1>
1S
0>!
1y
0"!
0I!
1!!
#295000
0)
0>
0S
1>!
0y
1"!
1I!
0!!
#300000
0*
0=
0Q
0R
#305000
1)
1>
1S
0>!
1y
0"!
0I!
1!!
#325000
0)
0>
0S
1>!
0y
1"!
1I!
0!!
#337500
1*
1=
1Q
1R
#350000
1)
1>
1S
0>!
1y
0"!
0I!
1!!
#355000
0)
0>
0S
1>!
0y
1"!
1I!
0!!
#365000
1)
1>
1S
0>!
1y
0"!
0I!
1!!
#370000
0)
0>
0S
1>!
0y
1"!
1I!
0!!
#375000
0*
0=
0Q
0R
#385000
1)
1>
1S
0>!
1y
0"!
0I!
1!!
#395000
0)
0>
0S
1>!
0y
1"!
1I!
0!!
#400000
1)
1>
1S
0>!
1y
0"!
0I!
1!!
#412500
1*
1=
1Q
1R
1$!
0%!
1L!
0K!
0y
1"!
1I!
0!!
#415000
0)
0>
0S
1>!
#420000
1)
1>
1S
0>!
#425000
0)
0>
0S
1>!
#430000
1)
1>
1S
0>!
#440000
0)
0>
0S
1>!
#450000
0*
0=
0Q
0R
#455000
1)
1>
1S
0>!
#460000
0)
0>
0S
1>!
#465000
1)
1>
1S
0>!
#475000
0)
0>
0S
1>!
#480000
1)
1>
1S
0>!
#485000
0)
0>
0S
1>!
#487500
1*
1=
1Q
1R
0,!
1+!
0*!
1)!
0$!
1%!
0L!
1K!
0P!
1Q!
0R!
1S!
1Z
0`
0a
1b
1c
0d
0w
0e
1l
0f
1{
0A!
1G!
1F!
1m
1e
0l
0c
1d
1a
0b
1x
1!!
1c
0d
0e
1l
0m
0E!
1m
1e
0l
0m
#500000
1)
1>
1S
0>!
1y
0"!
0I!
#505000
0)
0>
0S
1>!
0y
1"!
1I!
#510000
1)
1>
1S
0>!
1y
0"!
0I!
#525000
0)
0*
0>
0=
0Q
0S
0R
1>!
0y
1"!
1I!
#545000
1)
1>
1S
0>!
1y
0"!
0I!
#550000
0)
0>
0S
1>!
0y
1"!
1I!
#562500
1*
1=
1Q
1R
1$!
0K!
0{
0"!
0#!
1J!
1A!
0!!
1O
1+
#565000
1)
1>
1S
0>!
#570000
0)
0>
0S
1>!
#575000
1)
1>
1S
0>!
#580000
0)
0>
0S
1>!
#585000
1)
1>
1S
0>!
#595000
0)
0>
0S
1>!
#600000
0*
0=
0Q
0R
#610000
1)
1>
1S
0>!
#625000
0)
0>
0S
1>!
#630000
1)
1>
1S
0>!
#635000
0)
0>
0S
1>!
#637500
1*
1=
1Q
1R
0$!
0%!
1L!
1K!
1X
1"!
1#!
0J!
0O
0+
#650000
1)
1>
1S
0>!
#655000
0)
0>
0S
1>!
#675000
1)
0*
1>
0=
0Q
1S
0R
0>!
#680000
0)
0>
0S
1>!
#685000
1)
1>
1S
0>!
#700000
0)
0>
0S
1>!
#705000
1)
1>
1S
0>!
#712500
1*
1=
1Q
1R
0+!
0)!
1%!
0L!
1P!
1R!
0a
0x
1~
0e
1f
0X
1y
0"!
0I!
0G!
0?!
1E!
0~
1!!
1?!
#720000
0)
0>
0S
1>!
0y
1"!
1I!
0!!
#725000
1)
1>
1S
0>!
1y
0"!
0I!
1!!
#740000
0)
0>
0S
1>!
0y
1"!
1I!
0!!
#745000
1)
1>
1S
0>!
1y
0"!
0I!
1!!
#750000
0)
0*
0>
0=
0Q
0S
0R
1>!
0y
1"!
1I!
0!!
#765000
1)
1>
1S
0>!
1y
0"!
0I!
1!!
#775000
0)
0>
0S
1>!
0y
1"!
1I!
0!!
#780000
1)
1>
1S
0>!
1y
0"!
0I!
1!!
#787500
1*
1=
1Q
1R
1$!
0%!
1L!
0K!
0y
1"!
1I!
0!!
#790000
0)
0>
0S
1>!
#815000
1)
1>
1S
0>!
#825000
0*
0=
0Q
0R
#840000
0)
0>
0S
1>!
#845000
1)
1>
1S
0>!
#850000
0)
0>
0S
1>!
#862500
1*
1=
1Q
1R
1,!
1*!
0$!
1%!
0L!
1K!
0Q!
0S!
0Z
1`
0c
1d
1w
0F!
1e
1a
#865000
1)
1>
1S
0>!
1y
0"!
0I!
1!!
#885000
0)
0>
0S
1>!
0y
1"!
1I!
0!!
#900000
1)
0*
1>
0=
0Q
1S
0R
0>!
1y
0"!
0I!
1!!
#905000
0)
0>
0S
1>!
0y
1"!
1I!
0!!
#910000
1)
1>
1S
0>!
1y
0"!
0I!
1!!
#937500
1*
1=
1Q
1R
1$!
0%!
1L!
0K!
0y
1"!
1I!
0!!
#940000
0)
0>
0S
1>!
#945000
1)
1>
1S
0>!
#970000
0)
0>
0S
1>!
#975000
0*
0=
0Q
0R
#980000
1)
1>
1S
0>!
#985000
0)
0>
0S
1>!
