exercicios/aula_6/exercicio_3/simulation/qsim/circuito.msim.vcd
$comment
	File created using the following command:
		vcd file circuito.msim.vcd -direction
$end
$date
	Wed Sep 18 11:49:54 2019
$end
$version
	ModelSim Version 10.5b
$end
$timescale
	1ps
$end

$scope module circuito_vhd_vec_tst $end
$var wire 1 ! a $end
$var wire 1 " b $end
$var wire 1 # c $end
$var wire 1 $ d $end
$var wire 1 % x $end

$scope module i1 $end
$var wire 1 & gnd $end
$var wire 1 ' vcc $end
$var wire 1 ( unknown $end
$var wire 1 ) devoe $end
$var wire 1 * devclrn $end
$var wire 1 + devpor $end
$var wire 1 , ww_devoe $end
$var wire 1 - ww_devclrn $end
$var wire 1 . ww_devpor $end
$var wire 1 / ww_a $end
$var wire 1 0 ww_b $end
$var wire 1 1 ww_c $end
$var wire 1 2 ww_d $end
$var wire 1 3 ww_x $end
$var wire 1 4 \d~input_o\ $end
$var wire 1 5 \~QUARTUS_CREATED_GND~I_combout\ $end
$var wire 1 6 \c~input_o\ $end
$var wire 1 7 \a~input_o\ $end
$var wire 1 8 \b~input_o\ $end
$var wire 1 9 \sf|s~0_combout\ $end
$var wire 1 : \ALT_INV_c~input_o\ $end
$var wire 1 ; \ALT_INV_b~input_o\ $end
$var wire 1 < \ALT_INV_a~input_o\ $end
$upscope $end
$upscope $end
$enddefinitions $end
#0
$dumpvars
0!
0"
1#
1$
1%
0&
1'
x(
1)
1*
1+
1,
1-
1.
0/
00
11
12
13
14
x5
16
07
08
19
0:
1;
1<
$end
#5000
1!
1"
1/
10
18
17
0<
0;
#10000
0!
0"
0/
00
08
07
1<
1;
#15000
1!
1"
1/
10
18
17
0<
0;
#25000
0#
0$
01
02
04
06
1:
#40000
0!
0"
0/
00
08
07
1<
1;
#45000
1#
1$
11
12
14
16
0:
#55000
0#
0$
1!
1"
01
02
1/
10
18
17
04
06
1:
0<
0;
#65000
1#
1$
11
12
14
16
0:
#70000
0#
0$
0!
0"
01
02
0/
00
08
07
04
06
1:
1<
1;
#75000
1#
1$
11
12
14
16
0:
#80000
0#
0$
01
02
04
06
1:
#85000
1!
1"
1/
10
18
17
0<
0;
#90000
0!
0"
1#
1$
0/
00
11
12
14
16
08
07
1<
1;
0:
#95000
1!
1"
1/
10
18
17
0<
0;
#100000
0!
0"
0/
00
08
07
1<
1;
#105000
0#
0$
01
02
04
06
1:
#110000
1!
1"
1/
10
18
17
0<
0;
#115000
0!
0"
0/
00
08
07
1<
1;
#120000
1!
1"
1#
1$
1/
10
11
12
14
16
18
17
0<
0;
0:
#125000
0!
0"
0#
0$
0/
00
01
02
04
06
08
07
1<
1;
1:
#135000
1#
1$
11
12
14
16
0:
#140000
0#
0$
01
02
04
06
1:
#145000
1!
1"
1/
10
18
17
0<
0;
#150000
0!
0"
1#
1$
0/
00
11
12
14
16
08
07
1<
1;
0:
#155000
1!
1"
0#
0$
1/
10
01
02
04
06
18
17
0<
0;
1:
#160000
1#
1$
11
12
14
16
0:
#165000
0!
0"
0/
00
08
07
1<
1;
#170000
1!
1"
0#
0$
1/
10
01
02
04
06
18
17
0<
0;
1:
#175000
0!
0"
0/
00
08
07
1<
1;
#180000
1!
1"
1/
10
18
17
0<
0;
#185000
0!
0"
0/
00
08
07
1<
1;
#200000
1#
1$
11
12
14
16
0:
#215000
0#
0$
1!
1"
01
02
1/
10
18
17
04
06
1:
0<
0;
#220000
0!
0"
0/
00
08
07
1<
1;
#225000
1!
1"
1/
10
18
17
0<
0;
#230000
0!
0"
0/
00
08
07
1<
1;
#245000
1#
1$
11
12
14
16
0:
#250000
1!
1"
1/
10
18
17
0<
0;
#255000
0!
0"
0#
0$
0/
00
01
02
04
06
08
07
1<
1;
1:
#260000
1!
1"
1/
10
18
17
0<
0;
#265000
0!
0"
1#
1$
0/
00
11
12
14
16
08
07
1<
1;
0:
#270000
0#
0$
01
02
04
06
1:
#275000
1#
1$
1!
1"
11
12
1/
10
18
17
14
16
0:
0<
0;
#280000
0!
0"
0/
00
08
07
1<
1;
#285000
1!
1"
0#
0$
1/
10
01
02
04
06
18
17
0<
0;
1:
#295000
0!
0"
1#
1$
0/
00
11
12
14
16
08
07
1<
1;
0:
#300000
1!
1"
1/
10
18
17
0<
0;
#305000
0!
0"
0/
00
08
07
1<
1;
#310000
1!
1"
1/
10
18
17
0<
0;
#315000
0#
0$
01
02
04
06
1:
#320000
1#
1$
0!
0"
11
12
0/
00
08
07
14
16
0:
1<
1;
#325000
1!
1"
1/
10
18
17
0<
0;
#330000
0!
0"
0/
00
08
07
1<
1;
#335000
1!
1"
0#
0$
1/
10
01
02
04
06
18
17
0<
0;
1:
#340000
0!
0"
0/
00
08
07
1<
1;
#345000
1!
1"
1#
1$
1/
10
11
12
14
16
18
17
0<
0;
0:
#355000
0!
0"
0#
0$
0/
00
01
02
04
06
08
07
1<
1;
1:
#365000
1!
1"
1/
10
18
17
0<
0;
#370000
0!
0"
0/
00
08
07
1<
1;
#375000
1!
1"
1#
1$
1/
10
11
12
14
16
18
17
0<
0;
0:
#380000
0!
0"
0/
00
08
07
1<
1;
#385000
1!
1"
0#
0$
1/
10
01
02
04
06
18
17
0<
0;
1:
#390000
1#
1$
11
12
14
16
0:
#395000
0!
0"
0/
00
08
07
1<
1;
#400000
1!
1"
1/
10
18
17
0<
0;
#405000
0!
0"
0#
0$
0/
00
01
02
04
06
08
07
1<
1;
1:
#415000
1#
1$
11
12
14
16
0:
#420000
1!
1"
1/
10
18
17
0<
0;
#430000
0#
0$
01
02
04
06
1:
#435000
1#
1$
0!
0"
11
12
0/
00
08
07
14
16
0:
1<
1;
#440000
1!
1"
1/
10
18
17
0<
0;
#445000
0!
0"
0#
0$
0/
00
01
02
04
06
08
07
1<
1;
1:
#450000
1#
1$
11
12
14
16
0:
#455000
0#
0$
1!
1"
01
02
1/
10
18
17
04
06
1:
0<
0;
#465000
1#
1$
11
12
14
16
0:
#480000
0#
0$
0!
0"
01
02
0/
00
08
07
04
06
1:
1<
1;
#485000
1#
1$
11
12
14
16
0:
#490000
1!
1"
1/
10
18
17
0<
0;
#495000
0!
0"
0/
00
08
07
1<
1;
#505000
0#
0$
01
02
04
06
1:
#510000
1#
1$
11
12
14
16
0:
#520000
1!
1"
1/
10
18
17
0<
0;
#525000
0#
0$
01
02
04
06
1:
#530000
1#
1$
11
12
14
16
0:
#535000
0!
0"
0/
00
08
07
1<
1;
#540000
0#
0$
01
02
04
06
1:
#545000
1!
1"
1/
10
18
17
0<
0;
#550000
1#
1$
11
12
14
16
0:
#555000
0!
0"
0/
00
08
07
1<
1;
#560000
1!
1"
0#
0$
1/
10
01
02
04
06
18
17
0<
0;
1:
#565000
1#
1$
11
12
14
16
0:
#570000
0!
0"
0/
00
08
07
1<
1;
#575000
1!
1"
0#
0$
1/
10
01
02
04
06
18
17
0<
0;
1:
#580000
1#
1$
11
12
14
16
0:
#585000
0!
0"
0/
00
08
07
1<
1;
#590000
1!
1"
1/
10
18
17
0<
0;
#600000
0!
0"
0/
00
08
07
1<
1;
#605000
1!
1"
0#
0$
1/
10
01
02
04
06
18
17
0<
0;
1:
#610000
0!
0"
1#
1$
0/
00
11
12
14
16
08
07
1<
1;
0:
#620000
0#
0$
01
02
04
06
1:
#625000
1#
1$
1!
1"
11
12
1/
10
18
17
14
16
0:
0<
0;
#630000
0!
0"
0/
00
08
07
1<
1;
#635000
1!
1"
0#
0$
1/
10
01
02
04
06
18
17
0<
0;
1:
#640000
0!
0"
0/
00
08
07
1<
1;
#645000
1#
1$
11
12
14
16
0:
#650000
0#
0$
1!
1"
01
02
1/
10
18
17
04
06
1:
0<
0;
#655000
1#
1$
0!
0"
11
12
0/
00
08
07
14
16
0:
1<
1;
#660000
0#
0$
01
02
04
06
1:
#665000
1#
1$
1!
1"
11
12
1/
10
18
17
14
16
0:
0<
0;
#670000
0!
0"
0/
00
08
07
1<
1;
#675000
0#
0$
01
02
04
06
1:
#680000
1#
1$
1!
1"
11
12
1/
10
18
17
14
16
0:
0<
0;
#685000
0#
0$
01
02
04
06
1:
#690000
1#
1$
0!
0"
11
12
0/
00
08
07
14
16
0:
1<
1;
#700000
0#
0$
1!
1"
01
02
1/
10
18
17
04
06
1:
0<
0;
#715000
1#
1$
11
12
14
16
0:
#720000
0#
0$
0!
0"
01
02
0/
00
08
07
04
06
1:
1<
1;
#725000
1#
1$
1!
1"
11
12
1/
10
18
17
14
16
0:
0<
0;
#730000
0!
0"
0/
00
08
07
1<
1;
#735000
0#
0$
01
02
04
06
1:
#740000
1#
1$
1!
1"
11
12
1/
10
18
17
14
16
0:
0<
0;
#745000
0!
0"
0/
00
08
07
1<
1;
#750000
1!
1"
0#
0$
1/
10
01
02
04
06
18
17
0<
0;
1:
#755000
0!
0"
0/
00
08
07
1<
1;
#760000
1!
1"
1/
10
18
17
0<
0;
#765000
0!
0"
0/
00
08
07
1<
1;
#770000
1!
1"
1/
10
18
17
0<
0;
#775000
0!
0"
0/
00
08
07
1<
1;
#780000
1!
1"
1/
10
18
17
0<
0;
#785000
0!
0"
0/
00
08
07
1<
1;
#790000
1!
1"
1/
10
18
17
0<
0;
#795000
0!
0"
0/
00
08
07
1<
1;
#805000
1!
1"
1#
1$
1/
10
11
12
14
16
18
17
0<
0;
0:
#810000
0!
0"
0/
00
08
07
1<
1;
#815000
0#
0$
01
02
04
06
1:
#830000
1#
1$
1!
1"
11
12
1/
10
18
17
14
16
0:
0<
0;
#835000
0#
0$
0!
0"
01
02
0/
00
08
07
04
06
1:
1<
1;
#840000
1#
1$
11
12
14
16
0:
#845000
1!
1"
1/
10
18
17
0<
0;
#850000
0!
0"
0#
0$
0/
00
01
02
04
06
08
07
1<
1;
1:
#855000
1#
1$
11
12
14
16
0:
#860000
1!
1"
1/
10
18
17
0<
0;
#865000
0!
0"
0/
00
08
07
1<
1;
#870000
1!
1"
1/
10
18
17
0<
0;
#880000
0!
0"
0#
0$
0/
00
01
02
04
06
08
07
1<
1;
1:
#885000
1!
1"
1#
1$
1/
10
11
12
14
16
18
17
0<
0;
0:
#890000
0#
0$
01
02
04
06
1:
#895000
0!
0"
0/
00
08
07
1<
1;
#900000
1!
1"
1#
1$
1/
10
11
12
14
16
18
17
0<
0;
0:
#910000
0!
0"
0/
00
08
07
1<
1;
#915000
0#
0$
01
02
04
06
1:
#925000
1!
1"
1/
10
18
17
0<
0;
#930000
0!
0"
0/
00
08
07
1<
1;
#935000
1!
1"
1#
1$
1/
10
11
12
14
16
18
17
0<
0;
0:
#940000
0#
0$
01
02
04
06
1:
#945000
1#
1$
0!
0"
11
12
0/
00
08
07
14
16
0:
1<
1;
#950000
0#
0$
1!
1"
01
02
1/
10
18
17
04
06
1:
0<
0;
#955000
1#
1$
11
12
14
16
0:
#960000
0#
0$
0!
0"
01
02
0/
00
08
07
04
06
1:
1<
1;
#965000
1!
1"
1/
10
18
17
0<
0;
#970000
0!
0"
1#
1$
0/
00
11
12
14
16
08
07
1<
1;
0:
#975000
1!
1"
0#
0$
1/
10
01
02
04
06
18
17
0<
0;
1:
#980000
0!
0"
0/
00
08
07
1<
1;
#995000
1!
1"
1/
10
18
17
0<
0;
