exercicios/aula_10/calculadora/simulation/qsim/calculadora.msim.vcd
$comment
	File created using the following command:
		vcd file calculadora.msim.vcd -direction
$end
$date
	Sun Sep 22 11:51:18 2019
$end
$version
	ModelSim Version 10.5b
$end
$timescale
	1ps
$end

$scope module calculadora_vhd_vec_tst $end
$var wire 1 ! a [7] $end
$var wire 1 " a [6] $end
$var wire 1 # a [5] $end
$var wire 1 $ a [4] $end
$var wire 1 % a [3] $end
$var wire 1 & a [2] $end
$var wire 1 ' a [1] $end
$var wire 1 ( a [0] $end
$var wire 1 ) b [7] $end
$var wire 1 * b [6] $end
$var wire 1 + b [5] $end
$var wire 1 , b [4] $end
$var wire 1 - b [3] $end
$var wire 1 . b [2] $end
$var wire 1 / b [1] $end
$var wire 1 0 b [0] $end
$var wire 1 1 luz1 $end
$var wire 1 2 luz2 $end
$var wire 1 3 op $end
$var wire 1 4 s [7] $end
$var wire 1 5 s [6] $end
$var wire 1 6 s [5] $end
$var wire 1 7 s [4] $end
$var wire 1 8 s [3] $end
$var wire 1 9 s [2] $end
$var wire 1 : s [1] $end
$var wire 1 ; s [0] $end

$scope module i1 $end
$var wire 1 < gnd $end
$var wire 1 = vcc $end
$var wire 1 > unknown $end
$var wire 1 ? devoe $end
$var wire 1 @ devclrn $end
$var wire 1 A devpor $end
$var wire 1 B ww_devoe $end
$var wire 1 C ww_devclrn $end
$var wire 1 D ww_devpor $end
$var wire 1 E ww_a [7] $end
$var wire 1 F ww_a [6] $end
$var wire 1 G ww_a [5] $end
$var wire 1 H ww_a [4] $end
$var wire 1 I ww_a [3] $end
$var wire 1 J ww_a [2] $end
$var wire 1 K ww_a [1] $end
$var wire 1 L ww_a [0] $end
$var wire 1 M ww_b [7] $end
$var wire 1 N ww_b [6] $end
$var wire 1 O ww_b [5] $end
$var wire 1 P ww_b [4] $end
$var wire 1 Q ww_b [3] $end
$var wire 1 R ww_b [2] $end
$var wire 1 S ww_b [1] $end
$var wire 1 T ww_b [0] $end
$var wire 1 U ww_op $end
$var wire 1 V ww_luz1 $end
$var wire 1 W ww_luz2 $end
$var wire 1 X ww_s [7] $end
$var wire 1 Y ww_s [6] $end
$var wire 1 Z ww_s [5] $end
$var wire 1 [ ww_s [4] $end
$var wire 1 \ ww_s [3] $end
$var wire 1 ] ww_s [2] $end
$var wire 1 ^ ww_s [1] $end
$var wire 1 _ ww_s [0] $end
$var wire 1 ` \~QUARTUS_CREATED_GND~I_combout\ $end
$var wire 1 a \op~input_o\ $end
$var wire 1 b \a[0]~input_o\ $end
$var wire 1 c \b[0]~input_o\ $end
$var wire 1 d \s~0_combout\ $end
$var wire 1 e \b[1]~input_o\ $end
$var wire 1 f \a[1]~input_o\ $end
$var wire 1 g \s~1_combout\ $end
$var wire 1 h \b[2]~input_o\ $end
$var wire 1 i \a3|i1|cout~combout\ $end
$var wire 1 j \a[2]~input_o\ $end
$var wire 1 k \a2|i2|s~combout\ $end
$var wire 1 l \s~2_combout\ $end
$var wire 1 m \a3|i2|cout~combout\ $end
$var wire 1 n \a2|i2|cout~combout\ $end
$var wire 1 o \a1|i2|cout~0_combout\ $end
$var wire 1 p \b[3]~input_o\ $end
$var wire 1 q \a[3]~input_o\ $end
$var wire 1 r \s~3_combout\ $end
$var wire 1 s \b[4]~input_o\ $end
$var wire 1 t \a[4]~input_o\ $end
$var wire 1 u \a2|i4|s~combout\ $end
$var wire 1 v \s~10_combout\ $end
$var wire 1 w \a1|i4|cout~0_combout\ $end
$var wire 1 x \a[5]~input_o\ $end
$var wire 1 y \a2|i4|cout~combout\ $end
$var wire 1 z \b[5]~input_o\ $end
$var wire 1 { \a3|i4|cout~combout\ $end
$var wire 1 | \s~4_combout\ $end
$var wire 1 } \b[6]~input_o\ $end
$var wire 1 ~ \a[6]~input_o\ $end
$var wire 1 !! \a2|i6|s~combout\ $end
$var wire 1 "! \s~6_combout\ $end
$var wire 1 #! \b[7]~input_o\ $end
$var wire 1 $! \a2|i6|cout~combout\ $end
$var wire 1 %! \a[7]~input_o\ $end
$var wire 1 &! \a1|i6|cout~0_combout\ $end
$var wire 1 '! \a3|i6|cout~combout\ $end
$var wire 1 (! \s~5_combout\ $end
$var wire 1 )! \ALT_INV_b[7]~input_o\ $end
$var wire 1 *! \ALT_INV_a[7]~input_o\ $end
$var wire 1 +! \ALT_INV_b[6]~input_o\ $end
$var wire 1 ,! \ALT_INV_a[6]~input_o\ $end
$var wire 1 -! \ALT_INV_b[5]~input_o\ $end
$var wire 1 .! \ALT_INV_a[5]~input_o\ $end
$var wire 1 /! \ALT_INV_b[4]~input_o\ $end
$var wire 1 0! \ALT_INV_a[4]~input_o\ $end
$var wire 1 1! \ALT_INV_b[3]~input_o\ $end
$var wire 1 2! \ALT_INV_a[3]~input_o\ $end
$var wire 1 3! \ALT_INV_b[2]~input_o\ $end
$var wire 1 4! \ALT_INV_a[2]~input_o\ $end
$var wire 1 5! \ALT_INV_b[1]~input_o\ $end
$var wire 1 6! \ALT_INV_a[1]~input_o\ $end
$var wire 1 7! \ALT_INV_b[0]~input_o\ $end
$var wire 1 8! \ALT_INV_a[0]~input_o\ $end
$var wire 1 9! \ALT_INV_op~input_o\ $end
$var wire 1 :! \a2|i6|ALT_INV_cout~combout\ $end
$var wire 1 ;! \a1|i6|ALT_INV_cout~0_combout\ $end
$var wire 1 <! \a3|i6|ALT_INV_cout~combout\ $end
$var wire 1 =! \a2|i6|ALT_INV_s~combout\ $end
$var wire 1 >! \a1|i4|ALT_INV_cout~0_combout\ $end
$var wire 1 ?! \a2|i4|ALT_INV_cout~combout\ $end
$var wire 1 @! \a3|i4|ALT_INV_cout~combout\ $end
$var wire 1 A! \a2|i4|ALT_INV_s~combout\ $end
$var wire 1 B! \a1|i2|ALT_INV_cout~0_combout\ $end
$var wire 1 C! \a2|i2|ALT_INV_cout~combout\ $end
$var wire 1 D! \a3|i2|ALT_INV_cout~combout\ $end
$var wire 1 E! \a2|i2|ALT_INV_s~combout\ $end
$var wire 1 F! \a3|i1|ALT_INV_cout~combout\ $end
$upscope $end
$upscope $end
$enddefinitions $end
#0
$dumpvars
11
02
13
0<
1=
x>
1?
1@
1A
1B
1C
1D
1U
1V
0W
x`
1a
0b
0c
0d
0e
0f
0g
0h
0i
0j
0k
0l
0m
0n
1o
0p
0q
0r
1s
1t
0u
0v
0w
0x
1y
0z
1{
1|
0}
0~
0!!
0"!
0#!
1$!
0%!
0&!
0'!
0(!
1)!
1*!
1+!
1,!
1-!
1.!
0/!
00!
11!
12!
13!
14!
15!
16!
17!
18!
09!
0:!
1;!
1<!
1=!
1>!
0?!
0@!
1A!
0B!
1C!
1D!
1E!
1F!
0!
0"
0#
1$
0%
0&
0'
0(
0)
0*
0+
1,
0-
0.
0/
00
0E
0F
0G
1H
0I
0J
0K
0L
0M
0N
0O
1P
0Q
0R
0S
0T
0X
0Y
1Z
0[
0\
0]
0^
0_
04
05
16
07
08
09
0:
0;
$end
#80000
0$
1%
1'
1(
0,
10
1L
1K
1I
0H
1T
0P
0s
1c
0t
1q
1f
1b
08!
06!
02!
10!
07!
1/!
0o
1r
0y
0{
1i
1n
0C!
0F!
1@!
1?!
1B!
1!!
0$!
0|
1l
1y
0?!
1:!
0=!
1\
0!!
1$!
18
0:!
1=!
1]
0Z
19
06
#170000
0%
0(
00
1)
1*
1+
0L
0I
0T
1O
1N
1M
1#!
1}
1z
0c
0q
0b
18!
12!
17!
0-!
0+!
0)!
1(!
1|
1"!
0$!
1o
1w
0r
1g
0i
0n
1C!
1F!
0>!
0B!
1:!
1!!
0l
0y
1?!
0=!
1^
0\
1Y
1Z
1X
0!!
1:
08
16
15
14
1=!
0]
09
#260000
1%
0)
0*
0+
1$
1&
1J
1I
1H
0O
0N
0M
0#!
0}
0z
1t
1q
1j
04!
02!
00!
1-!
1+!
1)!
0(!
0|
0"!
1&!
1r
1u
1v
1k
1l
0E!
0A!
0;!
1]
1[
1\
0Y
0Z
0X
19
18
17
06
05
04
#350000
0%
0$
0&
0'
0K
0J
0I
0H
0t
0q
0j
0f
16!
14!
12!
10!
0r
0u
0v
0l
0g
0k
1E!
1A!
0^
0]
0[
0\
0:
09
08
07
#440000
1'
1)
1*
1+
1(
10
1,
1-
1.
1L
1K
1T
1R
1Q
1P
1O
1N
1M
1#!
1}
1z
1s
1p
1h
1c
1f
1b
08!
06!
07!
03!
01!
0/!
0-!
0+!
0)!
1(!
1|
1"!
0&!
1r
1v
1l
0o
0w
1i
1k
1m
0D!
0E!
0F!
1>!
1B!
1;!
0l
0r
0v
1{
0@!
1]
1[
1\
1Y
1Z
1X
0|
0"!
1'!
19
18
17
16
15
14
0<!
0[
0\
0]
0(!
09
08
07
0Y
0Z
06
05
0X
04
#480000
0)
0*
0+
0(
0,
1%
1$
1&
1/
1S
0P
0O
0N
0M
0L
1J
1I
1H
1t
1q
1j
0b
0#!
0}
0z
0s
1e
05!
1/!
1-!
1+!
1)!
18!
04!
02!
00!
1r
1l
1d
1(!
1|
1!!
0'!
1y
0?!
1<!
0=!
0(!
0!!
1$!
0:!
1=!
1Z
1X
1_
1]
1\
1;
19
18
16
14
0X
04
#490000
03
0U
0a
19!
1g
0|
0V
1W
01
12
0Z
1^
1:
06
#570000
1(
0%
0$
0&
0/
0'
0-
0.
1L
0K
0J
0I
0H
0S
0R
0Q
0p
0h
0e
0t
0q
0j
0f
1b
08!
16!
14!
12!
10!
15!
13!
11!
1u
0y
0{
0d
0g
0i
0k
0m
1n
0C!
1D!
1E!
1F!
1@!
1?!
0A!
1!!
0$!
1|
0l
0r
0u
1y
1v
0?!
1A!
1:!
0=!
0^
0_
1(!
0|
0!!
1$!
0;
0:
1"!
0v
0:!
1=!
0\
0]
1Z
1[
0(!
09
08
16
0"!
17
0Z
1X
0[
1Y
06
14
07
15
0X
0Y
04
05
#660000
1%
1&
1,
00
1J
1I
0T
1P
1s
0c
1q
1j
04!
02!
17!
0/!
1d
1o
1r
1u
0y
1k
0n
1C!
0E!
1?!
0A!
0B!
1|
1!!
0$!
1l
1v
1:!
0=!
1\
1_
1(!
1;
18
1"!
1]
1Z
1[
19
16
17
1X
1Y
14
15
#750000
0%
0&
0,
0(
1$
1/
1.
1#
0L
0J
0I
1H
1G
1S
1R
0P
0s
1h
1e
1x
1t
0q
0j
0b
18!
14!
12!
00!
0.!
05!
03!
1/!
0o
0|
0!!
1$!
0r
0d
1g
0k
1E!
0:!
1=!
1B!
1r
0u
1y
0(!
0l
0"!
0?!
1A!
1^
0_
0\
0Z
1|
0;
1:
08
06
0v
0]
0X
1\
0Y
09
18
04
05
1Z
0[
16
07
#840000
1%
1&
1(
0$
0/
0.
0#
1'
1L
1K
1J
1I
0H
0G
0S
0R
0h
0e
0x
0t
1q
1j
1f
1b
08!
06!
04!
02!
10!
1.!
15!
13!
1o
1w
0|
0r
1d
1k
0E!
0>!
0B!
1r
0y
1|
0$!
1&!
1l
0;!
1:!
1?!
1_
0\
0Z
0|
1;
08
06
1]
1Z
1\
19
18
16
0Z
06
#930000
0&
0(
1$
1#
0'
1-
1!
1"
0L
0K
0J
1H
1G
1F
1E
1Q
1p
1%!
1~
1x
1t
0j
0f
0b
18!
16!
14!
00!
0.!
0,!
0*!
01!
0r
0w
1(!
1|
1!!
1u
1y
1{
0d
0g
0k
1E!
0@!
0?!
0A!
0=!
1>!
0&!
1$!
1'!
0l
1"!
1v
0<!
0:!
1;!
0^
0_
1Z
1X
0\
0;
0:
08
16
14
0]
1[
1Y
09
17
15
