exercicios/aula_10/subtrador/simulation/qsim/subtrador.msim.vcd
$comment
	File created using the following command:
		vcd file subtrador.msim.vcd -direction
$end
$date
	Sat Sep 21 19:33:47 2019
$end
$version
	ModelSim Version 10.5b
$end
$timescale
	1ps
$end

$scope module subtrador_vhd_vec_tst $end
$var wire 1 ! a [3] $end
$var wire 1 " a [2] $end
$var wire 1 # a [1] $end
$var wire 1 $ a [0] $end
$var wire 1 % b [3] $end
$var wire 1 & b [2] $end
$var wire 1 ' b [1] $end
$var wire 1 ( b [0] $end
$var wire 1 ) cout $end
$var wire 1 * s [3] $end
$var wire 1 + s [2] $end
$var wire 1 , s [1] $end
$var wire 1 - s [0] $end

$scope module i1 $end
$var wire 1 . gnd $end
$var wire 1 / vcc $end
$var wire 1 0 unknown $end
$var wire 1 1 devoe $end
$var wire 1 2 devclrn $end
$var wire 1 3 devpor $end
$var wire 1 4 ww_devoe $end
$var wire 1 5 ww_devclrn $end
$var wire 1 6 ww_devpor $end
$var wire 1 7 ww_a [3] $end
$var wire 1 8 ww_a [2] $end
$var wire 1 9 ww_a [1] $end
$var wire 1 : ww_a [0] $end
$var wire 1 ; ww_b [3] $end
$var wire 1 < ww_b [2] $end
$var wire 1 = ww_b [1] $end
$var wire 1 > ww_b [0] $end
$var wire 1 ? ww_cout $end
$var wire 1 @ ww_s [3] $end
$var wire 1 A ww_s [2] $end
$var wire 1 B ww_s [1] $end
$var wire 1 C ww_s [0] $end
$var wire 1 D \~QUARTUS_CREATED_GND~I_combout\ $end
$var wire 1 E \b[2]~input_o\ $end
$var wire 1 F \a[1]~input_o\ $end
$var wire 1 G \b[0]~input_o\ $end
$var wire 1 H \a[2]~input_o\ $end
$var wire 1 I \a[0]~input_o\ $end
$var wire 1 J \b[1]~input_o\ $end
$var wire 1 K \a5|i2|cout~combout\ $end
$var wire 1 L \b[3]~input_o\ $end
$var wire 1 M \a1|i3|s~combout\ $end
$var wire 1 N \a[3]~input_o\ $end
$var wire 1 O \a5|i3|cout~combout\ $end
$var wire 1 P \a5|i0|s~combout\ $end
$var wire 1 Q \a5|i1|s~combout\ $end
$var wire 1 R \a5|i2|s~combout\ $end
$var wire 1 S \a5|i3|s~combout\ $end
$var wire 1 T \ALT_INV_b[3]~input_o\ $end
$var wire 1 U \ALT_INV_a[3]~input_o\ $end
$var wire 1 V \ALT_INV_b[2]~input_o\ $end
$var wire 1 W \ALT_INV_a[2]~input_o\ $end
$var wire 1 X \ALT_INV_b[1]~input_o\ $end
$var wire 1 Y \ALT_INV_a[1]~input_o\ $end
$var wire 1 Z \ALT_INV_b[0]~input_o\ $end
$var wire 1 [ \ALT_INV_a[0]~input_o\ $end
$var wire 1 \ \a1|i3|ALT_INV_s~combout\ $end
$var wire 1 ] \a5|i2|ALT_INV_cout~combout\ $end
$upscope $end
$upscope $end
$enddefinitions $end
#0
$dumpvars
0)
0.
1/
x0
11
12
13
14
15
16
0?
xD
0E
0F
1G
0H
0I
0J
0K
1L
0M
1N
0O
1P
1Q
1R
1S
0T
0U
1V
1W
1X
1Y
0Z
1[
1\
1]
1!
0"
0#
0$
1%
0&
0'
1(
17
08
09
0:
1;
0<
0=
1>
1@
1A
1B
1C
1*
1+
1,
1-
$end
#5000
1"
1#
1$
1'
0(
1:
19
18
0>
1=
1J
0G
1H
1F
1I
0[
0Y
0W
1Z
0X
1K
0Q
0]
1O
0S
0B
0,
0@
1?
0*
1)
#10000
0$
0!
0%
1&
0:
07
1<
0;
0L
1E
0N
0I
1[
1U
0V
1T
1M
0O
1S
0P
0R
0\
1O
0S
0A
0C
1@
0?
0-
0+
1*
0)
0@
1?
0*
1)
#15000
1!
0#
1(
09
17
1>
1G
1N
0F
1Y
0U
0Z
1P
1S
0K
1R
1]
0S
1A
1@
1C
1-
1+
1*
0@
0*
#20000
0!
1#
0(
0&
19
07
0>
0<
0E
0G
0N
1F
0Y
1U
1Z
1V
0P
0O
1S
1K
0]
1O
0S
1@
0?
0C
0-
1*
0)
0@
1?
0*
1)
#25000
1!
0#
1&
1$
1%
1:
09
17
1<
1;
1L
1E
1N
0F
1I
0[
1Y
0U
0V
0T
0M
1S
0K
1P
1Q
1]
1\
0O
1B
1C
1@
1-
1,
1*
0?
0)
#30000
0&
0$
0"
0'
0=
0<
0:
08
0H
0I
0E
0J
1X
1V
1[
1W
0P
1M
0Q
0R
0\
1O
0S
0A
0B
0C
0-
0,
0+
0@
1?
0*
1)
#35000
1&
1$
1"
0!
1<
1:
18
07
0N
1H
1I
1E
0V
0[
0W
1U
0O
1S
1P
1K
0M
1\
0]
1C
1@
0?
1-
1*
0)
#40000
0$
0"
1#
0%
0:
19
08
0;
0L
0H
1F
0I
1[
0Y
1W
1T
1M
0K
0P
1Q
1R
1]
0\
1A
1B
0C
0-
1,
1+
#45000
1%
1;
1L
0T
0M
1\
0S
0@
0*
#50000
0%
1$
0&
1!
1'
1=
0<
0;
1:
17
1N
1I
0L
0E
1J
0X
1V
1T
0[
0U
1S
1P
1K
1M
0Q
0R
0\
0]
1O
0A
0B
1C
1@
1-
0,
0+
1*
1?
1)
#55000
1%
1&
0!
1"
1<
1;
18
07
0N
1H
1L
1E
0V
0T
0W
1U
0S
0M
1\
0O
1S
0@
0*
1@
0?
1*
0)
#60000
0%
0&
1!
1(
1>
0<
0;
17
1N
0L
0E
1G
0Z
1V
1T
0U
1O
0S
1M
0P
1R
0\
1S
1A
0C
0@
1?
0-
1+
0*
1)
1@
1*
#65000
1%
1&
0!
0(
0"
0'
0#
0>
0=
1<
1;
09
08
07
0N
0H
0F
1L
1E
0J
0G
1Z
1X
0V
0T
1Y
1W
1U
0S
0K
0M
1P
1\
1]
0O
1C
0@
1-
0*
0?
0)
#70000
0&
1!
1(
1"
1#
0$
1>
0<
0:
19
18
17
1N
1H
1F
0I
0E
1G
0Z
1V
1[
0Y
0W
0U
1S
1K
0]
1O
0S
1@
1*
0@
1?
0*
1)
#75000
0(
0#
1$
0%
0>
0;
1:
09
0F
1I
0L
0G
1Z
1T
0[
1Y
0K
1]
0O
1S
1@
0?
1*
0)
#80000
1(
1#
1&
0!
0"
1>
1<
19
08
07
0N
0H
1F
1E
1G
0Z
0V
0Y
1W
1U
0S
1M
0P
1Q
0\
1S
1B
0C
0@
0-
1,
0*
1@
1*
#85000
0#
0&
0$
1'
0:
09
1=
0<
0E
1J
0F
0I
1[
1Y
0X
1V
1P
0Q
0B
1C
1-
0,
#90000
1#
1&
1%
19
1<
1;
1L
1E
1F
0Y
0V
0T
0M
1Q
0R
1\
0S
0A
1B
1,
0+
0@
0*
#95000
0#
0&
0%
1$
0'
0(
1:
09
0>
0=
0<
0;
0L
0E
0J
0G
0F
1I
0[
1Y
1Z
1X
1V
1T
0Q
0B
0,
#100000
1#
1&
1%
1'
19
1=
1<
1;
1L
1E
1J
1F
0Y
0X
0V
0T
1R
1A
1+
#105000
0#
0%
0'
1(
1"
09
18
1>
0=
0;
0L
0J
1G
1H
0F
1Y
0W
0Z
1X
1T
1M
0P
1K
0R
0]
0\
1O
0A
0C
0-
0+
1?
1)
#110000
1#
0(
0&
0$
1!
0:
19
17
0>
0<
0E
0G
1N
1F
0I
1[
0Y
0U
1Z
1V
0M
1S
0K
1Q
1R
1]
1\
0O
1A
1B
1@
1,
1+
1*
0?
0)
#115000
1(
1&
1$
1%
1'
1>
1=
1<
1;
1:
1I
1L
1E
1J
1G
0Z
0X
0V
0T
0[
1K
0Q
0R
0]
1O
0S
0A
0B
0,
0+
0@
1?
0*
1)
#120000
0(
0$
0'
0"
0>
0=
0:
08
0H
0I
0J
0G
1Z
1X
1[
1W
0K
1Q
1R
1]
0O
1S
1A
1B
1,
1+
1@
0?
1*
0)
#125000
1'
1"
0&
0%
0#
1=
0<
0;
09
18
1H
0F
0L
0E
1J
0X
1V
1T
1Y
0W
1K
1M
0R
0\
0]
1O
0A
0+
1?
1)
#130000
0'
1&
1#
0=
1<
19
1F
1E
0J
1X
0V
0Y
#135000
1'
0"
1$
1=
1:
08
0H
1I
1J
0X
0[
1W
1P
0K
0Q
1R
1]
0S
1A
0B
1C
1-
0,
1+
0@
0*
#140000
0'
0!
0=
07
0N
0J
1X
1U
0O
1S
1Q
1B
1@
0?
1,
1*
0)
#145000
0&
1%
0<
1;
1L
0E
1V
0T
0R
0A
0+
#150000
1&
0%
1'
1!
1"
0$
0#
1=
1<
0;
0:
09
18
17
1N
1H
0F
0I
0L
1E
1J
0X
0V
1T
1[
1Y
0W
0U
1O
0S
0P
1R
1A
0C
0@
1?
0-
1+
0*
1)
#155000
0!
0"
1$
1:
08
07
0N
0H
1I
0[
1W
1U
0O
1S
1P
0R
0A
1C
1@
0?
1-
0+
1*
0)
#160000
0$
0&
0'
1(
0:
1>
0=
0<
0E
0J
1G
0I
1[
0Z
1X
1V
1R
1A
1+
#165000
1$
1&
1!
1:
17
1<
1E
1N
1I
0[
0U
0V
1O
0S
0P
0Q
0B
0C
0@
1?
0-
0,
0*
1)
#170000
1"
18
1H
0W
1K
0R
0]
1S
0A
0+
1@
1*
#175000
0"
0(
1%
1#
19
08
0>
1;
1L
0G
0H
1F
0Y
1W
1Z
0T
0M
1P
0K
1Q
1R
1]
1\
0O
1A
1B
1C
1-
1,
1+
0?
0)
#180000
0#
0$
0:
09
0F
0I
1[
1Y
0P
0Q
0B
0C
0-
0,
#185000
1#
1$
1"
0%
0!
1:
19
18
07
0;
0L
0N
1H
1F
1I
0[
0Y
0W
1U
1T
1M
0S
1K
1P
1Q
0R
0]
0\
1O
0A
1B
1C
0@
1-
1,
0+
0*
1?
1)
#190000
0#
0"
1%
0&
09
08
0<
1;
1L
0E
0H
0F
1Y
1W
1V
0T
0K
0Q
1]
0O
1S
0B
0,
1@
0?
1*
0)
#195000
0%
1&
1(
1'
1>
1=
1<
0;
0L
1E
1J
1G
0Z
0X
0V
1T
0P
1Q
1B
0C
0-
1,
#200000
1%
0'
1#
1"
0$
0=
1;
0:
19
18
1H
1F
0I
1L
0J
1X
0T
1[
0Y
0W
1P
1K
0M
0Q
1\
0]
0B
1C
1-
0,
#205000
1'
1$
1=
1:
1I
1J
0X
0[
0P
0C
0-
#210000
0'
0%
0"
0=
0;
08
0H
0L
0J
1X
1T
1W
0K
1M
1Q
1R
0\
1]
1A
1B
1,
1+
#215000
1%
1"
0$
0&
0<
1;
0:
18
1H
0I
1L
0E
1V
0T
1[
0W
1P
0Q
1K
0M
1\
0]
0B
1C
1-
0,
#220000
0%
1$
1&
1'
0#
0(
1!
0>
1=
1<
0;
1:
09
17
1N
0F
1I
0L
1E
1J
0G
1Z
0X
0V
1T
0[
1Y
0U
1O
0S
0K
1M
1Q
0\
1]
1B
0@
1?
1,
0*
1)
#225000
1%
1#
1(
0!
1>
1;
19
07
0N
1F
1L
1G
0Z
0T
0Y
1U
0O
1S
1K
0M
0P
0Q
0R
1\
0]
0A
0B
0C
1@
0?
0-
0,
0+
1*
0)
#230000
0%
0#
0(
0$
0&
0'
0"
0>
0=
0<
0;
0:
09
08
0H
0F
0I
0L
0E
0J
0G
1Z
1X
1V
1T
1[
1Y
1W
0K
1]
0S
0@
0*
#235000
1%
1#
1&
1'
1"
1=
1<
1;
19
18
1H
1F
1L
1E
1J
0X
0V
0T
0Y
0W
1K
0]
1S
1@
1*
#240000
0%
0#
0'
1$
0=
0;
1:
09
0F
1I
0L
0J
1X
1T
0[
1Y
1P
1M
0\
1O
0S
1C
1-
0@
1?
0*
1)
#245000
1#
1(
1!
19
17
1>
1G
1N
1F
0Y
0U
0Z
0P
1S
1Q
1B
1@
0C
0-
1,
1*
#250000
1%
1'
0&
0"
1=
0<
1;
08
0H
1L
0E
1J
0X
1V
0T
1W
0M
0Q
1\
0S
0B
0,
0@
0*
#255000
0%
1&
0#
0(
0>
1<
0;
09
0F
0L
1E
0G
1Z
0V
1T
1Y
0K
1M
1P
1Q
0\
1]
1B
1C
1-
1,
#260000
0'
1"
0=
18
1H
0J
1X
0W
1K
0Q
0]
1S
0B
0,
1@
1*
#265000
1'
1%
1#
1(
0!
1>
1=
1;
19
07
0N
1F
1L
1J
1G
0Z
0X
0T
0Y
1U
0S
0M
0P
1\
0O
1S
0C
0@
0-
0*
1@
0?
1*
0)
#270000
0'
1!
0=
17
1N
0J
1X
0U
1O
0S
1Q
1B
0@
1?
1,
0*
1)
#275000
0!
0%
0(
0&
0$
0:
07
0>
0<
0;
0L
0E
0G
0N
0I
1[
1U
1Z
1V
1T
0O
1S
0K
1R
1]
0S
1A
1@
0?
1+
1*
0)
0@
0*
#280000
1!
1(
1$
0"
1:
08
17
1>
1G
1N
0H
1I
0[
1W
0U
0Z
1M
1S
1K
0R
0]
0\
1O
0A
1@
0+
1*
1?
1)
#285000
0!
0(
1&
1'
07
0>
1=
1<
1E
1J
0G
0N
1U
1Z
0X
0V
0K
1P
0Q
1R
0S
1]
0O
1S
0@
1A
0B
1C
1-
0,
1+
0*
1@
0?
1*
0)
#290000
1(
0'
0$
1"
1%
1>
0=
1;
0:
18
1H
0I
1L
0J
1G
0Z
1X
0T
1[
0W
1K
0M
0R
1\
0]
0A
0+
#295000
1'
1$
1!
0&
0#
1=
0<
1:
09
17
1N
0F
1I
0E
1J
0X
1V
0[
1Y
0U
1O
0S
0P
1Q
1B
0C
0@
1?
0-
1,
0*
1)
#300000
0$
0!
1&
0(
0:
07
0>
1<
1E
0G
0N
0I
1[
1U
1Z
0V
0O
1S
0K
1R
1]
0S
1A
1@
0?
1+
1*
0)
0@
0*
#305000
1!
1(
0'
1#
0"
19
08
17
1>
0=
0J
1G
1N
0H
1F
0Y
1W
0U
0Z
1X
1P
1S
0Q
0B
1@
1C
1-
0,
1*
#310000
0!
1'
1$
0%
1:
07
1=
0;
0L
1J
0N
1I
0[
1U
0X
1T
1M
0S
0P
0\
1S
0C
0@
0-
0*
1@
1*
#315000
0'
1%
0#
1"
0&
0=
0<
1;
09
18
1H
0F
1L
0E
0J
1X
1V
0T
1Y
0W
1K
0M
1\
0]
#320000
1'
1&
1=
1<
1E
1J
0X
0V
0K
1Q
1]
0S
1B
1,
0@
0*
#325000
0%
0;
0L
1T
1M
0\
1S
1@
1*
#330000
1%
0&
1#
1!
0$
0<
1;
0:
19
17
1N
1F
0I
1L
0E
1V
0T
1[
0Y
0U
1O
0S
1P
1K
0M
0R
1\
0]
0A
1C
0@
1?
1-
0+
0*
1)
#335000
1&
0#
0!
1$
0'
0"
0=
1<
1:
09
08
07
0N
0H
0F
1I
1E
0J
1X
0V
0[
1Y
1W
1U
0O
1S
0P
0K
0Q
1R
1]
0S
1A
0B
0C
1@
0?
0-
0,
1+
1*
0)
0@
0*
#340000
1!
0$
1"
0:
18
17
1N
1H
0I
1[
0W
0U
1S
1P
1Q
1B
1C
1@
1-
1,
1*
#345000
0&
0<
0E
1V
1K
0R
0]
1O
0S
0A
0+
0@
1?
0*
1)
#350000
1$
1#
1'
0(
1:
19
0>
1=
1J
0G
1F
1I
0[
0Y
1Z
0X
0Q
1R
1A
0B
0,
1+
#355000
0$
0#
1(
0!
0%
0:
09
07
1>
0;
0L
1G
0N
0F
0I
1[
1Y
1U
0Z
1T
1M
0O
1S
0R
0\
1O
0S
0A
1@
0?
0+
1*
0)
0@
1?
0*
1)
#360000
1#
1&
0"
19
08
1<
1E
0H
1F
0Y
1W
0V
0K
1Q
1]
0O
1S
1B
1,
1@
0?
1*
0)
#365000
0&
1"
1$
0(
1%
0>
0<
1;
1:
18
1H
1I
1L
0E
0G
1Z
1V
0T
0[
0W
1K
0M
0Q
1R
1\
0]
1A
0B
0,
1+
#370000
1&
0$
1(
0%
1>
1<
0;
0:
0I
0L
1E
1G
0Z
0V
1T
1[
0K
1M
1Q
0\
1]
1B
1,
#375000
0&
1$
1%
0#
1!
0<
1;
1:
09
17
1N
0F
1I
1L
0E
1V
0T
0[
1Y
0U
1O
0S
0P
1K
0M
0R
1\
0]
0A
0C
0@
1?
0-
0+
0*
1)
#380000
1&
0%
1#
0(
0"
0'
0>
0=
1<
0;
19
08
0H
1F
0L
1E
0J
0G
1Z
1X
0V
1T
0Y
1W
0K
1M
1P
1R
0\
1]
1A
1C
1-
1+
#385000
0&
0#
1(
1'
0!
1>
1=
0<
09
07
0N
0F
0E
1J
1G
0Z
0X
1V
1Y
1U
0O
1S
0P
0C
1@
0?
0-
1*
0)
#390000
1#
1!
1"
19
18
17
1N
1H
1F
0Y
0W
0U
1O
0S
1K
0Q
0]
1S
0B
0@
1?
0,
0*
1)
1@
1*
#395000
0!
0(
0$
0:
07
0>
0G
0N
0I
1[
1U
1Z
0S
0@
0*
#400000
1!
0"
08
17
1N
0H
1W
0U
1S
0R
0A
1@
0+
1*
#405000
0!
1"
0'
1%
18
07
0=
1;
1L
0J
0N
1H
0W
1U
1X
0T
1Q
0S
0K
1R
1]
0O
1S
1A
0@
1B
1,
1+
0*
1@
0?
1*
0)
#410000
1!
0"
1'
1(
1&
08
17
1>
1=
1<
1E
1J
1G
1N
0H
1W
0U
0Z
0X
0V
0M
1P
1O
0S
0R
1\
0O
1S
0A
0@
1?
1C
1-
0+
0*
1)
1@
0?
1*
0)
#415000
0!
0&
1$
0#
1:
09
07
0<
0E
0N
0F
1I
0[
1Y
1U
1V
0S
0P
1R
1A
0C
0@
0-
1+
0*
#420000
1&
0$
1#
1"
0(
0>
1<
0:
19
18
1H
1F
0I
1E
0G
1Z
0V
1[
0Y
0W
1K
0Q
0R
0]
1S
0A
0B
0,
0+
1@
1*
#425000
1$
0#
1(
1!
0'
1:
09
17
1>
0=
0J
1G
1N
0F
1I
0[
1Y
0U
0Z
1X
1O
0S
0@
1?
0*
1)
#430000
1#
1'
0&
0"
19
08
1=
0<
0E
1J
0H
1F
0Y
1W
0X
1V
#435000
0#
1&
0!
09
07
1<
1E
0N
0F
1Y
1U
0V
0O
1S
0K
1Q
1]
0S
1B
1@
0?
1,
1*
0)
0@
0*
#440000
1#
0'
1"
0$
0(
0:
19
18
0>
0=
0J
0G
1H
1F
0I
1[
0Y
0W
1Z
1X
1K
0]
1S
1@
1*
#445000
0#
0"
0%
09
08
0;
0L
0H
0F
1Y
1W
1T
1M
0K
0Q
1R
1]
0\
1A
0B
0,
1+
#450000
1#
1"
1%
1'
1$
0&
1:
19
18
1=
0<
1;
1L
0E
1J
1H
1F
1I
0[
0Y
0W
0X
1V
0T
0M
1K
1P
0]
1\
1C
1-
#455000
0"
0'
08
0=
0J
0H
1W
1X
1M
1Q
0K
0R
1]
0\
0A
1B
1,
0+
#460000
1"
0#
0$
0:
09
18
1H
0F
0I
1[
1Y
0W
0P
0Q
1R
1A
0B
0C
0-
0,
1+
#465000
1#
1$
1&
1!
1:
19
17
1<
1E
1N
1F
1I
0[
0Y
0U
0V
0M
1O
0S
1K
1P
1Q
0R
0]
1\
0A
1B
1C
0@
1?
1-
1,
0+
0*
1)
#470000
0$
0"
1'
1(
0:
08
1>
1=
1J
1G
0H
0I
1[
1W
0Z
0X
0K
1]
0O
1S
1@
0?
1*
0)
#475000
1"
0'
0(
0#
0&
0!
0%
09
18
07
0>
0=
0<
0;
0L
0E
0J
0G
0N
1H
0F
1Y
0W
1U
1Z
1X
1V
1T
0P
0S
0Q
1R
1A
0B
0@
0C
0-
0,
1+
0*
#480000
1'
1(
1%
1>
1=
1;
1L
1J
1G
0Z
0X
0T
1K
1P
0R
0]
1S
0A
1C
1-
0+
1@
1*
#485000
0'
0"
0=
08
0H
0J
1X
1W
0K
1Q
1R
1]
0S
1A
1B
1,
1+
0@
0*
#490000
1"
0(
1#
1&
19
18
0>
1<
1E
0G
1H
1F
0Y
0W
1Z
0V
0P
1K
0R
0]
1S
0A
0C
0-
0+
1@
1*
#495000
0"
0#
0&
09
08
0<
0E
0H
0F
1Y
1W
1V
1M
0K
0Q
1]
0\
0B
0,
#500000
1(
0%
1!
1$
1>
0;
1:
17
1N
1I
0L
1G
0Z
1T
0[
0U
1O
0S
1K
0]
1S
0@
1?
0*
1)
1@
1*
#505000
1"
1&
18
1<
1E
1H
0W
0V
#510000
0"
0&
0$
1#
0:
19
08
0<
0E
0H
1F
0I
1[
0Y
1W
1V
1P
1C
1-
#515000
1$
0#
0(
1%
1'
1:
09
0>
1=
1;
1L
1J
0G
0F
1I
0[
1Y
1Z
0X
0T
0M
0K
1Q
1R
1]
1\
0O
1A
1B
1,
1+
0?
0)
#520000
0$
1#
1(
1&
0:
19
1>
1<
1E
1G
1F
0I
1[
0Y
0Z
0V
0R
0A
0+
#525000
0&
0%
0'
1"
0=
0<
0;
18
1H
0L
0E
0J
1X
1V
1T
0W
1K
1M
0Q
1R
0\
0]
1O
1A
0B
0,
1+
1?
1)
#530000
1&
0"
0#
0!
1<
09
08
07
0N
0H
0F
1E
0V
1Y
1W
1U
0S
1Q
0K
0R
1]
0O
1S
0A
1B
0@
1,
0+
0*
1@
0?
1*
0)
#535000
0&
1"
1#
1$
0<
1:
19
18
1H
1F
1I
0E
1V
0[
0Y
0W
0P
1K
1R
0]
1O
0S
1A
0C
0-
1+
0@
1?
0*
1)
#540000
0$
1!
0(
0:
17
0>
0G
1N
0I
1[
0U
1Z
0M
1S
0K
1]
1\
0O
1@
1*
0?
0)
#545000
0!
1&
0"
1%
08
07
1<
1;
1L
1E
0N
0H
1W
1U
0V
0T
0S
0@
0*
#550000
0&
0%
1$
1(
0#
1>
0<
0;
1:
09
0F
1I
0L
0E
1G
0Z
1V
1T
0[
1Y
1K
1M
0Q
0R
0\
0]
1O
0A
0B
0,
0+
1?
1)
#555000
1&
1%
0$
1'
1=
1<
1;
0:
0I
1L
1E
1J
0X
0V
0T
1[
1P
0K
0M
1\
1]
0O
1C
1-
0?
0)
#560000
1$
0(
1#
1:
19
0>
0G
1F
1I
0[
0Y
1Z
1R
1A
1+
#565000
0$
0#
0&
0%
0'
0:
09
0=
0<
0;
0L
0E
0J
0F
0I
1[
1Y
1X
1V
1T
0P
0R
0A
0C
0-
0+
#570000
1$
1#
1:
19
1F
1I
0[
0Y
1P
1Q
1B
1C
1-
1,
#575000
0#
1%
1'
1(
1!
09
17
1>
1=
1;
1L
1J
1G
1N
0F
1Y
0U
0Z
0X
0T
0P
1S
1R
1A
1@
0C
0-
1+
1*
#580000
1#
0%
0'
0$
1&
1"
0:
19
18
0=
1<
0;
0L
1E
0J
1H
1F
0I
1[
0Y
0W
1X
0V
1T
1M
1K
1P
0Q
0R
0]
0\
1O
0A
0B
1C
1-
0,
0+
1?
1)
#585000
0#
1$
0"
1:
09
08
0H
0F
1I
0[
1Y
1W
0K
0P
1R
1]
0S
1A
0C
0-
1+
0@
0*
#590000
1#
0&
0!
19
07
0<
0E
0N
1F
0Y
1U
1V
0O
1S
1K
1Q
0R
0]
1O
0S
0A
1B
1@
0?
1,
0+
1*
0)
0@
1?
0*
1)
#595000
1&
1%
1<
1;
1L
1E
0V
0T
0K
0M
1R
1\
1]
0O
1A
1+
0?
0)
#600000
0&
0%
1!
0<
0;
17
1N
0L
0E
1V
1T
0U
1S
1K
1M
0R
0\
0]
1O
0A
1@
0+
1*
1?
1)
#605000
1%
0#
1"
1'
0(
0>
1=
1;
09
18
1H
0F
1L
1J
0G
1Z
0X
0T
1Y
0W
0M
1P
1\
0S
1C
1-
0@
0*
#610000
0"
0'
1(
1&
0!
08
07
1>
0=
1<
1E
0J
1G
0N
0H
1W
1U
0Z
1X
0V
0P
0Q
0O
1S
0K
1R
1]
0S
1A
1@
0?
0B
0C
0-
0,
1+
1*
0)
0@
0*
#615000
1"
0(
0&
1!
0%
0$
0:
18
17
0>
0<
0;
0L
0E
0G
1N
1H
0I
1[
0W
0U
1Z
1V
1T
1S
1@
1*
#620000
1(
1&
1>
1<
1E
1G
0Z
0V
1M
1P
1Q
0\
1O
0S
1B
1C
1-
1,
0@
1?
0*
1)
#625000
0(
0&
0!
1$
0>
0<
1:
07
0N
1I
0E
0G
1Z
1V
0[
1U
0O
1S
0M
0Q
1\
0S
0B
1@
0?
0,
1*
0)
0@
0*
#630000
1(
1&
1!
1>
1<
17
1N
1E
1G
0Z
0V
0U
1S
1K
1M
0P
0R
0\
0]
1O
0A
0C
1@
0-
0+
1*
1?
1)
#635000
0&
0$
1'
1#
1=
0<
0:
19
1F
0I
0E
1J
0X
1V
1[
0Y
1P
1Q
1B
1C
1-
1,
#640000
1$
0'
0!
1:
07
0=
0J
0N
1I
0[
1U
1X
0S
0P
1R
1A
0C
0@
0-
1+
0*
#645000
1'
0"
1%
1=
1;
08
0H
1L
1J
0X
0T
1W
0M
0Q
0R
1\
0O
1S
0A
0B
0,
0+
1@
0?
1*
0)
#650000
0'
1&
0#
0(
0>
0=
1<
09
0F
1E
0J
0G
1Z
1X
0V
1Y
0K
1P
1R
1]
0S
1A
1C
1-
1+
0@
0*
#655000
1#
0$
0:
19
1F
0I
1[
0Y
0P
1Q
1B
0C
0-
1,
#660000
1$
0&
0%
1:
0<
0;
0L
0E
1I
0[
1V
1T
1P
0R
0A
1C
1-
0+
#665000
1'
1!
1=
17
1N
1J
0X
0U
1S
1K
1M
0Q
0\
0]
1O
0B
1@
0,
1*
1?
1)
#670000
0!
0$
1&
0#
1(
1"
0:
09
18
07
1>
1<
1E
1G
0N
1H
0F
0I
1[
1Y
0W
1U
0Z
0V
0S
0K
1R
1]
0O
1S
1A
0@
1+
0*
1@
0?
1*
0)
#675000
1!
1#
0'
1%
19
17
0=
1;
1L
0J
1N
1F
0Y
0U
1X
0T
0M
1O
0S
1K
0R
0]
1\
0A
0@
1?
0+
0*
1)
#680000
0!
0#
1'
0%
1$
0"
1:
09
08
07
1=
0;
0L
1J
0N
0H
0F
1I
0[
1Y
1W
1U
0X
1T
1M
0O
1S
0K
0P
1Q
1]
0\
1B
0C
1@
0?
0-
1,
1*
0)
#685000
1!
1#
1"
0&
0(
19
18
17
0>
0<
0E
0G
1N
1H
1F
0Y
0W
0U
1Z
1V
1P
1O
0S
1K
0Q
1R
0]
1S
1A
0B
0@
1?
1C
1-
0,
1+
0*
1)
1@
1*
#695000
0!
1(
0'
1%
0$
0:
07
1>
0=
1;
1L
0J
1G
0N
0I
1[
1U
0Z
1X
0T
0M
0S
1\
0O
1S
0@
0*
1@
0?
1*
0)
#700000
1!
0(
1'
0%
0"
08
17
0>
1=
0;
0L
1J
0G
1N
0H
1W
0U
1Z
0X
1T
1M
0P
1O
0S
0R
0\
1S
0A
0@
1?
0C
0-
0+
0*
1)
1@
1*
#705000
0'
1%
1"
0=
1;
18
1H
1L
0J
1X
0T
0W
0K
1Q
1R
1]
0S
1A
1B
1,
1+
0@
0*
#710000
1'
0%
0!
1(
0#
1&
1>
1=
1<
0;
09
07
0N
0F
0L
1E
1J
1G
0Z
0X
0V
1T
1Y
1U
0O
1S
1P
0Q
0B
1C
1@
0?
1-
0,
1*
0)
#715000
0'
1!
0(
1#
0&
0>
0=
0<
19
17
1N
1F
0E
0J
0G
1Z
1X
1V
0Y
0U
1O
0S
0M
0P
1Q
1\
0O
1S
1B
0C
0@
1?
0-
1,
0*
1)
1@
0?
1*
0)
#720000
0!
1&
1%
0"
1$
1:
08
07
1<
1;
1L
1E
0N
0H
1I
0[
1W
1U
0V
0T
0S
1P
1C
0@
1-
0*
#725000
1!
0&
1"
1'
1(
18
17
1>
1=
0<
0E
1J
1G
1N
1H
0W
0U
0Z
0X
1V
0P
0Q
1S
1K
0]
1O
0S
1@
0B
0C
0-
0,
1*
0@
1?
0*
1)
#730000
0!
1&
0"
0'
0%
0$
0#
0:
09
08
07
0=
1<
0;
0L
1E
0J
0N
0H
0F
0I
1[
1Y
1W
1U
1X
0V
1T
1M
0O
1S
0K
1P
1Q
0R
1]
0\
0A
1B
1C
1@
0?
1-
1,
0+
1*
0)
#735000
0&
1'
1#
0(
0>
1=
0<
19
1F
0E
1J
0G
1Z
0X
1V
0Y
1K
0P
0Q
0]
1O
0S
0B
0C
0-
0,
0@
1?
0*
1)
#740000
1&
0'
1(
1!
1%
1>
0=
1<
1;
17
1N
1L
1E
0J
1G
0Z
1X
0V
0T
0U
1S
0K
0M
1P
1R
1\
1]
0O
1A
1C
1@
1-
1+
1*
0?
0)
#745000
0(
0#
0>
09
0F
0G
1Z
1Y
0P
0C
0-
#750000
0&
1$
0<
1:
1I
0E
1V
0[
1P
1M
0R
0\
1O
0S
0A
1C
1-
0+
0@
1?
0*
1)
#755000
0$
1(
1'
0!
0%
0:
07
1>
1=
0;
0L
1J
1G
0N
0I
1[
1U
0Z
0X
1T
0O
1S
1R
1A
1@
0?
1+
1*
0)
#760000
1$
0(
0'
1%
1&
1"
1:
18
0>
0=
1<
1;
1L
1E
0J
0G
1H
1I
0[
0W
1Z
1X
0V
0T
0M
1K
0R
0]
1\
0A
0+
#765000
1(
0&
0"
1#
1>
0<
19
08
0H
1F
0E
1G
0Z
1V
0Y
1W
0P
1Q
1B
0C
0-
1,
#770000
0%
0;
0L
1T
1M
0\
1O
0S
0@
1?
0*
1)
#775000
1%
0#
1'
1=
1;
09
0F
1L
1J
0X
0T
1Y
0K
0M
1R
1\
1]
0O
1A
1+
0?
0)
#780000
0%
0'
0(
1!
0>
0=
0;
17
1N
0L
0J
0G
1Z
1X
1T
0U
1S
1P
0Q
0R
0A
0B
1C
1@
1-
0,
0+
1*
#785000
1(
0!
1#
1"
1>
19
18
07
0N
1H
1F
1G
0Z
0Y
0W
1U
0S
1K
1M
0P
1Q
1R
0\
0]
1O
1A
1B
0C
0@
0-
1,
1+
0*
1?
1)
#790000
0(
0#
0"
0$
0>
0:
09
08
0H
0F
0I
0G
1Z
1[
1Y
1W
0K
0M
0Q
0R
1\
1]
0O
0A
0B
0,
0+
0?
0)
